%!PS-Adobe-3.0 EPSF-3.0
%%Creator: cairo 1.14.2 (http://cairographics.org)
%%CreationDate: Wed Oct  3 10:33:22 2018
%%Pages: 1
%%DocumentData: Clean7Bit
%%LanguageLevel: 2
%%BoundingBox: 87 -1 323 410
%%EndComments
%%BeginProlog
save
50 dict begin
/q { gsave } bind def
/Q { grestore } bind def
/cm { 6 array astore concat } bind def
/w { setlinewidth } bind def
/J { setlinecap } bind def
/j { setlinejoin } bind def
/M { setmiterlimit } bind def
/d { setdash } bind def
/m { moveto } bind def
/l { lineto } bind def
/c { curveto } bind def
/h { closepath } bind def
/re { exch dup neg 3 1 roll 5 3 roll moveto 0 rlineto
      0 exch rlineto 0 rlineto closepath } bind def
/S { stroke } bind def
/f { fill } bind def
/f* { eofill } bind def
/n { newpath } bind def
/W { clip } bind def
/W* { eoclip } bind def
/BT { } bind def
/ET { } bind def
/pdfmark where { pop globaldict /?pdfmark /exec load put }
    { globaldict begin /?pdfmark /pop load def /pdfmark
    /cleartomark load def end } ifelse
/BDC { mark 3 1 roll /BDC pdfmark } bind def
/EMC { mark /EMC pdfmark } bind def
/cairo_store_point { /cairo_point_y exch def /cairo_point_x exch def } def
/Tj { show currentpoint cairo_store_point } bind def
/TJ {
  {
    dup
    type /stringtype eq
    { show } { -0.001 mul 0 cairo_font_matrix dtransform rmoveto } ifelse
  } forall
  currentpoint cairo_store_point
} bind def
/cairo_selectfont { cairo_font_matrix aload pop pop pop 0 0 6 array astore
    cairo_font exch selectfont cairo_point_x cairo_point_y moveto } bind def
/Tf { pop /cairo_font exch def /cairo_font_matrix where
      { pop cairo_selectfont } if } bind def
/Td { matrix translate cairo_font_matrix matrix concatmatrix dup
      /cairo_font_matrix exch def dup 4 get exch 5 get cairo_store_point
      /cairo_font where { pop cairo_selectfont } if } bind def
/Tm { 2 copy 8 2 roll 6 array astore /cairo_font_matrix exch def
      cairo_store_point /cairo_font where { pop cairo_selectfont } if } bind def
/g { setgray } bind def
/rg { setrgbcolor } bind def
/d1 { setcachedevice } bind def
%%EndProlog
%%BeginSetup
%%EndSetup
%%Page: 1 1
%%BeginPageSetup
%%PageBoundingBox: 87 -1 323 410
%%EndPageSetup
q 87 -1 236 411 rectclip q
0 g
204.633 112.663 m 209.059 112.663 212.648 109.077 212.648 104.647 c 212.648
 100.217 209.059 96.627 204.633 96.627 c 200.207 96.627 196.617 100.217 
196.617 104.647 c 196.617 109.077 200.207 112.663 204.633 112.663 c h
103.23 71.405 m 306.035 71.405 l 306.035 338.194 l 103.23 338.194 l h
306.035 55.373 m 103.23 55.373 l 103.23 44.151 l 103.23 28.702 115.898 
16.03 131.352 16.03 c 277.914 16.03 l 293.379 16.03 306.031 28.686 306.031
 44.151 c 306.031 55.373 l h
131.352 409.6 m 107.066 409.6 87.199 389.733 87.199 365.452 c 87.199 44.151
 l 87.199 19.85 107.051 -0.002 131.352 -0.002 c 277.914 -0.002 l 302.195
 -0.002 322.066 19.87 322.066 44.151 c 322.066 365.452 l 322.066 389.733
 302.195 409.6 277.914 409.6 c h
277.914 393.569 m 293.383 393.569 306.035 380.916 306.035 365.452 c 306.035
 354.225 l 103.23 354.225 l 103.23 365.452 l 103.23 380.916 115.883 393.569
 131.352 393.569 c h
172.773 365.881 m 168.344 365.881 164.758 369.471 164.758 373.897 c 164.758
 378.327 168.344 381.913 172.773 381.913 c 236.492 381.913 l 240.918 381.913
 244.508 378.327 244.508 373.897 c 244.508 369.471 240.922 365.881 236.492
 365.881 c h
211.523 312.116 m 234.164 275.264 l 276.277 265.108 l 280.566 264.069 283.203
 259.748 282.164 255.459 c 281.855 254.194 281.262 253.069 280.473 252.143
 c 252.383 219.174 l 255.734 175.92 l 256.062 171.51 252.758 167.67 248.348
 167.342 c 246.863 167.229 245.445 167.53 244.207 168.143 c 204.633 184.483
 l 164.555 167.936 l 160.473 166.256 155.805 168.205 154.125 172.288 c 153.637
 173.479 153.457 174.717 153.547 175.92 c 156.883 219.174 l 128.789 252.139
 l 125.922 255.498 126.312 260.545 129.668 263.416 c 130.746 264.338 132
 264.92 133.301 265.182 c 175.102 275.264 l 197.805 312.221 l 200.121 315.995
 205.059 317.17 208.828 314.854 c 209.977 314.147 210.883 313.202 211.523
 312.116 c h
222.227 264.084 m 223.492 262.018 225.551 260.733 227.77 260.37 c 259.879
 252.623 l 238.07 227.03 l 236.637 225.358 236.02 223.272 236.168 221.241
 c 236.156 221.237 l 238.758 187.682 l 207.672 200.518 l 205.645 201.35 
203.477 201.291 201.594 200.518 c 170.508 187.682 l 173.109 221.237 l 173.281
 223.584 172.43 225.768 170.926 227.35 c 149.387 252.623 l 182.094 260.514
 l 184.227 261.03 185.953 262.358 187.02 264.092 c 204.633 292.717 l h
134.867 127.092 m 130.441 127.092 126.852 130.682 126.852 135.108 c 126.852
 139.534 130.441 143.123 134.867 143.123 c 274.398 143.123 l 278.824 143.123
 282.414 139.538 282.414 135.108 c 282.414 130.682 278.824 127.092 274.398
 127.092 c h
134.867 96.627 m 130.441 96.627 126.852 100.217 126.852 104.647 c 126.852
 109.073 130.441 112.663 134.867 112.663 c 172.57 112.663 l 176.992 112.663
 180.586 109.077 180.586 104.647 c 180.586 100.217 176.992 96.627 172.57
 96.627 c h
236.695 96.627 m 232.273 96.627 228.68 100.217 228.68 104.647 c 228.68 
109.073 232.27 112.663 236.695 112.663 c 274.398 112.663 l 278.824 112.663
 282.414 109.077 282.414 104.647 c 282.414 100.217 278.824 96.627 274.398
 96.627 c h
236.695 96.627 m f*
Q Q
showpage
%%Trailer
end restore
%%EOF
