%!PS-Adobe-3.0 EPSF-3.0
%%Creator: cairo 1.14.2 (http://cairographics.org)
%%CreationDate: Wed Oct  3 10:33:22 2018
%%Pages: 1
%%DocumentData: Clean7Bit
%%LanguageLevel: 2
%%BoundingBox: 55 -1 355 410
%%EndComments
%%BeginProlog
save
50 dict begin
/q { gsave } bind def
/Q { grestore } bind def
/cm { 6 array astore concat } bind def
/w { setlinewidth } bind def
/J { setlinecap } bind def
/j { setlinejoin } bind def
/M { setmiterlimit } bind def
/d { setdash } bind def
/m { moveto } bind def
/l { lineto } bind def
/c { curveto } bind def
/h { closepath } bind def
/re { exch dup neg 3 1 roll 5 3 roll moveto 0 rlineto
      0 exch rlineto 0 rlineto closepath } bind def
/S { stroke } bind def
/f { fill } bind def
/f* { eofill } bind def
/n { newpath } bind def
/W { clip } bind def
/W* { eoclip } bind def
/BT { } bind def
/ET { } bind def
/pdfmark where { pop globaldict /?pdfmark /exec load put }
    { globaldict begin /?pdfmark /pop load def /pdfmark
    /cleartomark load def end } ifelse
/BDC { mark 3 1 roll /BDC pdfmark } bind def
/EMC { mark /EMC pdfmark } bind def
/cairo_store_point { /cairo_point_y exch def /cairo_point_x exch def } def
/Tj { show currentpoint cairo_store_point } bind def
/TJ {
  {
    dup
    type /stringtype eq
    { show } { -0.001 mul 0 cairo_font_matrix dtransform rmoveto } ifelse
  } forall
  currentpoint cairo_store_point
} bind def
/cairo_selectfont { cairo_font_matrix aload pop pop pop 0 0 6 array astore
    cairo_font exch selectfont cairo_point_x cairo_point_y moveto } bind def
/Tf { pop /cairo_font exch def /cairo_font_matrix where
      { pop cairo_selectfont } if } bind def
/Td { matrix translate cairo_font_matrix matrix concatmatrix dup
      /cairo_font_matrix exch def dup 4 get exch 5 get cairo_store_point
      /cairo_font where { pop cairo_selectfont } if } bind def
/Tm { 2 copy 8 2 roll 6 array astore /cairo_font_matrix exch def
      cairo_store_point /cairo_font where { pop cairo_selectfont } if } bind def
/g { setgray } bind def
/rg { setrgbcolor } bind def
/d1 { setcachedevice } bind def
%%EndProlog
%%BeginSetup
%%EndSetup
%%Page: 1 1
%%BeginPageSetup
%%PageBoundingBox: 55 -1 355 410
%%EndPageSetup
q 55 -1 300 411 rectclip q
0 g
288.383 20.829 m 296.668 24.048 305.008 25.688 313.402 25.708 c 321.785
 25.727 330.121 24.13 338.418 20.88 c 338.418 291.97 l 288.383 291.97 l 
h
179.836 280.79 m 179.836 276.348 176.234 272.747 171.793 272.747 c 167.352
 272.747 163.75 276.348 163.75 280.79 c 163.75 291.966 l 122.863 291.966
 l 122.863 247.598 l 131.711 247.598 l 136.152 247.598 139.754 244.001 139.754
 239.559 c 139.754 235.114 136.152 231.516 131.711 231.516 c 97.93 231.516
 l 93.488 231.516 89.887 235.114 89.887 239.559 c 89.887 244.001 93.488 
247.598 97.93 247.598 c 106.773 247.598 l 106.773 291.966 l 71.289 291.966
 l 71.289 68.032 l 84.781 66.239 96.871 60.001 106.039 50.837 c 115.203 
41.673 121.441 29.579 123.23 16.087 c 220.352 16.087 l 222.145 29.579 228.383
 41.673 237.547 50.837 c 246.711 60.001 258.805 66.239 272.297 68.032 c 
272.297 291.97 l 236.809 291.97 l 236.809 247.602 l 245.656 247.602 l 250.102
 247.602 253.699 244.001 253.699 239.559 c 253.699 235.114 250.102 231.516
 245.656 231.516 c 211.875 231.516 l 207.434 231.516 203.836 235.114 203.836
 239.559 c 203.836 244.001 207.434 247.602 211.875 247.602 c 220.727 247.602
 l 220.727 291.97 l 179.836 291.97 l h
171.793 256.661 m 176.234 256.661 179.836 253.063 179.836 248.618 c 179.836
 244.177 176.234 240.575 171.793 240.575 c 167.352 240.575 163.75 244.177
 163.75 248.618 c 163.75 253.063 167.352 256.661 171.793 256.661 c h
171.793 224.489 m 176.234 224.489 179.836 220.888 179.836 216.446 c 179.836
 205.27 l 187.242 203.696 193.859 199.993 199.023 194.833 c 205.992 187.864
 210.301 178.235 210.301 167.606 c 210.301 109.829 l 210.301 105.388 206.699
 101.786 202.258 101.786 c 141.332 101.786 l 136.887 101.786 133.289 105.388
 133.289 109.829 c 133.289 167.641 l 133.297 178.259 137.602 187.872 144.566
 194.833 c 149.727 199.993 156.348 203.696 163.75 205.27 c 163.75 216.446
 l 163.75 220.888 167.352 224.489 171.793 224.489 c h
305.359 308.052 m 305.359 344.587 l 305.359 358.032 299.852 370.266 290.977
 379.138 c 282.105 388.009 269.875 393.516 256.43 393.516 c 244.461 393.516
 233.461 389.157 224.93 381.946 c 232.406 371.36 236.809 358.466 236.809
 344.587 c 236.809 308.052 l h
214.109 369.059 m 209.91 361.845 207.5 353.485 207.5 344.587 c 207.5 308.052
 l 220.723 308.052 l 220.723 344.587 l 220.723 353.485 218.312 361.845 214.109
 369.059 c h
191.414 308.052 m 191.414 344.587 l 191.414 358.466 195.816 371.36 203.289
 381.946 c 194.758 389.157 183.758 393.516 171.793 393.516 c 158.348 393.516
 146.117 388.009 137.242 379.138 c 128.371 370.266 122.863 358.032 122.863
 344.587 c 122.863 308.052 l h
214.109 393.856 m 225.5 403.657 240.301 409.602 256.43 409.602 c 274.316
 409.602 290.57 402.29 302.352 390.513 c 314.133 378.731 321.445 362.473
 321.445 344.587 c 321.445 308.052 l 346.461 308.052 l 350.906 308.052 354.508
 304.454 354.508 300.009 c 354.508 8.048 l 354.477 8.048 l 354.477 6.665
 354.125 5.266 353.375 3.993 c 351.137 0.173 346.227 -1.105 342.41 1.134
 c 332.648 6.884 322.977 9.708 313.402 9.688 c 303.996 9.661 294.473 6.868
 284.832 1.372 c 284.82 1.364 l 284.703 1.282 l 284.66 1.255 l 284.539 1.184
 l 284.477 1.145 l 284.375 1.083 l 284.316 1.048 l 284.195 0.985 l 284.152
 0.962 l 284.039 0.899 l 283.969 0.864 l 283.84 0.798 l 283.82 0.79 l 283.68
 0.723 l 283.629 0.704 l 283.488 0.641 l 283.441 0.622 l 283.32 0.571 l 
283.266 0.548 l 283.129 0.497 l 283.09 0.485 l 282.938 0.431 l 282.922 0.423
 l 282.91 0.423 l 282.75 0.372 l 282.73 0.364 l 282.727 0.36 l 282.719 0.36
 l 282.57 0.313 l 282.52 0.298 l 282.371 0.259 l 282.352 0.255 l 282.18 
0.212 l 282.156 0.204 l 282.133 0.204 l 282.082 0.188 282.027 0.177 281.977
 0.169 c 281.953 0.161 l 281.895 0.149 281.832 0.141 281.773 0.126 c 281.758
 0.126 l 281.695 0.114 281.641 0.106 281.582 0.095 c 281.562 0.095 l 281.551
 0.091 l 281.496 0.083 281.441 0.075 281.387 0.067 c 281.344 0.063 l 281.188
 0.048 l 281.164 0.044 l 281.148 0.04 l 281.086 0.032 281.023 0.028 280.961
 0.024 c 280.895 0.016 280.828 0.016 280.758 0.013 c 280.754 0.013 l 280.688
 0.009 280.617 0.005 280.551 0.001 c 280.547 0.001 l 280.477 0.001 280.41
 0.001 280.34 0.001 c 63.242 0.001 l 58.805 0.001 55.199 3.598 55.199 8.044
 c 55.199 300.013 l 55.199 304.454 58.805 308.052 63.242 308.052 c 106.773
 308.052 l 106.773 344.587 l 106.773 362.473 114.09 378.731 125.867 390.513
 c 137.648 402.29 153.906 409.602 171.793 409.602 c 187.922 409.602 202.723
 403.657 214.109 393.856 c h
149.371 167.606 m 149.371 173.798 151.883 179.403 155.938 183.458 c 159.992
 187.516 165.602 190.024 171.793 190.024 c 177.984 190.024 183.59 187.516
 187.648 183.458 c 191.703 179.403 194.211 173.798 194.211 167.606 c 194.211
 117.876 l 149.371 117.876 l h
71.289 51.751 m 80.336 50.095 88.422 45.704 94.664 39.466 c 100.902 33.223
 105.297 25.134 106.949 16.087 c 71.289 16.087 l h
236.633 16.087 m 238.289 25.134 242.68 33.223 248.922 39.466 c 255.164 
45.704 263.254 50.095 272.297 51.751 c 272.297 16.087 l h
236.633 16.087 m f*
Q Q
showpage
%%Trailer
end restore
%%EOF
