%!PS-Adobe-3.0 EPSF-3.0
%%Creator: cairo 1.14.2 (http://cairographics.org)
%%CreationDate: Wed Oct  3 10:33:22 2018
%%Pages: 1
%%DocumentData: Clean7Bit
%%LanguageLevel: 2
%%BoundingBox: 0 36 409 371
%%EndComments
%%BeginProlog
save
50 dict begin
/q { gsave } bind def
/Q { grestore } bind def
/cm { 6 array astore concat } bind def
/w { setlinewidth } bind def
/J { setlinecap } bind def
/j { setlinejoin } bind def
/M { setmiterlimit } bind def
/d { setdash } bind def
/m { moveto } bind def
/l { lineto } bind def
/c { curveto } bind def
/h { closepath } bind def
/re { exch dup neg 3 1 roll 5 3 roll moveto 0 rlineto
      0 exch rlineto 0 rlineto closepath } bind def
/S { stroke } bind def
/f { fill } bind def
/f* { eofill } bind def
/n { newpath } bind def
/W { clip } bind def
/W* { eoclip } bind def
/BT { } bind def
/ET { } bind def
/pdfmark where { pop globaldict /?pdfmark /exec load put }
    { globaldict begin /?pdfmark /pop load def /pdfmark
    /cleartomark load def end } ifelse
/BDC { mark 3 1 roll /BDC pdfmark } bind def
/EMC { mark /EMC pdfmark } bind def
/cairo_store_point { /cairo_point_y exch def /cairo_point_x exch def } def
/Tj { show currentpoint cairo_store_point } bind def
/TJ {
  {
    dup
    type /stringtype eq
    { show } { -0.001 mul 0 cairo_font_matrix dtransform rmoveto } ifelse
  } forall
  currentpoint cairo_store_point
} bind def
/cairo_selectfont { cairo_font_matrix aload pop pop pop 0 0 6 array astore
    cairo_font exch selectfont cairo_point_x cairo_point_y moveto } bind def
/Tf { pop /cairo_font exch def /cairo_font_matrix where
      { pop cairo_selectfont } if } bind def
/Td { matrix translate cairo_font_matrix matrix concatmatrix dup
      /cairo_font_matrix exch def dup 4 get exch 5 get cairo_store_point
      /cairo_font where { pop cairo_selectfont } if } bind def
/Tm { 2 copy 8 2 roll 6 array astore /cairo_font_matrix exch def
      cairo_store_point /cairo_font where { pop cairo_selectfont } if } bind def
/g { setgray } bind def
/rg { setrgbcolor } bind def
/d1 { setcachedevice } bind def
%%EndProlog
%%BeginSetup
%%EndSetup
%%Page: 1 1
%%BeginPageSetup
%%PageBoundingBox: 0 36 409 371
%%EndPageSetup
q 0 36 409 335 rectclip q
0 g
27.191 370.8 m 380.809 370.8 l 396.219 370.8 408.801 358.222 408.801 342.808
 c 408.801 64.913 l 408.801 49.503 396.219 36.925 380.809 36.925 c 235.988
 36.925 l 231.57 36.925 227.992 40.503 227.992 44.917 c 227.992 49.339 231.57
 52.917 235.988 52.917 c 380.809 52.917 l 387.391 52.917 392.805 58.331 
392.805 64.913 c 392.805 293.925 l 15.195 293.925 l 15.195 64.913 l 15.195
 58.331 20.609 52.917 27.191 52.917 c 172.008 52.917 l 176.43 52.917 180.008
 49.339 180.008 44.917 c 180.008 40.503 176.43 36.925 172.008 36.925 c 27.191
 36.925 l 11.781 36.925 -0.801 49.503 -0.801 64.913 c -0.801 342.808 l -0.801
 358.222 11.781 370.8 27.191 370.8 c h
123.227 206.441 m 123.227 217.761 118.637 228.011 111.219 235.433 c 105.586
 241.066 98.328 245.066 90.211 246.667 c 90.211 260.851 l 90.211 265.261
 86.633 268.835 82.223 268.835 c 77.812 268.835 74.238 265.261 74.238 260.851
 c 74.238 246.667 l 66.117 245.066 58.859 241.066 53.227 235.433 c 45.809
 228.015 41.219 217.761 41.219 206.441 c 41.219 195.12 45.809 184.866 53.227
 177.448 c 60.648 170.027 70.898 165.437 82.223 165.437 c 89.137 165.437
 95.398 162.636 99.926 158.105 c 104.457 153.573 107.258 147.316 107.258
 140.402 c 107.258 133.487 104.457 127.23 99.926 122.698 c 95.398 118.167
 89.137 115.366 82.223 115.366 c 75.309 115.366 69.051 118.167 64.52 122.698
 c 59.992 127.23 57.188 133.487 57.188 140.402 c 57.188 144.812 53.613 148.386
 49.203 148.386 c 44.793 148.386 41.219 144.808 41.219 140.402 c 41.219 
129.081 45.809 118.827 53.227 111.405 c 58.859 105.777 66.117 101.777 74.238
 100.175 c 74.238 85.991 l 74.238 81.581 77.816 78.011 82.223 78.011 c 86.633
 78.011 90.211 81.585 90.211 85.991 c 90.211 100.175 l 98.328 101.777 105.586
 105.777 111.219 111.405 c 118.637 118.827 123.227 129.081 123.227 140.402
 c 123.227 151.722 118.637 161.976 111.219 169.394 c 103.797 176.816 93.547
 181.405 82.227 181.405 c 75.309 181.405 69.051 184.206 64.523 188.737 c
 59.992 193.265 57.188 199.527 57.188 206.441 c 57.188 213.355 59.992 219.616
 64.523 224.144 c 69.051 228.675 75.309 231.476 82.227 231.476 c 89.137 
231.476 95.398 228.675 99.93 224.144 c 104.457 219.616 107.258 213.355 107.258
 206.441 c 107.258 202.03 110.836 198.456 115.242 198.456 c 119.652 198.456
 123.227 202.03 123.227 206.441 c h
204 52.917 m 199.586 52.917 196.004 49.339 196.004 44.917 c 196.004 40.503
 199.586 36.925 204 36.925 c 208.418 36.925 211.996 40.503 211.996 44.917
 c 211.996 49.339 208.418 52.917 204 52.917 c h
155.398 162.718 m 150.984 162.718 147.402 159.136 147.402 154.722 c 147.402
 86.007 l 147.402 81.589 150.984 78.011 155.398 78.011 c 224.117 78.011 
l 228.535 78.011 232.117 81.589 232.117 86.007 c 232.117 154.722 l 232.117
 159.136 228.535 162.718 224.117 162.718 c h
216.117 146.726 m 163.398 146.726 l 163.398 94.003 l 216.117 94.003 l h
155.398 268.835 m 150.984 268.835 147.402 265.253 147.402 260.839 c 147.402
 192.12 l 147.402 187.702 150.984 184.12 155.398 184.12 c 224.117 184.12
 l 228.535 184.12 232.117 187.702 232.117 192.12 c 232.117 260.839 l 232.117
 265.253 228.535 268.835 224.117 268.835 c h
216.117 252.839 m 163.398 252.839 l 163.398 200.12 l 216.117 200.12 l h
149.898 324.366 m 171.789 324.366 l 176.207 324.366 179.789 327.948 179.789
 332.362 c 179.789 336.777 176.207 340.359 171.789 340.359 c 149.898 340.359
 l 145.48 340.359 141.898 336.777 141.898 332.362 c 141.898 327.948 145.48
 324.366 149.898 324.366 c h
96.016 324.366 m 117.906 324.366 l 122.324 324.366 125.906 327.948 125.906
 332.362 c 125.906 336.777 122.324 340.359 117.906 340.359 c 96.016 340.359
 l 91.602 340.359 88.02 336.777 88.02 332.362 c 88.02 327.948 91.602 324.366
 96.016 324.366 c h
42.133 324.366 m 64.023 324.366 l 68.445 324.366 72.023 327.948 72.023 
332.362 c 72.023 336.777 68.445 340.359 64.023 340.359 c 42.133 340.359 
l 37.715 340.359 34.137 336.777 34.137 332.362 c 34.137 327.948 37.715 324.366
 42.133 324.366 c h
264.902 141.57 m 360.02 141.57 l 364.434 141.57 368.016 145.152 368.016
 149.566 c 368.016 153.984 364.434 157.562 360.02 157.562 c 264.902 157.562
 l 260.484 157.562 256.906 153.984 256.906 149.566 c 256.906 145.152 260.484
 141.57 264.902 141.57 c h
264.902 83.163 m 312.461 83.163 l 316.879 83.163 320.457 86.745 320.457
 91.159 c 320.457 95.577 316.875 99.155 312.461 99.155 c 264.902 99.155 
l 260.484 99.155 256.906 95.573 256.906 91.159 c 256.906 86.745 260.484 
83.163 264.902 83.163 c h
264.902 112.366 m 360.02 112.366 l 364.434 112.366 368.016 115.948 368.016
 120.362 c 368.016 124.777 364.434 128.359 360.02 128.359 c 264.902 128.359
 l 260.484 128.359 256.906 124.777 256.906 120.362 c 256.906 115.948 260.484
 112.366 264.902 112.366 c h
264.902 247.683 m 360.02 247.683 l 364.434 247.683 368.016 251.265 368.016
 255.683 c 368.016 260.101 364.434 263.683 360.02 263.683 c 264.902 263.683
 l 260.484 263.683 256.906 260.101 256.906 255.683 c 256.906 251.265 260.484
 247.683 264.902 247.683 c h
264.902 189.277 m 312.461 189.277 l 316.879 189.277 320.457 192.859 320.457
 197.277 c 320.457 201.695 316.875 205.277 312.461 205.277 c 264.902 205.277
 l 260.484 205.277 256.906 201.695 256.906 197.277 c 256.906 192.859 260.484
 189.277 264.902 189.277 c h
264.902 218.48 m 360.02 218.48 l 364.434 218.48 368.016 222.062 368.016
 226.48 c 368.016 230.898 364.434 234.48 360.02 234.48 c 264.902 234.48 
l 260.484 234.48 256.906 230.898 256.906 226.48 c 256.906 222.062 260.484
 218.48 264.902 218.48 c h
15.195 309.917 m 392.805 309.917 l 392.805 342.808 l 392.805 349.394 387.391
 354.808 380.809 354.808 c 27.191 354.808 l 20.609 354.808 15.195 349.394
 15.195 342.808 c h
15.195 309.917 m f*
Q Q
showpage
%%Trailer
end restore
%%EOF
