%!PS-Adobe-3.0 EPSF-3.0
%%Creator: cairo 1.14.2 (http://cairographics.org)
%%CreationDate: Wed Oct  3 10:33:22 2018
%%Pages: 1
%%DocumentData: Clean7Bit
%%LanguageLevel: 2
%%BoundingBox: 0 28 410 382
%%EndComments
%%BeginProlog
save
50 dict begin
/q { gsave } bind def
/Q { grestore } bind def
/cm { 6 array astore concat } bind def
/w { setlinewidth } bind def
/J { setlinecap } bind def
/j { setlinejoin } bind def
/M { setmiterlimit } bind def
/d { setdash } bind def
/m { moveto } bind def
/l { lineto } bind def
/c { curveto } bind def
/h { closepath } bind def
/re { exch dup neg 3 1 roll 5 3 roll moveto 0 rlineto
      0 exch rlineto 0 rlineto closepath } bind def
/S { stroke } bind def
/f { fill } bind def
/f* { eofill } bind def
/n { newpath } bind def
/W { clip } bind def
/W* { eoclip } bind def
/BT { } bind def
/ET { } bind def
/pdfmark where { pop globaldict /?pdfmark /exec load put }
    { globaldict begin /?pdfmark /pop load def /pdfmark
    /cleartomark load def end } ifelse
/BDC { mark 3 1 roll /BDC pdfmark } bind def
/EMC { mark /EMC pdfmark } bind def
/cairo_store_point { /cairo_point_y exch def /cairo_point_x exch def } def
/Tj { show currentpoint cairo_store_point } bind def
/TJ {
  {
    dup
    type /stringtype eq
    { show } { -0.001 mul 0 cairo_font_matrix dtransform rmoveto } ifelse
  } forall
  currentpoint cairo_store_point
} bind def
/cairo_selectfont { cairo_font_matrix aload pop pop pop 0 0 6 array astore
    cairo_font exch selectfont cairo_point_x cairo_point_y moveto } bind def
/Tf { pop /cairo_font exch def /cairo_font_matrix where
      { pop cairo_selectfont } if } bind def
/Td { matrix translate cairo_font_matrix matrix concatmatrix dup
      /cairo_font_matrix exch def dup 4 get exch 5 get cairo_store_point
      /cairo_font where { pop cairo_selectfont } if } bind def
/Tm { 2 copy 8 2 roll 6 array astore /cairo_font_matrix exch def
      cairo_store_point /cairo_font where { pop cairo_selectfont } if } bind def
/g { setgray } bind def
/rg { setrgbcolor } bind def
/d1 { setcachedevice } bind def
%%EndProlog
%%BeginSetup
%%EndSetup
%%Page: 1 1
%%BeginPageSetup
%%PageBoundingBox: 0 28 410 382
%%EndPageSetup
q 0 28 410 354 rectclip q
0 g
286.93 202.182 m 290.055 205.303 295.117 205.303 298.242 202.182 c 301.367
 199.057 301.367 193.991 298.242 190.87 c 212.289 104.92 l 209.168 101.795
 204.102 101.795 200.977 104.92 c 197.855 108.041 197.855 113.108 200.977
 116.233 c h
165.488 225.522 m 169.906 225.522 173.488 221.94 173.488 217.522 c 173.488
 213.104 169.906 209.522 165.488 209.522 c 161.07 209.522 157.488 213.104
 157.488 217.522 c 157.488 185.522 l 157.488 189.94 161.07 193.522 165.488
 193.522 c 169.906 193.522 173.488 189.94 173.488 185.522 c 173.488 45.522
 l 352.746 45.522 l 352.746 227.651 l 342.961 229.327 334.203 234.026 327.477
 240.752 c 325.332 242.897 323.395 245.248 321.695 247.772 c 319.992 245.248
 318.055 242.897 315.914 240.752 c 307.398 232.237 295.633 226.971 282.645
 226.971 c 269.648 226.971 257.887 232.237 249.371 240.752 c 247.227 242.897
 245.289 245.248 243.59 247.772 c 241.891 245.248 239.953 242.897 237.809
 240.752 c 229.293 232.237 217.531 226.971 204.539 226.971 c 191.547 226.971
 179.785 232.237 171.27 240.752 c 169.117 242.901 167.18 245.256 165.477
 247.784 c 163.777 245.256 161.844 242.893 159.707 240.752 c 151.191 232.237
 139.43 226.971 126.434 226.971 c 113.445 226.971 101.68 232.237 93.164 
240.752 c 91.023 242.897 89.082 245.248 87.383 247.772 c 85.684 245.248 
83.746 242.897 81.602 240.752 c 74.875 234.026 66.117 229.327 56.332 227.647
 c 56.332 45.518 l 157.484 45.518 l 157.484 217.541 l 157.484 217.522 l 
157.488 221.94 161.07 225.522 165.488 225.522 c h
360.746 242.971 m 352.172 242.971 344.406 246.448 338.789 252.065 c 333.168
 257.686 329.695 265.448 329.695 274.022 c 329.695 274.889 329.555 275.721
 329.305 276.498 c 324.125 297.373 l 307.398 364.799 l 345.852 364.799 l
 392.641 270.491 l 392.871 270.057 l 393.367 268.998 393.602 267.877 393.602
 266.721 c 393.602 263.651 391.977 260.291 389.348 257.088 c 386.246 253.315
 381.895 249.92 377.023 247.377 c 371.789 244.647 366.047 242.971 360.746
 242.971 c h
368.746 227.741 m 374.086 228.737 379.434 230.663 384.398 233.252 c 391.121
 236.76 397.215 241.553 401.66 246.963 c 406.574 252.944 409.602 259.764
 409.602 266.721 c 409.602 270.623 408.676 274.073 406.953 277.557 c 358.199
 375.823 l 357.008 378.741 354.137 380.799 350.789 380.799 c 58.289 380.799
 l 54.945 380.799 52.074 378.741 50.883 375.823 c 2.094 277.491 l 0.664 
274.526 0 271.409 0 268.233 c 0 261.061 3.426 253.561 8.914 246.983 c 13.945
 240.955 20.855 235.534 28.414 231.889 c 32.25 230.041 36.273 228.631 40.336
 227.807 c 40.336 37.522 l 40.336 33.104 43.918 29.522 48.336 29.522 c 360.746
 29.522 l 365.164 29.522 368.746 33.104 368.746 37.522 c h
132.379 121.983 m 132.379 117.565 128.797 113.983 124.383 113.983 c 119.961
 113.983 116.379 117.565 116.379 121.983 c 116.379 153.616 l 116.379 158.034
 119.961 161.616 124.383 161.616 c 128.797 161.616 132.379 158.034 132.379
 153.616 c h
246.508 205.358 m 197.801 156.655 l 194.676 153.53 194.676 148.463 197.801
 145.342 c 200.922 142.217 205.988 142.217 209.109 145.342 c 257.82 194.045
 l 260.945 197.17 260.945 202.237 257.82 205.358 c 254.695 208.483 249.633
 208.483 246.508 205.358 c h
63.23 364.799 m 101.68 364.799 l 84.957 297.373 l 79.773 276.502 l 79.523
 275.721 79.383 274.889 79.383 274.022 c 79.383 265.448 75.91 257.686 70.289
 252.065 c 64.676 246.448 56.91 242.971 48.336 242.971 c 44.09 242.971 39.602
 244.217 35.348 246.268 c 29.84 248.924 24.809 252.862 21.164 257.233 c 
17.98 261.045 16 264.967 16 268.233 c 16 269.104 16.148 269.889 16.469 270.553
 c h
95.398 273.17 m 101.402 297.373 l 118.129 364.799 l 163.121 364.799 l 162.008
 346.819 l 158.938 297.373 l 157.555 275.057 l 157.512 274.717 157.488 274.373
 157.488 274.022 c 157.488 265.448 154.012 257.686 148.395 252.065 c 142.773
 246.448 135.012 242.971 126.438 242.971 c 117.863 242.971 110.102 246.448
 104.48 252.065 c 99.047 257.498 95.617 264.936 95.398 273.17 c h
174.934 297.373 m 179.117 364.799 l 229.965 364.799 l 234.148 297.373 l
 235.594 274.053 l 235.594 274.022 l 235.594 265.448 232.117 257.686 226.5
 252.065 c 220.883 246.448 213.117 242.971 204.539 242.971 c 195.965 242.971
 188.203 246.448 182.586 252.065 c 177.094 257.553 173.648 265.092 173.492
 273.432 c 173.488 274.049 l 174.914 297.038 l h
250.141 297.373 m 245.961 364.799 l 290.949 364.799 l 307.68 297.373 l 
313.68 273.17 l 313.461 264.936 310.031 257.498 304.602 252.065 c 298.98
 246.448 291.219 242.971 282.645 242.971 c 274.066 242.971 266.305 246.448
 260.684 252.065 c 255.066 257.686 251.59 265.448 251.59 274.022 c 251.59
 274.373 251.57 274.717 251.523 275.057 c h
250.141 297.373 m f*
Q Q
showpage
%%Trailer
end restore
%%EOF
