%!PS-Adobe-3.0 EPSF-3.0
%%Creator: cairo 1.14.2 (http://cairographics.org)
%%CreationDate: Wed Oct  3 10:33:22 2018
%%Pages: 1
%%DocumentData: Clean7Bit
%%LanguageLevel: 2
%%BoundingBox: 0 78 410 329
%%EndComments
%%BeginProlog
save
50 dict begin
/q { gsave } bind def
/Q { grestore } bind def
/cm { 6 array astore concat } bind def
/w { setlinewidth } bind def
/J { setlinecap } bind def
/j { setlinejoin } bind def
/M { setmiterlimit } bind def
/d { setdash } bind def
/m { moveto } bind def
/l { lineto } bind def
/c { curveto } bind def
/h { closepath } bind def
/re { exch dup neg 3 1 roll 5 3 roll moveto 0 rlineto
      0 exch rlineto 0 rlineto closepath } bind def
/S { stroke } bind def
/f { fill } bind def
/f* { eofill } bind def
/n { newpath } bind def
/W { clip } bind def
/W* { eoclip } bind def
/BT { } bind def
/ET { } bind def
/pdfmark where { pop globaldict /?pdfmark /exec load put }
    { globaldict begin /?pdfmark /pop load def /pdfmark
    /cleartomark load def end } ifelse
/BDC { mark 3 1 roll /BDC pdfmark } bind def
/EMC { mark /EMC pdfmark } bind def
/cairo_store_point { /cairo_point_y exch def /cairo_point_x exch def } def
/Tj { show currentpoint cairo_store_point } bind def
/TJ {
  {
    dup
    type /stringtype eq
    { show } { -0.001 mul 0 cairo_font_matrix dtransform rmoveto } ifelse
  } forall
  currentpoint cairo_store_point
} bind def
/cairo_selectfont { cairo_font_matrix aload pop pop pop 0 0 6 array astore
    cairo_font exch selectfont cairo_point_x cairo_point_y moveto } bind def
/Tf { pop /cairo_font exch def /cairo_font_matrix where
      { pop cairo_selectfont } if } bind def
/Td { matrix translate cairo_font_matrix matrix concatmatrix dup
      /cairo_font_matrix exch def dup 4 get exch 5 get cairo_store_point
      /cairo_font where { pop cairo_selectfont } if } bind def
/Tm { 2 copy 8 2 roll 6 array astore /cairo_font_matrix exch def
      cairo_store_point /cairo_font where { pop cairo_selectfont } if } bind def
/g { setgray } bind def
/rg { setrgbcolor } bind def
/d1 { setcachedevice } bind def
%%EndProlog
%%BeginSetup
%%EndSetup
%%Page: 1 1
%%BeginPageSetup
%%PageBoundingBox: 0 78 410 329
%%EndPageSetup
q 0 78 410 251 rectclip q
0 g
370.641 160.71 m 380.523 161.683 l 384.461 162.066 387.902 164.046 390.27
 166.925 c 392.629 169.8 393.898 173.573 393.508 177.558 c 381.566 299.32
 l 380.789 307.253 373.609 313.085 365.691 312.308 c 57.625 282.093 l 53.68
 281.71 50.242 279.73 47.875 276.851 c 45.516 273.976 44.246 270.198 44.637
 266.218 c 44.949 263.03 l 340.09 263.03 l 348.5 263.03 356.141 259.593 
361.676 254.062 c 367.207 248.527 370.641 240.886 370.641 232.48 c h
253.77 179.343 m 258.207 179.343 261.805 175.745 261.805 171.308 c 261.805
 166.87 258.207 163.273 253.77 163.273 c 249.332 163.273 245.73 166.87 245.73
 171.308 c 245.73 175.745 249.332 179.343 253.77 179.343 c h
256.449 205.105 m 252.812 216.124 247.289 226.573 239.938 235.57 c 236.488
 239.784 232.703 243.605 228.633 246.956 c 296.871 246.956 l 298.695 231.886
 305.586 218.37 315.785 208.171 c 325.984 197.972 339.496 191.085 354.57
 189.261 c 354.57 153.355 l 339.496 151.527 325.984 144.64 315.785 134.441
 c 305.586 124.241 298.695 110.73 296.871 95.655 c 228.633 95.655 l 232.703
 99.011 236.488 102.831 239.938 107.046 c 247.004 115.687 252.66 126.03 
256.449 137.511 c 256.398 137.534 l 256.895 138.577 257.176 139.745 257.176
 140.98 c 257.176 145.421 252.957 149.019 249.137 149.019 c 245.32 149.019
 243.113 147.159 241.82 144.448 c 241.773 144.296 241.438 143.292 241.387
 143.112 c 238.227 133.304 233.473 124.511 227.508 117.214 c 216.609 103.898
 201.688 95.655 185.32 95.655 c 168.953 95.655 154.031 103.898 143.137 117.214
 c 131.875 130.984 124.91 150.105 124.91 171.308 c 124.91 192.511 131.875
 211.628 143.137 225.398 c 154.031 238.714 168.953 246.956 185.32 246.956
 c 201.688 246.956 216.609 238.718 227.508 225.398 c 233.469 218.105 238.227
 209.308 241.387 199.499 c 241.508 199.05 241.672 198.597 241.809 198.148
 c 243.102 195.437 245.316 193.593 249.137 193.593 c 253.785 193.593 258.848
 200.073 256.449 205.105 c h
313.102 246.96 m 340.09 246.96 l 344.066 246.96 347.68 245.327 350.309 
242.698 c 352.938 240.073 354.57 236.452 354.57 232.48 c 354.57 205.495 
l 343.938 207.202 334.426 212.257 327.148 219.538 c 319.867 226.816 314.816
 236.327 313.102 246.96 c h
73.77 246.96 m 142.008 246.96 l 137.938 243.605 134.152 239.784 130.707
 235.57 c 117.195 219.05 108.836 196.323 108.836 171.308 c 108.836 146.292
 117.195 123.566 130.707 107.046 c 134.152 102.831 137.938 99.011 142.008
 95.655 c 73.77 95.655 l 71.945 110.73 65.055 124.241 54.855 134.441 c 44.656
 144.64 31.145 151.527 16.07 153.355 c 16.07 189.261 l 31.145 191.085 44.656
 197.972 54.855 208.175 c 65.055 218.37 71.945 231.886 73.77 246.96 c h
16.07 205.491 m 16.07 232.48 l 16.07 236.452 17.703 240.073 20.332 242.698
 c 22.961 245.327 26.574 246.956 30.547 246.956 c 57.539 246.956 l 55.824
 236.327 50.773 226.816 43.492 219.534 c 36.211 212.253 26.699 207.202 16.07
 205.491 c h
354.57 137.12 m 343.941 135.409 334.43 130.359 327.148 123.077 c 319.867
 115.796 314.816 106.284 313.102 95.655 c 340.09 95.655 l 348.039 95.655
 354.57 102.183 354.57 110.132 c h
57.539 95.655 m 55.824 106.284 50.773 115.796 43.492 123.077 c 36.211 130.359
 26.699 135.409 16.07 137.12 c 16.07 110.132 l 16.07 102.187 22.602 95.655
 30.547 95.655 c h
28.859 262.984 m 28.691 264.714 l 27.871 273.054 30.543 280.98 35.508 287.019
 c 40.469 293.058 47.738 297.218 56.117 298.042 c 364.184 328.253 l 380.91
 329.894 395.875 317.538 397.512 300.827 c 409.453 179.062 l 411.094 162.339
 398.738 147.37 382.027 145.734 c 370.641 144.616 l 370.641 110.136 l 370.641
 93.316 356.91 79.585 340.09 79.585 c 30.547 79.585 l 13.73 79.585 0 93.316
 0 110.132 c 0 232.48 l 0 240.89 3.434 248.53 8.969 254.062 c 14.129 259.222
 21.117 262.558 28.859 262.984 c h
177.285 227.105 m 177.285 231.542 180.883 235.14 185.32 235.14 c 189.758
 235.14 193.355 231.542 193.355 227.105 c 193.355 220.609 l 198.195 219.23
 202.523 216.632 205.988 213.167 c 211.277 207.878 214.551 200.57 214.551
 192.499 c 214.551 188.062 210.949 184.464 206.512 184.464 c 202.074 184.464
 198.477 188.062 198.477 192.499 c 198.477 196.136 197.004 199.421 194.625
 201.804 c 192.242 204.183 188.953 205.655 185.32 205.655 c 181.688 205.655
 178.398 204.183 176.016 201.804 c 173.637 199.421 172.164 196.136 172.164
 192.499 c 172.164 188.866 173.637 185.573 176.016 183.198 c 178.398 180.816
 181.688 179.343 185.32 179.343 c 193.391 179.343 200.695 176.073 205.988
 170.78 c 211.277 165.495 214.551 158.183 214.551 150.116 c 214.551 142.042
 211.277 134.737 205.988 129.448 c 202.523 125.984 198.195 123.386 193.355
 122.007 c 193.355 115.511 l 193.355 111.07 189.758 107.472 185.32 107.472
 c 180.883 107.472 177.285 111.07 177.285 115.511 c 177.285 122.007 l 172.445
 123.386 168.117 125.984 164.652 129.448 c 159.363 134.737 156.09 142.042
 156.09 150.116 c 156.09 154.554 159.691 158.152 164.129 158.152 c 168.566
 158.152 172.164 154.554 172.164 150.116 c 172.164 146.48 173.637 143.191
 176.016 140.808 c 178.398 138.433 181.688 136.96 185.32 136.96 c 188.953
 136.96 192.242 138.433 194.625 140.808 c 197.008 143.191 198.477 146.48
 198.477 150.116 c 198.477 153.745 197.004 157.038 194.625 159.417 c 192.242
 161.8 188.953 163.273 185.32 163.273 c 177.25 163.273 169.945 166.542 164.652
 171.831 c 159.363 177.12 156.09 184.433 156.09 192.499 c 156.09 200.57 
159.363 207.878 164.652 213.167 c 168.117 216.632 172.445 219.23 177.285
 220.609 c h
177.285 227.105 m f*
Q Q
showpage
%%Trailer
end restore
%%EOF
