%!PS-Adobe-3.0 EPSF-3.0
%%Creator: cairo 1.14.2 (http://cairographics.org)
%%CreationDate: Wed Oct  3 10:33:22 2018
%%Pages: 1
%%DocumentData: Clean7Bit
%%LanguageLevel: 2
%%BoundingBox: 8 -1 403 410
%%EndComments
%%BeginProlog
save
50 dict begin
/q { gsave } bind def
/Q { grestore } bind def
/cm { 6 array astore concat } bind def
/w { setlinewidth } bind def
/J { setlinecap } bind def
/j { setlinejoin } bind def
/M { setmiterlimit } bind def
/d { setdash } bind def
/m { moveto } bind def
/l { lineto } bind def
/c { curveto } bind def
/h { closepath } bind def
/re { exch dup neg 3 1 roll 5 3 roll moveto 0 rlineto
      0 exch rlineto 0 rlineto closepath } bind def
/S { stroke } bind def
/f { fill } bind def
/f* { eofill } bind def
/n { newpath } bind def
/W { clip } bind def
/W* { eoclip } bind def
/BT { } bind def
/ET { } bind def
/pdfmark where { pop globaldict /?pdfmark /exec load put }
    { globaldict begin /?pdfmark /pop load def /pdfmark
    /cleartomark load def end } ifelse
/BDC { mark 3 1 roll /BDC pdfmark } bind def
/EMC { mark /EMC pdfmark } bind def
/cairo_store_point { /cairo_point_y exch def /cairo_point_x exch def } def
/Tj { show currentpoint cairo_store_point } bind def
/TJ {
  {
    dup
    type /stringtype eq
    { show } { -0.001 mul 0 cairo_font_matrix dtransform rmoveto } ifelse
  } forall
  currentpoint cairo_store_point
} bind def
/cairo_selectfont { cairo_font_matrix aload pop pop pop 0 0 6 array astore
    cairo_font exch selectfont cairo_point_x cairo_point_y moveto } bind def
/Tf { pop /cairo_font exch def /cairo_font_matrix where
      { pop cairo_selectfont } if } bind def
/Td { matrix translate cairo_font_matrix matrix concatmatrix dup
      /cairo_font_matrix exch def dup 4 get exch 5 get cairo_store_point
      /cairo_font where { pop cairo_selectfont } if } bind def
/Tm { 2 copy 8 2 roll 6 array astore /cairo_font_matrix exch def
      cairo_store_point /cairo_font where { pop cairo_selectfont } if } bind def
/g { setgray } bind def
/rg { setrgbcolor } bind def
/d1 { setcachedevice } bind def
%%EndProlog
%%BeginSetup
%%EndSetup
%%Page: 1 1
%%BeginPageSetup
%%PageBoundingBox: 8 -1 403 410
%%EndPageSetup
q 8 -1 395 411 rectclip q
0 g
253.473 17.089 m 230.176 -2.22 196.84 -4.63 161.73 7.155 c 136.504 15.624
 110.227 31.499 86.203 53.698 c 84.383 55.483 82.457 57.616 82.457 60.475
 c 82.457 64.889 86.93 68.475 90.457 68.475 c 93.98 68.475 94.977 67.171
 97.031 65.417 c 116.926 47.014 140.973 30.944 166.793 22.28 c 196.684 12.245
 224.523 13.85 243.285 29.401 c 241.402 42.686 218.594 71.679 192.438 89.968
 c 181.934 81.151 168.801 77.436 156.102 78.546 c 143.391 79.659 131.086
 85.608 122.266 96.12 c 90.496 133.983 l 81.684 144.483 77.965 157.62 79.078
 170.319 c 80.191 183.03 86.137 195.331 96.648 204.155 c 89.18 220.921 72.902
 248.511 51.562 261.311 c 48.02 263.436 45.82 264.741 45.801 264.722 c 27.184
 249.104 20.773 222.014 25.457 190.847 c 29.148 166.288 39.672 139.389 56.523
 113.475 c 61.441 105.718 50.211 95.546 41.949 106.62 c 24.508 133.952 13.57
 162.366 9.648 188.472 c 4.145 225.104 12.344 257.499 35.551 276.972 c 41.359
 281.843 50.18 280.733 59.746 274.995 c 78.027 264.03 94.414 241.194 103.926
 222.733 c 110.773 209.44 113.273 197.253 106.898 191.905 c 99.789 185.944
 95.77 177.593 95.012 168.944 c 94.258 160.284 96.773 151.347 102.742 144.233
 c 134.512 106.37 l 140.477 99.264 148.828 95.237 157.477 94.483 c 166.137
 93.725 175.07 96.241 182.191 102.214 c 188.254 107.3 198.727 103.612 209.77
 95.597 c 227.125 83.003 243.152 66.358 253.086 47.1 c 258.848 35.925 261.664
 23.972 253.531 17.143 c 253.469 17.093 l h
155.293 197.139 m 141.781 217.229 133.895 241.421 133.895 267.452 c 133.895
 302.292 148.012 333.827 170.84 356.655 c 193.668 379.483 225.207 393.604
 260.043 393.604 c 294.879 393.604 326.414 379.483 349.242 356.655 c 372.07
 333.827 386.191 302.292 386.191 267.452 c 386.191 223.6 376.945 188.585
 356.383 160.718 c 337.367 134.94 308.465 114.921 268.039 99.319 c 268.039
 133.307 l 268.039 137.725 264.461 141.307 260.043 141.307 c 237.832 141.307
 216.961 147.046 198.836 157.124 c 198.836 157.116 l 197.742 157.679 196.496
 157.999 195.18 157.999 c 190.762 157.999 187.18 154.417 187.18 149.999 
c 187.18 146.843 189.008 144.112 191.664 142.811 c 209.758 132.862 230.242
 126.741 252.043 125.53 c 252.043 87.882 l 252.07 87.882 l 252.07 87.014
 252.211 86.124 252.512 85.257 c 253.961 81.1 258.508 78.905 262.668 80.354
 c 311.852 97.585 346.629 120.604 369.258 151.28 c 391.973 182.073 402.188
 220.163 402.188 267.452 c 402.188 306.706 386.277 342.241 360.555 367.968
 c 334.832 393.69 299.293 409.6 260.043 409.6 c 220.789 409.6 185.258 393.69
 159.531 367.968 c 133.805 342.245 117.898 306.706 117.898 267.452 c 117.898
 238.249 126.711 211.093 141.82 188.514 c 141.918 188.35 142.023 188.194
 142.137 188.038 c 142.289 187.811 l 142.301 187.823 l 143.762 185.936 146.051
 184.729 148.617 184.729 c 153.039 184.729 156.617 188.311 156.617 192.729
 c 156.617 194.358 156.133 195.874 155.293 197.139 c h
169.309 176.647 m 164.891 176.647 161.309 173.065 161.309 168.647 c 161.309
 164.229 164.891 160.647 169.309 160.647 c 173.727 160.647 177.309 164.229
 177.309 168.647 c 177.309 173.061 173.727 176.647 169.309 176.647 c h
68.816 91.514 m 64.398 91.514 60.816 87.936 60.816 83.514 c 60.816 79.097
 64.398 75.514 68.816 75.514 c 73.23 75.514 76.816 79.097 76.816 83.514 
c 76.816 87.936 73.23 91.514 68.816 91.514 c h
252.043 359.468 m 252.043 344.608 l 243.395 342.975 235.656 338.749 229.676
 332.768 c 221.902 324.999 217.098 314.261 217.098 302.405 c 217.098 290.546
 221.902 279.811 229.676 272.034 c 237.445 264.264 248.184 259.456 260.043
 259.456 c 267.484 259.456 274.223 256.44 279.102 251.561 c 283.977 246.686
 286.992 239.952 286.992 232.507 c 286.992 225.061 283.977 218.327 279.102
 213.452 c 274.223 208.577 267.484 205.557 260.043 205.557 c 252.602 205.557
 245.863 208.577 240.988 213.452 c 236.109 218.327 233.094 225.065 233.094
 232.507 c 233.094 236.925 229.512 240.507 225.094 240.507 c 220.68 240.507
 217.098 236.925 217.098 232.507 c 217.098 220.651 221.902 209.913 229.68
 202.139 c 235.656 196.159 243.395 191.936 252.043 190.307 c 252.043 175.44
 l 252.043 171.022 255.625 167.44 260.043 167.44 c 264.461 167.44 268.043
 171.022 268.043 175.44 c 268.043 190.307 l 276.695 191.936 284.43 196.159
 290.41 202.139 c 298.184 209.913 302.992 220.651 302.992 232.507 c 302.992
 244.366 298.184 255.104 290.41 262.874 c 282.637 270.647 271.898 275.452
 260.043 275.452 c 252.602 275.452 245.863 278.468 240.988 283.347 c 236.109
 288.222 233.094 294.96 233.094 302.405 c 233.094 309.847 236.109 316.585
 240.988 321.46 c 245.863 326.339 252.602 329.35 260.043 329.35 c 267.484
 329.35 274.223 326.335 279.102 321.46 c 283.977 316.585 286.992 309.843
 286.992 302.405 c 286.992 297.983 290.57 294.405 294.992 294.405 c 299.41
 294.405 302.988 297.983 302.988 302.405 c 302.988 314.261 298.18 324.999
 290.41 332.768 c 284.43 338.749 276.695 342.975 268.039 344.608 c 268.039
 359.468 l 268.039 363.889 264.461 367.468 260.043 367.468 c 255.625 367.468
 252.043 363.889 252.043 359.468 c h
252.043 359.468 m f*
Q Q
showpage
%%Trailer
end restore
%%EOF
