%!PS-Adobe-3.0 EPSF-3.0
%%Creator: cairo 1.14.2 (http://cairographics.org)
%%CreationDate: Wed Oct  3 10:33:22 2018
%%Pages: 1
%%DocumentData: Clean7Bit
%%LanguageLevel: 2
%%BoundingBox: 16 -1 393 410
%%EndComments
%%BeginProlog
save
50 dict begin
/q { gsave } bind def
/Q { grestore } bind def
/cm { 6 array astore concat } bind def
/w { setlinewidth } bind def
/J { setlinecap } bind def
/j { setlinejoin } bind def
/M { setmiterlimit } bind def
/d { setdash } bind def
/m { moveto } bind def
/l { lineto } bind def
/c { curveto } bind def
/h { closepath } bind def
/re { exch dup neg 3 1 roll 5 3 roll moveto 0 rlineto
      0 exch rlineto 0 rlineto closepath } bind def
/S { stroke } bind def
/f { fill } bind def
/f* { eofill } bind def
/n { newpath } bind def
/W { clip } bind def
/W* { eoclip } bind def
/BT { } bind def
/ET { } bind def
/pdfmark where { pop globaldict /?pdfmark /exec load put }
    { globaldict begin /?pdfmark /pop load def /pdfmark
    /cleartomark load def end } ifelse
/BDC { mark 3 1 roll /BDC pdfmark } bind def
/EMC { mark /EMC pdfmark } bind def
/cairo_store_point { /cairo_point_y exch def /cairo_point_x exch def } def
/Tj { show currentpoint cairo_store_point } bind def
/TJ {
  {
    dup
    type /stringtype eq
    { show } { -0.001 mul 0 cairo_font_matrix dtransform rmoveto } ifelse
  } forall
  currentpoint cairo_store_point
} bind def
/cairo_selectfont { cairo_font_matrix aload pop pop pop 0 0 6 array astore
    cairo_font exch selectfont cairo_point_x cairo_point_y moveto } bind def
/Tf { pop /cairo_font exch def /cairo_font_matrix where
      { pop cairo_selectfont } if } bind def
/Td { matrix translate cairo_font_matrix matrix concatmatrix dup
      /cairo_font_matrix exch def dup 4 get exch 5 get cairo_store_point
      /cairo_font where { pop cairo_selectfont } if } bind def
/Tm { 2 copy 8 2 roll 6 array astore /cairo_font_matrix exch def
      cairo_store_point /cairo_font where { pop cairo_selectfont } if } bind def
/g { setgray } bind def
/rg { setrgbcolor } bind def
/d1 { setcachedevice } bind def
%%EndProlog
%%BeginSetup
%%EndSetup
%%Page: 1 1
%%BeginPageSetup
%%PageBoundingBox: 16 -1 393 410
%%EndPageSetup
q 16 -1 377 411 rectclip q
0 g
127.965 1.554 m 127.633 1.312 127.305 1.109 126.938 0.913 c 125.828 0.327
 124.566 -0.001 123.227 -0.001 c 24.805 -0.001 l 20.387 -0.001 16.801 3.585
 16.801 8.007 c 16.801 195.577 l 16.801 198.202 18.062 200.53 20.012 201.988
 c 153.922 323.409 l 153.922 362.308 l 153.922 375.32 159.242 387.144 167.809
 395.714 c 176.379 404.28 188.203 409.601 201.219 409.601 c 344.789 409.601
 l 357.801 409.601 369.625 404.28 378.195 395.714 c 386.762 387.148 392.082
 375.32 392.082 362.308 c 392.082 88.124 l 392.082 75.109 386.762 63.28 
378.195 54.714 c 369.625 46.144 357.801 40.827 344.789 40.827 c 201.219 
40.827 l 195.555 40.827 189.84 42.089 184.535 44.179 c 181.309 45.448 178.219
 47.034 175.375 48.835 c 128.945 2.405 l 128.641 2.093 128.316 1.812 127.965
 1.554 c h
333.219 201.214 m 337.637 201.214 341.219 197.632 341.219 193.214 c 341.227
 193.214 l 341.227 56.843 l 344.789 56.843 l 353.383 56.843 361.199 60.359
 366.871 66.034 c 372.547 71.706 376.07 79.527 376.07 88.124 c 376.07 362.308
 l 376.07 370.902 372.547 378.718 366.871 384.39 c 361.199 390.066 353.383
 393.589 344.789 393.589 c 341.227 393.589 l 341.227 257.214 l 341.219 257.214
 l 341.219 252.796 337.637 249.214 333.219 249.214 c 328.801 249.214 325.219
 252.796 325.219 257.214 c 325.211 257.214 l 325.211 393.589 l 201.219 393.589
 l 192.625 393.589 184.805 390.066 179.133 384.39 c 173.457 378.718 169.934
 370.902 169.934 362.308 c 169.934 170.312 l 206.988 207.363 l 224.43 224.812
 253.004 224.808 270.445 207.363 c 279.18 198.632 283.543 187.128 283.543
 175.636 c 283.543 164.14 279.18 152.64 270.445 143.905 c 187.074 60.538
 l 188.137 59.999 189.23 59.507 190.352 59.062 c 193.875 57.679 197.602 
56.843 201.219 56.843 c 325.211 56.843 l 325.211 193.214 l 325.219 193.214
 l 325.219 197.632 328.801 201.214 333.219 201.214 c h
333.219 233.214 m 328.801 233.214 325.219 229.632 325.219 225.214 c 325.219
 220.796 328.801 217.214 333.219 217.214 c 337.637 217.214 341.219 220.796
 341.219 225.214 c 341.219 229.632 337.637 233.214 333.219 233.214 c h
100.691 97.749 m 96.273 97.749 92.691 94.167 92.691 89.749 c 92.691 85.327
 96.273 81.749 100.691 81.749 c 105.109 81.749 108.691 85.327 108.691 89.749
 c 108.691 94.167 105.109 97.749 100.691 97.749 c h
153.922 301.89 m 32.816 192.077 l 32.816 16.015 l 119.91 16.015 l 259.125
 155.23 l 264.727 160.831 267.531 168.234 267.531 175.636 c 267.531 183.042
 264.727 190.437 259.125 196.046 c 247.895 207.273 229.539 207.273 218.309
 196.046 c 128.887 106.624 l 125.758 103.495 120.691 103.495 117.566 106.624
 c 114.438 109.749 114.438 114.816 117.566 117.945 c 153.922 154.3 l h
262.594 356.89 m 262.594 240.398 l 262.594 235.976 266.176 232.39 270.602
 232.39 c 275.023 232.39 278.605 235.976 278.605 240.398 c 278.605 356.89
 l 278.605 361.312 275.023 364.902 270.602 364.902 c 266.18 364.902 262.594
 361.316 262.594 356.89 c h
226.559 356.89 m 226.559 240.398 l 226.559 235.976 230.148 232.39 234.57
 232.39 c 238.992 232.39 242.574 235.976 242.574 240.398 c 242.574 356.89
 l 242.574 361.312 238.992 364.902 234.57 364.902 c 230.148 364.902 226.559
 361.316 226.559 356.89 c h
226.559 356.89 m f*
Q Q
showpage
%%Trailer
end restore
%%EOF
