%!PS-Adobe-3.0 EPSF-3.0
%%Creator: cairo 1.14.2 (http://cairographics.org)
%%CreationDate: Wed Oct  3 10:33:22 2018
%%Pages: 1
%%DocumentData: Clean7Bit
%%LanguageLevel: 2
%%BoundingBox: 0 83 410 326
%%EndComments
%%BeginProlog
save
50 dict begin
/q { gsave } bind def
/Q { grestore } bind def
/cm { 6 array astore concat } bind def
/w { setlinewidth } bind def
/J { setlinecap } bind def
/j { setlinejoin } bind def
/M { setmiterlimit } bind def
/d { setdash } bind def
/m { moveto } bind def
/l { lineto } bind def
/c { curveto } bind def
/h { closepath } bind def
/re { exch dup neg 3 1 roll 5 3 roll moveto 0 rlineto
      0 exch rlineto 0 rlineto closepath } bind def
/S { stroke } bind def
/f { fill } bind def
/f* { eofill } bind def
/n { newpath } bind def
/W { clip } bind def
/W* { eoclip } bind def
/BT { } bind def
/ET { } bind def
/pdfmark where { pop globaldict /?pdfmark /exec load put }
    { globaldict begin /?pdfmark /pop load def /pdfmark
    /cleartomark load def end } ifelse
/BDC { mark 3 1 roll /BDC pdfmark } bind def
/EMC { mark /EMC pdfmark } bind def
/cairo_store_point { /cairo_point_y exch def /cairo_point_x exch def } def
/Tj { show currentpoint cairo_store_point } bind def
/TJ {
  {
    dup
    type /stringtype eq
    { show } { -0.001 mul 0 cairo_font_matrix dtransform rmoveto } ifelse
  } forall
  currentpoint cairo_store_point
} bind def
/cairo_selectfont { cairo_font_matrix aload pop pop pop 0 0 6 array astore
    cairo_font exch selectfont cairo_point_x cairo_point_y moveto } bind def
/Tf { pop /cairo_font exch def /cairo_font_matrix where
      { pop cairo_selectfont } if } bind def
/Td { matrix translate cairo_font_matrix matrix concatmatrix dup
      /cairo_font_matrix exch def dup 4 get exch 5 get cairo_store_point
      /cairo_font where { pop cairo_selectfont } if } bind def
/Tm { 2 copy 8 2 roll 6 array astore /cairo_font_matrix exch def
      cairo_store_point /cairo_font where { pop cairo_selectfont } if } bind def
/g { setgray } bind def
/rg { setrgbcolor } bind def
/d1 { setcachedevice } bind def
%%EndProlog
%%BeginSetup
%%EndSetup
%%Page: 1 1
%%BeginPageSetup
%%PageBoundingBox: 0 83 410 326
%%EndPageSetup
q 0 83 410 243 rectclip q
0 g
51.031 324.799 m 358.57 324.799 l 372.609 324.799 385.367 319.061 394.617
 309.815 c 403.863 300.569 409.602 287.811 409.602 273.768 c 409.602 135.264
 l 409.602 121.221 403.859 108.463 394.617 99.217 c 385.371 89.971 372.609
 84.233 358.57 84.233 c 236.801 84.233 l 236.801 84.248 l 232.383 84.248
 228.801 87.83 228.801 92.248 c 228.801 96.67 232.383 100.248 236.801 100.248
 c 236.801 100.268 l 358.57 100.268 l 368.18 100.268 376.93 104.209 383.277
 110.553 c 389.625 116.905 393.562 125.651 393.562 135.264 c 393.562 256.127
 l 236.801 256.127 l 236.801 256.143 l 232.383 256.143 228.801 259.729 228.801
 264.147 c 228.801 268.561 232.383 272.147 236.801 272.147 c 236.801 272.163
 l 393.562 272.163 l 393.562 273.768 l 393.562 283.385 389.621 292.131 383.277
 298.479 c 376.93 304.827 368.184 308.764 358.57 308.764 c 51.031 308.764
 l 41.414 308.764 32.668 304.823 26.32 298.479 c 19.977 292.131 16.039 283.385
 16.039 273.768 c 16.039 272.163 l 172.801 272.163 l 172.801 272.147 l 177.219
 272.147 180.801 268.561 180.801 264.147 c 180.801 259.729 177.219 256.143
 172.801 256.143 c 172.801 256.127 l 16.039 256.127 l 16.039 135.264 l 16.039
 125.651 19.977 116.905 26.32 110.553 c 32.668 104.209 41.414 100.268 51.031
 100.268 c 172.801 100.268 l 172.801 100.248 l 177.219 100.248 180.801 96.67
 180.801 92.248 c 180.801 87.83 177.219 84.248 172.801 84.248 c 172.801 
84.233 l 51.031 84.233 l 36.992 84.233 24.227 89.971 14.984 99.217 c 5.738
 108.463 0 121.221 0 135.264 c 0 273.768 l 0 287.811 5.738 300.569 14.984
 309.815 c 24.227 319.061 36.992 324.799 51.031 324.799 c h
204.801 272.147 m 200.383 272.147 196.801 268.561 196.801 264.147 c 196.801
 259.729 200.383 256.143 204.801 256.143 c 209.219 256.143 212.801 259.729
 212.801 264.147 c 212.801 268.561 209.219 272.147 204.801 272.147 c h
204.801 100.248 m 200.383 100.248 196.801 96.67 196.801 92.248 c 196.801
 87.83 200.383 84.248 204.801 84.248 c 209.219 84.248 212.801 87.83 212.801
 92.248 c 212.801 96.67 209.219 100.248 204.801 100.248 c h
96.938 145.405 m 110.957 164.702 l 124.977 145.405 l 127.57 141.823 132.578
 141.022 136.16 143.62 c 139.742 146.213 140.539 151.217 137.945 154.799
 c 123.91 174.12 l 146.605 181.495 l 150.809 182.858 153.109 187.373 151.742
 191.577 c 150.379 195.78 145.863 198.08 141.66 196.717 c 118.977 189.342
 l 118.977 213.209 l 118.977 217.639 115.383 221.225 110.957 221.225 c 106.527
 221.225 102.938 217.639 102.938 213.209 c 102.938 189.342 l 80.254 196.717
 l 76.051 198.08 71.539 195.78 70.168 191.577 c 68.805 187.373 71.102 182.858
 75.305 181.495 c 98.004 174.12 l 83.969 154.799 l 81.375 151.217 82.176
 146.213 85.754 143.62 c 89.336 141.026 94.344 141.827 96.938 145.405 c 
h
284.621 145.405 m 298.641 164.702 l 312.664 145.405 l 315.258 141.823 320.262
 141.022 323.844 143.62 c 327.426 146.213 328.227 151.217 325.629 154.799
 c 311.594 174.12 l 334.289 181.495 l 338.496 182.858 340.797 187.373 339.43
 191.577 c 338.062 195.78 333.547 198.08 329.344 196.717 c 306.66 189.342
 l 306.66 213.209 l 306.66 217.639 303.07 221.225 298.645 221.225 c 294.215
 221.225 290.625 217.639 290.625 213.209 c 290.625 189.342 l 267.941 196.717
 l 263.738 198.08 259.223 195.78 257.855 191.577 c 256.488 187.373 258.789
 182.858 262.992 181.495 c 285.691 174.12 l 271.656 154.799 l 269.059 151.217
 269.859 146.213 273.441 143.62 c 277.02 141.026 282.023 141.827 284.621
 145.405 c h
190.777 145.405 m 204.801 164.702 l 218.82 145.405 l 221.414 141.823 226.422
 141.022 230.004 143.62 c 233.586 146.213 234.383 151.217 231.789 154.799
 c 217.754 174.12 l 240.449 181.495 l 244.656 182.858 246.957 187.373 245.586
 191.577 c 244.223 195.78 239.707 198.08 235.504 196.717 c 212.82 189.342
 l 212.82 213.209 l 212.82 217.639 209.227 221.225 204.801 221.225 c 200.371
 221.225 196.781 217.639 196.781 213.209 c 196.781 189.342 l 174.098 196.717
 l 169.895 198.08 165.383 195.78 164.012 191.577 c 162.648 187.373 164.945
 182.858 169.148 181.495 c 191.852 174.12 l 177.812 154.799 l 175.219 151.217
 176.02 146.213 179.598 143.62 c 183.18 141.026 188.184 141.827 190.777 
145.405 c h
190.777 145.405 m f*
Q Q
showpage
%%Trailer
end restore
%%EOF
