%!PS-Adobe-3.0 EPSF-3.0
%%Creator: cairo 1.14.2 (http://cairographics.org)
%%CreationDate: Wed Oct  3 10:33:22 2018
%%Pages: 1
%%DocumentData: Clean7Bit
%%LanguageLevel: 2
%%BoundingBox: 0 79 410 330
%%EndComments
%%BeginProlog
save
50 dict begin
/q { gsave } bind def
/Q { grestore } bind def
/cm { 6 array astore concat } bind def
/w { setlinewidth } bind def
/J { setlinecap } bind def
/j { setlinejoin } bind def
/M { setmiterlimit } bind def
/d { setdash } bind def
/m { moveto } bind def
/l { lineto } bind def
/c { curveto } bind def
/h { closepath } bind def
/re { exch dup neg 3 1 roll 5 3 roll moveto 0 rlineto
      0 exch rlineto 0 rlineto closepath } bind def
/S { stroke } bind def
/f { fill } bind def
/f* { eofill } bind def
/n { newpath } bind def
/W { clip } bind def
/W* { eoclip } bind def
/BT { } bind def
/ET { } bind def
/pdfmark where { pop globaldict /?pdfmark /exec load put }
    { globaldict begin /?pdfmark /pop load def /pdfmark
    /cleartomark load def end } ifelse
/BDC { mark 3 1 roll /BDC pdfmark } bind def
/EMC { mark /EMC pdfmark } bind def
/cairo_store_point { /cairo_point_y exch def /cairo_point_x exch def } def
/Tj { show currentpoint cairo_store_point } bind def
/TJ {
  {
    dup
    type /stringtype eq
    { show } { -0.001 mul 0 cairo_font_matrix dtransform rmoveto } ifelse
  } forall
  currentpoint cairo_store_point
} bind def
/cairo_selectfont { cairo_font_matrix aload pop pop pop 0 0 6 array astore
    cairo_font exch selectfont cairo_point_x cairo_point_y moveto } bind def
/Tf { pop /cairo_font exch def /cairo_font_matrix where
      { pop cairo_selectfont } if } bind def
/Td { matrix translate cairo_font_matrix matrix concatmatrix dup
      /cairo_font_matrix exch def dup 4 get exch 5 get cairo_store_point
      /cairo_font where { pop cairo_selectfont } if } bind def
/Tm { 2 copy 8 2 roll 6 array astore /cairo_font_matrix exch def
      cairo_store_point /cairo_font where { pop cairo_selectfont } if } bind def
/g { setgray } bind def
/rg { setrgbcolor } bind def
/d1 { setcachedevice } bind def
%%EndProlog
%%BeginSetup
%%EndSetup
%%Page: 1 1
%%BeginPageSetup
%%PageBoundingBox: 0 79 410 330
%%EndPageSetup
q 0 79 410 251 rectclip q
0 g
304.613 164.811 m 316.305 164.811 326.891 160.073 334.555 152.409 c 340.355
 146.608 344.48 139.131 346.145 130.772 c 369.414 130.772 l 372.242 130.772
 374.844 131.174 377.18 131.92 c 381.902 133.42 385.871 136.315 388.66 140.077
 c 391.41 143.791 392.992 148.401 392.992 153.405 c 392.992 155.952 392.609
 158.545 391.793 161.108 c 379.559 199.498 l 333.895 199.498 l 329.309 199.498
 325.59 203.217 325.59 207.803 c 325.59 212.389 329.309 216.108 333.895 
216.108 c 374.27 216.108 l 370.738 227.194 l 368.301 234.846 365.086 242.061
 360.637 247.182 c 356.887 251.498 352.055 254.28 345.727 254.28 c 312.918
 254.28 l 312.918 185.159 l 312.918 180.573 309.199 176.854 304.617 176.854
 c 300.027 176.854 296.309 180.573 296.309 185.159 c 296.309 288.405 l 296.309
 295.155 293.539 301.303 289.082 305.764 c 284.621 310.221 278.477 312.991
 271.723 312.991 c 69.602 312.991 l 62.852 312.991 56.707 310.221 52.246
 305.764 c 47.789 301.303 45.02 295.155 45.02 288.405 c 45.02 285.159 l 
127.23 285.159 l 131.816 285.159 135.535 281.444 135.535 276.858 c 135.535
 272.272 131.816 268.553 127.23 268.553 c 45.016 268.553 l 45.016 202.186
 l 127.227 202.186 l 131.816 202.186 135.535 198.467 135.535 193.885 c 135.535
 189.295 131.816 185.577 127.227 185.577 c 45.016 185.577 l 45.016 155.358
 l 45.016 148.608 47.785 142.459 52.246 137.998 c 56.707 133.541 62.852 
130.772 69.602 130.772 c 83.988 130.772 l 85.648 139.131 89.773 146.608 
95.574 152.409 c 103.238 160.073 113.824 164.811 125.52 164.811 c 137.211
 164.811 147.797 160.073 155.461 152.409 c 161.258 146.608 165.383 139.131
 167.047 130.772 c 263.082 130.772 l 264.742 139.131 268.867 146.608 274.668
 152.409 c 282.336 160.073 292.918 164.811 304.613 164.811 c h
159.535 201.885 m 163.953 201.885 167.535 198.303 167.535 193.885 c 167.535
 189.467 163.953 185.885 159.535 185.885 c 155.117 185.885 151.535 189.467
 151.535 193.885 c 151.535 198.303 155.117 201.885 159.535 201.885 c h
159.535 284.858 m 163.953 284.858 167.535 281.276 167.535 276.858 c 167.535
 272.44 163.953 268.858 159.535 268.858 c 155.117 268.858 151.535 272.44
 151.535 276.858 c 151.535 281.276 155.117 284.858 159.535 284.858 c h
8.305 268.553 m 3.719 268.553 0 272.272 0 276.858 c 0 281.444 3.719 285.163
 8.305 285.163 c 28.41 285.163 l 28.41 288.405 l 28.41 299.741 33.039 310.045
 40.504 317.506 c 47.965 324.967 58.27 329.6 69.602 329.6 c 271.723 329.6
 l 283.059 329.6 293.359 324.967 300.82 317.506 c 308.285 310.041 312.918
 299.741 312.918 288.405 c 312.918 270.889 l 345.727 270.889 l 357.488 270.889
 366.355 265.842 373.156 258.018 c 379.258 250.998 383.449 241.768 386.5
 232.19 c 393.52 210.159 400.539 188.131 407.555 166.104 c 408.945 161.737
 409.602 157.475 409.602 153.405 c 409.602 144.788 406.805 136.764 401.961
 130.217 c 397.152 123.733 390.312 118.748 382.176 116.155 c 378.121 114.862
 373.836 114.163 369.414 114.163 c 346.145 114.163 l 344.48 105.803 340.355
 98.327 334.555 92.526 c 326.891 84.862 316.305 80.123 304.613 80.123 c 
292.922 80.123 282.336 84.862 274.672 92.526 c 268.871 98.327 264.746 105.803
 263.082 114.163 c 167.051 114.163 l 165.387 105.803 161.258 98.327 155.461
 92.526 c 147.797 84.862 137.211 80.123 125.52 80.123 c 113.824 80.123 103.242
 84.862 95.574 92.526 c 89.773 98.327 85.648 105.803 83.988 114.163 c 69.602
 114.163 l 58.27 114.163 47.965 118.795 40.504 126.26 c 33.039 133.721 28.41
 144.022 28.41 155.358 c 28.41 185.58 l 8.305 185.58 l 3.719 185.58 0 189.295
 0 193.885 c 0 198.467 3.719 202.186 8.305 202.186 c 28.41 202.186 l 28.41
 268.553 l h
72.367 227.069 m 67.781 227.069 64.062 230.788 64.062 235.373 c 64.062 
239.959 67.777 243.678 72.367 243.678 c 191.289 243.678 l 195.879 243.678
 199.598 239.959 199.598 235.373 c 199.598 230.788 195.879 227.069 191.289
 227.069 c h
359.332 143.788 m 354.746 143.788 351.027 147.506 351.027 152.092 c 351.027
 156.678 354.746 160.397 359.332 160.397 c 372.43 160.397 l 377.012 160.397
 380.73 156.678 380.73 152.092 c 380.73 147.506 377.012 143.788 372.43 143.788
 c h
304.539 114.163 m 299.953 114.163 296.234 117.881 296.234 122.467 c 296.234
 127.053 299.953 130.772 304.539 130.772 c 309.168 130.772 312.918 127.116
 312.918 122.467 c 312.918 117.819 309.168 114.163 304.539 114.163 c h
125.52 114.163 m 120.93 114.163 117.215 117.881 117.215 122.467 c 117.215
 127.053 120.93 130.772 125.52 130.772 c 130.148 130.772 133.898 127.116
 133.898 122.467 c 133.898 117.819 130.148 114.163 125.52 114.163 c h
143.719 140.666 m 148.375 136.01 151.258 129.577 151.258 122.467 c 151.258
 115.358 148.375 108.92 143.719 104.264 c 139.062 99.608 132.625 96.729 
125.52 96.729 c 118.41 96.729 111.977 99.608 107.32 104.264 c 102.664 108.92
 99.781 115.358 99.781 122.467 c 99.781 129.577 102.664 136.01 107.32 140.666
 c 111.977 145.323 118.41 148.202 125.52 148.202 c 132.625 148.202 139.062
 145.323 143.719 140.666 c h
322.812 140.666 m 327.469 136.01 330.352 129.577 330.352 122.467 c 330.352
 115.358 327.469 108.92 322.812 104.264 c 318.156 99.608 311.723 96.729 
304.613 96.729 c 297.508 96.729 291.07 99.608 286.414 104.264 c 281.758 
108.92 278.875 115.358 278.875 122.467 c 278.875 129.577 281.758 136.01 
286.414 140.666 c 291.07 145.323 297.508 148.202 304.613 148.202 c 311.723
 148.202 318.156 145.323 322.812 140.666 c h
322.812 140.666 m f*
Q Q
showpage
%%Trailer
end restore
%%EOF
