%!PS-Adobe-3.0 EPSF-3.0
%%Creator: cairo 1.14.2 (http://cairographics.org)
%%CreationDate: Wed Oct  3 10:33:22 2018
%%Pages: 1
%%DocumentData: Clean7Bit
%%LanguageLevel: 2
%%BoundingBox: 48 -1 361 410
%%EndComments
%%BeginProlog
save
50 dict begin
/q { gsave } bind def
/Q { grestore } bind def
/cm { 6 array astore concat } bind def
/w { setlinewidth } bind def
/J { setlinecap } bind def
/j { setlinejoin } bind def
/M { setmiterlimit } bind def
/d { setdash } bind def
/m { moveto } bind def
/l { lineto } bind def
/c { curveto } bind def
/h { closepath } bind def
/re { exch dup neg 3 1 roll 5 3 roll moveto 0 rlineto
      0 exch rlineto 0 rlineto closepath } bind def
/S { stroke } bind def
/f { fill } bind def
/f* { eofill } bind def
/n { newpath } bind def
/W { clip } bind def
/W* { eoclip } bind def
/BT { } bind def
/ET { } bind def
/pdfmark where { pop globaldict /?pdfmark /exec load put }
    { globaldict begin /?pdfmark /pop load def /pdfmark
    /cleartomark load def end } ifelse
/BDC { mark 3 1 roll /BDC pdfmark } bind def
/EMC { mark /EMC pdfmark } bind def
/cairo_store_point { /cairo_point_y exch def /cairo_point_x exch def } def
/Tj { show currentpoint cairo_store_point } bind def
/TJ {
  {
    dup
    type /stringtype eq
    { show } { -0.001 mul 0 cairo_font_matrix dtransform rmoveto } ifelse
  } forall
  currentpoint cairo_store_point
} bind def
/cairo_selectfont { cairo_font_matrix aload pop pop pop 0 0 6 array astore
    cairo_font exch selectfont cairo_point_x cairo_point_y moveto } bind def
/Tf { pop /cairo_font exch def /cairo_font_matrix where
      { pop cairo_selectfont } if } bind def
/Td { matrix translate cairo_font_matrix matrix concatmatrix dup
      /cairo_font_matrix exch def dup 4 get exch 5 get cairo_store_point
      /cairo_font where { pop cairo_selectfont } if } bind def
/Tm { 2 copy 8 2 roll 6 array astore /cairo_font_matrix exch def
      cairo_store_point /cairo_font where { pop cairo_selectfont } if } bind def
/g { setgray } bind def
/rg { setrgbcolor } bind def
/d1 { setcachedevice } bind def
%%EndProlog
%%BeginSetup
%%EndSetup
%%Page: 1 1
%%BeginPageSetup
%%PageBoundingBox: 48 -1 361 410
%%EndPageSetup
q 48 -1 313 411 rectclip q
0 g
240.164 215.377 m 240.164 41.545 l 240.164 30.112 235.492 19.725 227.965
 12.198 c 220.438 4.67 210.051 -0.002 198.617 -0.002 c 176.48 -0.002 l 176.48
 0.073 l 172.062 0.073 168.48 3.655 168.48 8.073 c 168.48 12.487 172.062
 16.073 176.48 16.073 c 176.48 16.143 l 198.617 16.143 l 205.598 16.143 
211.945 19.002 216.555 23.608 c 221.16 28.217 224.023 34.569 224.023 41.545
 c 224.023 215.377 l 224.023 217.967 223.766 220.541 223.066 222.893 c 222.453
 224.948 221.504 226.889 220.082 228.588 c 219.879 228.803 l 156.816 298.17
 l 156.738 298.252 156.648 298.342 156.555 298.428 c 155.578 299.311 154.195
 300.014 152.555 300.534 c 152.555 245.205 l 173.539 245.205 l 177.992 245.205
 181.609 241.592 181.609 237.139 c 181.609 232.678 177.992 229.065 173.539
 229.065 c 152.555 229.065 l 152.555 217.764 l 152.555 213.311 148.941 209.694
 144.48 209.694 c 140.023 209.694 136.41 213.311 136.41 217.764 c 136.41
 229.065 l 115.426 229.065 l 110.969 229.065 107.355 232.678 107.355 237.139
 c 107.355 241.592 110.969 245.205 115.426 245.205 c 136.41 245.205 l 136.41
 300.534 l 134.77 300.014 133.383 299.315 132.41 298.428 c 132.316 298.342
 132.227 298.252 132.148 298.17 c 69.074 228.811 l 67.543 227.061 66.539
 225.038 65.898 222.893 c 65.195 220.541 64.945 217.967 64.945 215.377 c
 64.945 41.545 l 64.945 34.565 67.805 28.217 72.41 23.608 c 77.02 19.002
 83.367 16.143 90.344 16.143 c 112.48 16.143 l 112.48 16.073 l 116.898 16.073
 120.48 12.487 120.48 8.073 c 120.48 3.655 116.898 0.073 112.48 0.073 c 
112.48 -0.002 l 90.344 -0.002 l 78.914 -0.002 68.523 4.67 60.996 12.198 
c 53.473 19.721 48.801 30.112 48.801 41.545 c 48.801 215.377 l 48.801 219.33
 49.242 223.436 50.449 227.498 c 51.711 231.737 53.812 235.838 57.105 239.553
 c 120.23 309.014 l 120.648 309.475 121.098 309.92 121.562 310.342 c 125.273
 313.717 130.625 315.936 136.41 316.991 c 136.41 339.948 l 136.41 359.108
 144.242 376.526 156.867 389.147 c 169.488 401.764 186.902 409.6 206.062
 409.6 c 225.227 409.6 242.645 401.764 255.262 389.147 c 267.883 376.526
 275.719 359.108 275.719 339.948 c 275.719 120.334 l 275.719 110.889 279.586
 102.299 285.82 96.069 c 292.055 89.834 300.645 85.967 310.086 85.967 c 
319.527 85.967 328.117 89.834 334.352 96.069 c 340.586 102.299 344.457 110.889
 344.457 120.334 c 344.457 234.983 l 344.457 239.44 348.07 243.053 352.523
 243.053 c 356.984 243.053 360.598 239.44 360.598 234.983 c 360.598 120.334
 l 360.598 106.436 354.914 93.807 345.766 84.655 c 336.617 75.502 323.984
 69.823 310.086 69.823 c 296.188 69.823 283.555 75.502 274.406 84.655 c 
265.258 93.807 259.574 106.436 259.574 120.334 c 259.574 339.948 l 259.574
 354.655 253.555 368.03 243.852 377.733 c 234.148 387.436 220.773 393.455
 206.062 393.455 c 191.355 393.455 177.98 387.436 168.277 377.733 c 158.578
 368.03 152.555 354.655 152.555 339.948 c 152.555 316.995 l 158.336 315.936
 163.688 313.717 167.398 310.346 c 167.867 309.92 168.312 309.479 168.73
 309.014 c 231.797 239.647 l 231.953 239.475 232.102 239.295 232.242 239.112
 c 235.32 235.514 237.305 231.569 238.516 227.498 c 239.723 223.436 240.164
 219.33 240.164 215.377 c h
352.523 275.053 m 348.105 275.053 344.523 271.471 344.523 267.053 c 344.523
 262.635 348.105 259.053 352.523 259.053 c 356.945 259.053 360.523 262.635
 360.523 267.053 c 360.523 271.471 356.945 275.053 352.523 275.053 c h
144.48 16.073 m 140.062 16.073 136.48 12.487 136.48 8.073 c 136.48 3.655
 140.062 0.073 144.48 0.073 c 148.898 0.073 152.48 3.655 152.48 8.073 c 
152.48 12.487 148.898 16.073 144.48 16.073 c h
169.742 162.682 m 105.789 65.686 l 103.352 61.979 104.383 56.995 108.09
 54.557 c 111.797 52.12 116.781 53.151 119.219 56.858 c 183.176 153.858 
l 185.613 157.561 184.582 162.545 180.875 164.983 c 177.164 167.42 172.18
 166.389 169.742 162.682 c h
176.461 103.983 m 169.449 103.983 163.102 101.139 158.508 96.545 c 153.914
 91.952 151.07 85.604 151.07 78.592 c 151.07 71.58 153.914 65.233 158.508
 60.639 c 163.102 56.045 169.449 53.202 176.461 53.202 c 183.473 53.202 
189.82 56.045 194.414 60.639 c 199.008 65.233 201.852 71.584 201.852 78.592
 c 201.852 85.604 199.008 91.952 194.414 96.545 c 189.82 101.143 183.473
 103.983 176.461 103.983 c h
183.004 85.135 m 181.328 86.811 179.016 87.842 176.461 87.842 c 173.906
 87.842 171.59 86.811 169.918 85.135 c 168.242 83.463 167.211 81.147 167.211
 78.592 c 167.211 76.038 168.242 73.725 169.918 72.053 c 171.59 70.377 173.902
 69.342 176.461 69.342 c 179.016 69.342 181.328 70.377 183.004 72.053 c 
184.676 73.725 185.711 76.038 185.711 78.592 c 185.711 81.147 184.676 83.463
 183.004 85.135 c h
112.504 166.342 m 105.492 166.342 99.145 163.498 94.551 158.905 c 89.957
 154.311 87.113 147.959 87.113 140.952 c 87.113 133.936 89.957 127.592 94.551
 122.998 c 99.145 118.401 105.492 115.561 112.504 115.561 c 119.512 115.561
 125.863 118.401 130.457 122.998 c 135.055 127.592 137.895 133.94 137.895
 140.952 c 137.895 147.959 135.055 154.311 130.457 158.905 c 125.863 163.498
 119.512 166.342 112.504 166.342 c h
119.043 147.491 m 117.371 149.163 115.059 150.198 112.504 150.198 c 109.949
 150.198 107.633 149.163 105.961 147.491 c 104.289 145.815 103.254 143.502
 103.254 140.948 c 103.254 138.393 104.289 136.08 105.961 134.405 c 107.633
 132.733 109.945 131.698 112.504 131.698 c 115.059 131.698 117.371 132.733
 119.043 134.405 c 120.719 136.08 121.754 138.393 121.754 140.948 c 121.754
 143.502 120.719 145.819 119.043 147.491 c h
119.043 147.491 m f*
Q Q
showpage
%%Trailer
end restore
%%EOF
