%!PS-Adobe-3.0 EPSF-3.0
%%Creator: cairo 1.14.2 (http://cairographics.org)
%%CreationDate: Wed Oct  3 10:33:22 2018
%%Pages: 1
%%DocumentData: Clean7Bit
%%LanguageLevel: 2
%%BoundingBox: 0 68 410 341
%%EndComments
%%BeginProlog
save
50 dict begin
/q { gsave } bind def
/Q { grestore } bind def
/cm { 6 array astore concat } bind def
/w { setlinewidth } bind def
/J { setlinecap } bind def
/j { setlinejoin } bind def
/M { setmiterlimit } bind def
/d { setdash } bind def
/m { moveto } bind def
/l { lineto } bind def
/c { curveto } bind def
/h { closepath } bind def
/re { exch dup neg 3 1 roll 5 3 roll moveto 0 rlineto
      0 exch rlineto 0 rlineto closepath } bind def
/S { stroke } bind def
/f { fill } bind def
/f* { eofill } bind def
/n { newpath } bind def
/W { clip } bind def
/W* { eoclip } bind def
/BT { } bind def
/ET { } bind def
/pdfmark where { pop globaldict /?pdfmark /exec load put }
    { globaldict begin /?pdfmark /pop load def /pdfmark
    /cleartomark load def end } ifelse
/BDC { mark 3 1 roll /BDC pdfmark } bind def
/EMC { mark /EMC pdfmark } bind def
/cairo_store_point { /cairo_point_y exch def /cairo_point_x exch def } def
/Tj { show currentpoint cairo_store_point } bind def
/TJ {
  {
    dup
    type /stringtype eq
    { show } { -0.001 mul 0 cairo_font_matrix dtransform rmoveto } ifelse
  } forall
  currentpoint cairo_store_point
} bind def
/cairo_selectfont { cairo_font_matrix aload pop pop pop 0 0 6 array astore
    cairo_font exch selectfont cairo_point_x cairo_point_y moveto } bind def
/Tf { pop /cairo_font exch def /cairo_font_matrix where
      { pop cairo_selectfont } if } bind def
/Td { matrix translate cairo_font_matrix matrix concatmatrix dup
      /cairo_font_matrix exch def dup 4 get exch 5 get cairo_store_point
      /cairo_font where { pop cairo_selectfont } if } bind def
/Tm { 2 copy 8 2 roll 6 array astore /cairo_font_matrix exch def
      cairo_store_point /cairo_font where { pop cairo_selectfont } if } bind def
/g { setgray } bind def
/rg { setrgbcolor } bind def
/d1 { setcachedevice } bind def
%%EndProlog
%%BeginSetup
%%EndSetup
%%Page: 1 1
%%BeginPageSetup
%%PageBoundingBox: 0 68 410 341
%%EndPageSetup
q 0 68 410 273 rectclip q
0 g
56.832 339.998 m 352.77 339.998 l 368.406 339.998 382.617 333.608 392.914
 323.311 c 403.211 313.014 409.602 298.807 409.602 283.17 c 409.602 125.987
 l 409.602 110.35 403.211 96.139 392.914 85.842 c 382.617 75.545 368.406
 69.155 352.77 69.155 c 56.832 69.155 l 41.195 69.155 26.984 75.545 16.688
 85.842 c 6.391 96.139 0 110.35 0 125.987 c 0 283.17 l 0 298.807 6.391 313.014
 16.688 323.311 c 26.984 333.608 41.195 339.998 56.832 339.998 c h
180.824 149.342 m 176.406 149.342 172.824 145.76 172.824 141.342 c 172.824
 136.924 176.406 133.342 180.824 133.342 c 185.242 133.342 188.824 136.924
 188.824 141.342 c 188.824 145.76 185.242 149.342 180.824 149.342 c h
148.824 149.342 m 148.824 149.358 l 53.914 149.358 l 49.484 149.358 45.895
 145.772 45.895 141.342 c 45.895 136.913 49.484 133.327 53.914 133.327 c
 148.824 133.327 l 148.824 133.342 l 153.242 133.342 156.824 136.924 156.824
 141.342 c 156.824 145.76 153.242 149.342 148.824 149.342 c h
53.914 173.014 m 180.805 173.014 l 185.234 173.014 188.824 176.604 188.824
 181.03 c 188.824 185.459 185.234 189.049 180.805 189.049 c 53.914 189.049
 l 49.484 189.049 45.895 185.459 45.895 181.03 c 45.895 176.608 49.484 173.014
 53.914 173.014 c h
53.914 212.705 m 180.805 212.705 l 185.234 212.705 188.824 216.295 188.824
 220.725 c 188.824 225.155 185.234 228.745 180.805 228.745 c 53.914 228.745
 l 49.484 228.745 45.895 225.155 45.895 220.725 c 45.895 216.295 49.484 
212.705 53.914 212.705 c h
296.543 155.42 m 297.316 154.85 301.676 152.295 302.375 152.045 c 306.258
 150.319 310.602 149.358 315.227 149.358 c 323.973 149.358 331.891 152.905
 337.621 158.639 c 343.352 164.366 346.898 172.284 346.898 181.034 c 346.898
 189.78 343.352 197.702 337.621 203.432 c 331.891 209.163 323.973 212.705
 315.227 212.705 c 310.602 212.705 306.254 211.748 302.375 210.022 c 302.246
 209.967 302.117 209.913 301.988 209.862 c 300.07 208.979 298.246 207.901
 296.543 206.647 c 301.262 199.248 303.996 190.459 303.996 181.034 c 303.996
 171.608 301.262 162.819 296.543 155.42 c h
285.773 218.541 m 277.66 224.932 267.418 228.745 256.289 228.745 c 243.113
 228.745 231.188 223.405 222.555 214.768 c 213.918 206.135 208.578 194.205
 208.578 181.034 c 208.578 167.858 213.918 155.932 222.555 147.295 c 231.188
 138.663 243.113 133.323 256.289 133.323 c 267.418 133.323 277.66 137.135
 285.773 143.526 c 288.844 141.123 292.23 139.077 295.867 137.459 c 295.859
 137.448 l 301.82 134.795 308.379 133.323 315.227 133.323 c 328.398 133.323
 340.324 138.663 348.961 147.295 c 357.594 155.932 362.934 167.858 362.934
 181.034 c 362.934 194.205 357.594 206.135 348.961 214.768 c 340.324 223.405
 328.398 228.745 315.227 228.745 c 308.379 228.745 301.82 227.268 295.859
 224.62 c 295.711 224.553 295.566 224.483 295.422 224.405 c 291.957 222.823
 288.719 220.846 285.773 218.541 c h
278.684 203.432 m 272.953 209.163 265.035 212.705 256.289 212.705 c 247.539
 212.705 239.621 209.163 233.891 203.432 c 228.16 197.702 224.617 189.78
 224.617 181.034 c 224.617 172.284 228.16 164.366 233.891 158.639 c 239.621
 152.905 247.539 149.358 256.289 149.358 c 265.035 149.358 272.953 152.905
 278.684 158.639 c 284.414 164.366 287.961 172.284 287.961 181.034 c 287.961
 189.78 284.414 197.702 278.684 203.432 c h
16.086 285.077 m 393.52 285.077 l 393.027 295.53 388.551 304.998 381.574
 311.971 c 374.176 319.37 363.977 323.963 352.77 323.963 c 56.832 323.963
 l 45.621 323.963 35.426 319.37 28.027 311.971 c 21.055 304.998 16.57 295.534
 16.086 285.077 c h
393.562 269.041 m 16.039 269.041 l 16.039 125.987 l 16.039 114.78 20.629
 104.577 28.027 97.182 c 35.426 89.784 45.621 85.194 56.832 85.194 c 352.77
 85.194 l 363.977 85.194 374.176 89.784 381.574 97.182 c 388.973 104.577
 393.562 114.78 393.562 125.987 c h
393.562 269.041 m f*
Q Q
showpage
%%Trailer
end restore
%%EOF
