%!PS-Adobe-3.0 EPSF-3.0
%%Creator: cairo 1.14.2 (http://cairographics.org)
%%CreationDate: Wed Oct  3 10:33:22 2018
%%Pages: 1
%%DocumentData: Clean7Bit
%%LanguageLevel: 2
%%BoundingBox: 0 27 410 383
%%EndComments
%%BeginProlog
save
50 dict begin
/q { gsave } bind def
/Q { grestore } bind def
/cm { 6 array astore concat } bind def
/w { setlinewidth } bind def
/J { setlinecap } bind def
/j { setlinejoin } bind def
/M { setmiterlimit } bind def
/d { setdash } bind def
/m { moveto } bind def
/l { lineto } bind def
/c { curveto } bind def
/h { closepath } bind def
/re { exch dup neg 3 1 roll 5 3 roll moveto 0 rlineto
      0 exch rlineto 0 rlineto closepath } bind def
/S { stroke } bind def
/f { fill } bind def
/f* { eofill } bind def
/n { newpath } bind def
/W { clip } bind def
/W* { eoclip } bind def
/BT { } bind def
/ET { } bind def
/pdfmark where { pop globaldict /?pdfmark /exec load put }
    { globaldict begin /?pdfmark /pop load def /pdfmark
    /cleartomark load def end } ifelse
/BDC { mark 3 1 roll /BDC pdfmark } bind def
/EMC { mark /EMC pdfmark } bind def
/cairo_store_point { /cairo_point_y exch def /cairo_point_x exch def } def
/Tj { show currentpoint cairo_store_point } bind def
/TJ {
  {
    dup
    type /stringtype eq
    { show } { -0.001 mul 0 cairo_font_matrix dtransform rmoveto } ifelse
  } forall
  currentpoint cairo_store_point
} bind def
/cairo_selectfont { cairo_font_matrix aload pop pop pop 0 0 6 array astore
    cairo_font exch selectfont cairo_point_x cairo_point_y moveto } bind def
/Tf { pop /cairo_font exch def /cairo_font_matrix where
      { pop cairo_selectfont } if } bind def
/Td { matrix translate cairo_font_matrix matrix concatmatrix dup
      /cairo_font_matrix exch def dup 4 get exch 5 get cairo_store_point
      /cairo_font where { pop cairo_selectfont } if } bind def
/Tm { 2 copy 8 2 roll 6 array astore /cairo_font_matrix exch def
      cairo_store_point /cairo_font where { pop cairo_selectfont } if } bind def
/g { setgray } bind def
/rg { setrgbcolor } bind def
/d1 { setcachedevice } bind def
%%EndProlog
%%BeginSetup
%%EndSetup
%%Page: 1 1
%%BeginPageSetup
%%PageBoundingBox: 0 27 410 383
%%EndPageSetup
q 0 27 410 356 rectclip q
0 g
281.363 335.37 m 281.363 339.795 284.945 343.381 289.371 343.381 c 293.797
 343.381 297.383 339.795 297.383 335.37 c 297.383 325.077 l 303.973 323.557
 309.855 320.202 314.477 315.584 c 320.898 309.159 324.875 300.284 324.875
 290.483 c 324.875 286.061 321.289 282.471 316.863 282.471 c 312.438 282.471
 308.852 286.057 308.852 290.483 c 308.852 295.862 306.668 300.733 303.148
 304.256 c 299.621 307.78 294.754 309.959 289.371 309.959 c 283.992 309.959
 279.121 307.78 275.602 304.256 c 272.074 300.733 269.898 295.862 269.898
 290.483 c 269.898 285.104 272.074 280.233 275.602 276.709 c 279.121 273.186
 283.992 271.006 289.371 271.006 c 299.176 271.006 308.051 267.03 314.477
 260.608 c 320.898 254.186 324.871 245.311 324.871 235.506 c 324.871 225.702
 320.898 216.827 314.477 210.405 c 309.855 205.784 303.973 202.432 297.383
 200.913 c 297.383 190.62 l 297.383 186.194 293.797 182.608 289.371 182.608
 c 284.945 182.608 281.359 186.194 281.359 190.62 c 281.359 200.913 l 274.773
 202.436 268.887 205.784 264.273 210.405 c 257.848 216.827 253.871 225.702
 253.871 235.506 c 253.871 239.932 257.461 243.518 261.883 243.518 c 266.309
 243.518 269.898 239.932 269.898 235.506 c 269.898 230.123 272.074 225.256
 275.602 221.733 c 279.125 218.209 283.992 216.03 289.371 216.03 c 294.754
 216.03 299.621 218.209 303.148 221.733 c 306.672 225.256 308.852 230.123
 308.852 235.506 c 308.852 240.885 306.672 245.752 303.148 249.28 c 299.621
 252.803 294.754 254.983 289.371 254.983 c 279.57 254.983 270.695 258.955
 264.273 265.381 c 257.848 271.807 253.871 280.682 253.871 290.483 c 253.871
 300.284 257.848 309.159 264.273 315.584 c 268.891 320.202 274.773 323.557
 281.363 325.077 c h
368.723 349.522 m 373.141 349.522 376.723 345.94 376.723 341.522 c 376.723
 337.104 373.141 333.522 368.723 333.522 c 364.305 333.522 360.723 337.104
 360.723 341.522 c 360.723 345.94 364.305 349.522 368.723 349.522 c h
348.211 367.041 m 330.203 377.166 310.027 382.401 289.371 382.401 c 256.176
 382.401 226.117 368.944 204.359 347.186 c 182.602 325.428 169.145 295.373
 169.145 262.174 c 169.145 244.276 173.074 227.264 180.125 211.952 c 186.84
 197.373 196.398 184.358 208.086 173.623 c 203.762 127.327 l 203.539 125.795
 203.75 124.182 204.473 122.686 c 206.391 118.709 211.168 117.041 215.145
 118.959 c 266.898 144.069 l 270.09 143.467 273.367 142.983 276.715 142.631
 c 281 142.182 285.227 141.948 289.371 141.948 c 322.57 141.948 352.629 
155.405 374.383 177.163 c 396.145 198.92 409.602 228.975 409.602 262.174
 c 409.602 282.405 404.578 302.182 394.844 319.92 c 393.484 322.393 391.543
 324.065 387.824 324.065 c 384.105 324.065 379.824 318.971 379.824 316.065
 c 379.824 313.791 379.824 313.983 380.793 312.217 c 388.945 297.362 393.578
 280.311 393.578 262.174 c 393.578 233.397 381.914 207.346 363.055 188.491
 c 344.199 169.635 318.148 157.971 289.371 157.971 c 285.523 157.971 281.844
 158.159 278.348 158.53 c 274.727 158.909 271.105 159.491 267.496 160.264
 c 265.586 160.666 263.695 160.354 262.098 159.506 c 220.938 139.538 l 224.359
 176.202 l 224.602 178.877 223.492 181.362 221.602 182.987 c 221.605 182.995
 l 210.238 192.729 200.992 204.877 194.648 218.651 c 188.566 231.866 185.168
 246.608 185.168 262.174 c 185.168 290.952 196.836 316.998 215.691 335.858
 c 234.547 354.713 260.598 366.377 289.371 366.377 c 307.773 366.377 325.059
 361.608 340.059 353.237 c 340.164 353.178 340.27 353.123 340.367 353.065
 c 340.371 353.065 l 341.48 352.483 342.75 352.151 344.09 352.151 c 348.508
 352.151 352.09 356.483 352.09 360.151 c 352.094 363.815 350.543 365.643
 348.211 367.041 c h
145.559 165.506 m 149.977 165.506 153.559 161.924 153.559 157.506 c 153.559
 153.088 149.977 149.506 145.559 149.506 c 141.141 149.506 137.559 153.088
 137.559 157.506 c 137.559 161.924 141.141 165.506 145.559 165.506 c h
158.648 137.194 m 162.605 137.194 165.891 134.327 166.535 130.549 c 167.816
 124.889 168.523 119.057 168.605 113.127 c 168.723 104.725 167.57 96.432
 165.258 88.502 c 183.852 49.788 l 185.754 45.811 184.07 41.045 180.098 
39.147 c 178.508 38.385 176.793 38.198 175.188 38.498 c 136.523 45.78 l 
133.562 43.444 130.41 41.284 127.07 39.323 c 103.262 25.33 73.996 23.752
 48.688 35.553 c 6.535 55.209 -11.758 105.436 7.902 147.592 c 27.555 189.748
 77.781 208.034 119.941 188.377 c 122.48 187.19 124.961 185.877 127.371 
184.448 c 129.227 182.983 130.375 181.58 130.375 178.096 c 130.375 172.83
 124.324 168.479 119.199 170.67 c 117.246 171.83 115.238 172.897 113.18 
173.858 c 78.984 189.803 38.367 175.03 22.422 140.83 c 6.477 106.635 21.25
 66.022 55.445 50.077 c 75.918 40.53 99.711 41.76 118.996 53.092 c 122.523
 55.166 125.832 57.545 128.898 60.186 c 130.691 61.842 133.215 62.663 135.801
 62.178 c 162.629 57.12 l 149.516 84.436 l 148.656 86.229 148.461 88.342
 149.137 90.377 c 151.535 97.573 152.75 105.194 152.645 112.94 c 152.578
 117.67 152.016 122.327 151 126.846 c 150.773 127.592 150.648 128.377 150.648
 129.194 c 150.648 133.612 154.23 137.194 158.648 137.194 c h
41.055 97.963 m 52.477 97.963 l 56.898 97.963 60.488 101.545 60.488 105.975
 c 60.488 110.397 56.898 113.983 52.477 113.983 c 41.055 113.983 l 36.633
 113.983 33.047 110.397 33.047 105.975 c 33.047 101.545 36.633 97.963 41.055
 97.963 c h
114.969 97.963 m 126.383 97.963 l 130.809 97.963 134.398 101.545 134.398
 105.975 c 134.398 110.397 130.809 113.983 126.383 113.983 c 114.969 113.983
 l 110.543 113.983 106.957 110.397 106.957 105.975 c 106.957 101.545 110.543
 97.963 114.969 97.963 c h
78.012 97.963 m 89.43 97.963 l 93.852 97.963 97.441 101.545 97.441 105.975
 c 97.441 110.397 93.852 113.983 89.43 113.983 c 78.012 113.983 l 73.586
 113.983 70 110.397 70 105.975 c 70 101.545 73.586 97.963 78.012 97.963 
c h
78.012 97.963 m f*
Q Q
showpage
%%Trailer
end restore
%%EOF
