%!PS-Adobe-3.0 EPSF-3.0
%%Creator: cairo 1.14.2 (http://cairographics.org)
%%CreationDate: Wed Oct  3 10:33:22 2018
%%Pages: 1
%%DocumentData: Clean7Bit
%%LanguageLevel: 2
%%BoundingBox: 33 -1 377 410
%%EndComments
%%BeginProlog
save
50 dict begin
/q { gsave } bind def
/Q { grestore } bind def
/cm { 6 array astore concat } bind def
/w { setlinewidth } bind def
/J { setlinecap } bind def
/j { setlinejoin } bind def
/M { setmiterlimit } bind def
/d { setdash } bind def
/m { moveto } bind def
/l { lineto } bind def
/c { curveto } bind def
/h { closepath } bind def
/re { exch dup neg 3 1 roll 5 3 roll moveto 0 rlineto
      0 exch rlineto 0 rlineto closepath } bind def
/S { stroke } bind def
/f { fill } bind def
/f* { eofill } bind def
/n { newpath } bind def
/W { clip } bind def
/W* { eoclip } bind def
/BT { } bind def
/ET { } bind def
/pdfmark where { pop globaldict /?pdfmark /exec load put }
    { globaldict begin /?pdfmark /pop load def /pdfmark
    /cleartomark load def end } ifelse
/BDC { mark 3 1 roll /BDC pdfmark } bind def
/EMC { mark /EMC pdfmark } bind def
/cairo_store_point { /cairo_point_y exch def /cairo_point_x exch def } def
/Tj { show currentpoint cairo_store_point } bind def
/TJ {
  {
    dup
    type /stringtype eq
    { show } { -0.001 mul 0 cairo_font_matrix dtransform rmoveto } ifelse
  } forall
  currentpoint cairo_store_point
} bind def
/cairo_selectfont { cairo_font_matrix aload pop pop pop 0 0 6 array astore
    cairo_font exch selectfont cairo_point_x cairo_point_y moveto } bind def
/Tf { pop /cairo_font exch def /cairo_font_matrix where
      { pop cairo_selectfont } if } bind def
/Td { matrix translate cairo_font_matrix matrix concatmatrix dup
      /cairo_font_matrix exch def dup 4 get exch 5 get cairo_store_point
      /cairo_font where { pop cairo_selectfont } if } bind def
/Tm { 2 copy 8 2 roll 6 array astore /cairo_font_matrix exch def
      cairo_store_point /cairo_font where { pop cairo_selectfont } if } bind def
/g { setgray } bind def
/rg { setrgbcolor } bind def
/d1 { setcachedevice } bind def
%%EndProlog
%%BeginSetup
%%EndSetup
%%Page: 1 1
%%BeginPageSetup
%%PageBoundingBox: 33 -1 377 410
%%EndPageSetup
q 33 -1 344 411 rectclip q
0 g
172.199 311.444 m 345.293 311.444 l 353.965 311.444 361.84 307.901 367.543
 302.198 c 373.25 296.491 376.789 288.616 376.789 279.948 c 376.789 106.854
 l 376.789 98.186 373.25 90.311 367.543 84.604 c 361.84 78.901 353.965 75.358
 345.293 75.358 c 290.75 75.358 l 286.332 75.358 282.75 78.951 282.75 83.385
 c 282.75 87.815 286.332 91.405 290.75 91.405 c 345.293 91.405 l 349.535
 91.405 353.395 93.147 356.195 95.951 c 359 98.752 360.742 102.612 360.742
 106.854 c 360.742 279.948 l 360.742 284.186 359 288.045 356.195 290.85 
c 353.395 293.655 349.535 295.393 345.293 295.393 c 298.68 295.393 l 298.68
 229.705 l 298.68 225.276 295.086 221.682 290.652 221.682 c 226.844 221.682
 l 222.414 221.682 218.82 225.276 218.82 229.705 c 218.82 295.393 l 172.199
 295.393 l 167.961 295.393 164.102 293.655 161.297 290.85 c 158.492 288.045
 156.758 284.186 156.758 279.948 c 156.758 106.854 l 156.758 102.612 158.492
 98.752 161.297 95.951 c 164.102 93.147 167.961 91.405 172.199 91.405 c 
226.75 91.405 l 231.164 91.405 234.75 87.815 234.75 83.385 c 234.75 78.951
 231.164 75.358 226.75 75.358 c 172.199 75.358 l 163.531 75.358 155.656 
78.901 149.953 84.608 c 144.246 90.311 140.707 98.186 140.707 106.854 c 
140.707 279.948 l 140.707 288.616 144.246 296.491 149.953 302.198 c 155.652
 307.901 163.531 311.444 172.199 311.444 c h
258.746 91.405 m 254.328 91.405 250.746 87.815 250.746 83.385 c 250.746
 78.951 254.328 75.358 258.746 75.358 c 263.164 75.358 266.746 78.951 266.746
 83.385 c 266.746 87.815 263.164 91.405 258.746 91.405 c h
116.875 86.268 m 116.875 355.592 l 116.875 358.623 115.195 361.26 112.715
 362.623 c 45.672 408.221 l 42.02 410.701 37.055 409.744 34.578 406.092 
c 32.102 402.44 33.055 397.471 36.711 394.998 c 100.824 351.389 l 100.824
 86.272 l 92.031 84.631 84.164 80.342 78.086 74.264 c 70.215 66.393 65.344
 55.514 65.344 43.506 c 65.344 31.491 70.215 20.616 78.086 12.744 c 85.961
 4.873 96.836 -0.002 108.852 -0.002 c 120.863 -0.002 131.738 4.873 139.613
 12.744 c 145.688 18.819 149.977 26.686 151.617 35.483 c 324.852 35.483 
l 351.551 2.948 l 354.352 -0.463 359.391 -0.955 362.805 1.85 c 366.211 4.655
 366.703 9.694 363.898 13.104 c 334.781 48.58 l 333.203 50.502 330.914 51.498
 328.609 51.498 c 151.617 51.53 l 149.977 60.326 145.688 68.19 139.613 74.268
 c 133.535 80.342 125.668 84.627 116.875 86.268 c h
128.266 62.92 m 133.234 57.951 136.305 51.088 136.305 43.502 c 136.305 
35.92 133.234 29.057 128.266 24.088 c 123.297 19.119 116.434 16.045 108.852
 16.045 c 101.27 16.045 94.402 19.119 89.434 24.088 c 84.465 29.057 81.395
 35.92 81.395 43.502 c 81.395 51.084 84.465 57.951 89.434 62.92 c 94.402
 67.889 101.27 70.959 108.852 70.959 c 116.434 70.959 123.297 67.889 128.266
 62.92 c h
244.824 173.084 m 250.723 178.983 l 250.723 114.737 l 250.723 110.307 254.316
 106.713 258.746 106.713 c 263.18 106.713 266.77 110.307 266.77 114.737 
c 266.77 178.983 l 272.664 173.084 l 275.801 169.951 280.879 169.951 284.012
 173.084 c 287.145 176.217 287.145 181.295 284.012 184.432 c 264.477 203.967
 l 262.973 205.502 260.922 206.373 258.746 206.373 c 256.57 206.373 254.52
 205.502 253.016 203.967 c 233.477 184.432 l 230.348 181.295 230.348 176.217
 233.477 173.084 c 236.613 169.951 241.695 169.951 244.824 173.084 c h
234.867 295.393 m 234.867 237.733 l 282.625 237.733 l 282.625 295.393 l
 h
234.867 295.393 m f*
Q Q
showpage
%%Trailer
end restore
%%EOF
