%!PS-Adobe-3.0 EPSF-3.0
%%Creator: cairo 1.14.2 (http://cairographics.org)
%%CreationDate: Wed Oct  3 10:33:22 2018
%%Pages: 1
%%DocumentData: Clean7Bit
%%LanguageLevel: 2
%%BoundingBox: 66 0 343 410
%%EndComments
%%BeginProlog
save
50 dict begin
/q { gsave } bind def
/Q { grestore } bind def
/cm { 6 array astore concat } bind def
/w { setlinewidth } bind def
/J { setlinecap } bind def
/j { setlinejoin } bind def
/M { setmiterlimit } bind def
/d { setdash } bind def
/m { moveto } bind def
/l { lineto } bind def
/c { curveto } bind def
/h { closepath } bind def
/re { exch dup neg 3 1 roll 5 3 roll moveto 0 rlineto
      0 exch rlineto 0 rlineto closepath } bind def
/S { stroke } bind def
/f { fill } bind def
/f* { eofill } bind def
/n { newpath } bind def
/W { clip } bind def
/W* { eoclip } bind def
/BT { } bind def
/ET { } bind def
/pdfmark where { pop globaldict /?pdfmark /exec load put }
    { globaldict begin /?pdfmark /pop load def /pdfmark
    /cleartomark load def end } ifelse
/BDC { mark 3 1 roll /BDC pdfmark } bind def
/EMC { mark /EMC pdfmark } bind def
/cairo_store_point { /cairo_point_y exch def /cairo_point_x exch def } def
/Tj { show currentpoint cairo_store_point } bind def
/TJ {
  {
    dup
    type /stringtype eq
    { show } { -0.001 mul 0 cairo_font_matrix dtransform rmoveto } ifelse
  } forall
  currentpoint cairo_store_point
} bind def
/cairo_selectfont { cairo_font_matrix aload pop pop pop 0 0 6 array astore
    cairo_font exch selectfont cairo_point_x cairo_point_y moveto } bind def
/Tf { pop /cairo_font exch def /cairo_font_matrix where
      { pop cairo_selectfont } if } bind def
/Td { matrix translate cairo_font_matrix matrix concatmatrix dup
      /cairo_font_matrix exch def dup 4 get exch 5 get cairo_store_point
      /cairo_font where { pop cairo_selectfont } if } bind def
/Tm { 2 copy 8 2 roll 6 array astore /cairo_font_matrix exch def
      cairo_store_point /cairo_font where { pop cairo_selectfont } if } bind def
/g { setgray } bind def
/rg { setrgbcolor } bind def
/d1 { setcachedevice } bind def
%%EndProlog
%%BeginSetup
%%EndSetup
%%Page: 1 1
%%BeginPageSetup
%%PageBoundingBox: 66 0 343 410
%%EndPageSetup
q 66 0 277 410 rectclip q
0 g
284.523 366.6 m 307.383 366.6 l 317.164 366.6 326.055 362.604 332.492 356.166
 c 338.934 349.725 342.93 340.838 342.93 331.053 c 342.93 314.252 l 342.93
 309.834 339.352 306.252 334.93 306.252 c 330.512 306.252 326.898 309.834
 326.898 314.252 c 326.898 331.053 l 326.898 336.409 324.695 341.287 321.16
 344.827 c 317.617 348.37 312.742 350.565 307.383 350.565 c 284.523 350.565
 l 284.523 347.217 l 284.523 340.987 281.98 335.33 277.887 331.233 c 273.793
 327.139 268.133 324.6 261.91 324.6 c 147.82 324.6 l 141.598 324.6 135.938
 327.139 131.844 331.233 c 127.75 335.33 125.207 340.987 125.207 347.217
 c 125.207 350.565 l 102.352 350.565 l 96.992 350.565 92.117 348.37 88.574
 344.827 c 85.035 341.287 82.836 336.409 82.836 331.053 c 82.836 117.147
 l 82.836 112.725 79.211 109.147 74.801 109.147 c 70.383 109.147 66.805 
112.729 66.805 117.147 c 66.805 331.053 l 66.805 340.834 70.797 349.725 
77.238 356.166 c 83.68 362.604 92.566 366.6 102.352 366.6 c 125.207 366.6
 l 125.207 369.952 l 125.207 376.178 127.75 381.834 131.844 385.932 c 135.941
 390.026 141.598 392.569 147.824 392.569 c 170.91 392.569 l 172.191 396.471
 174.379 399.971 177.219 402.811 c 181.898 407.495 188.363 410.401 195.48
 410.401 c 214.254 410.401 l 221.367 410.401 227.836 407.495 232.516 402.811
 c 235.355 399.971 237.543 396.471 238.824 392.569 c 261.91 392.569 l 268.137
 392.569 273.793 390.026 277.887 385.928 c 281.984 381.834 284.523 376.178
 284.523 369.952 c h
74.801 61.151 m 70.383 61.151 66.801 57.565 66.801 53.151 c 66.801 36.35
 l 66.801 26.565 70.797 17.674 77.234 11.233 c 83.676 4.795 92.562 0.799
 102.348 0.799 c 307.383 0.799 l 317.164 0.799 326.055 4.795 332.492 11.237
 c 338.934 17.674 342.93 26.561 342.93 36.35 c 342.93 250.252 l 342.93 254.67
 339.352 258.252 334.93 258.252 c 330.52 258.252 326.898 254.678 326.898
 250.252 c 326.898 36.35 l 326.898 30.991 324.695 26.112 321.156 22.577 
c 317.617 19.034 312.742 16.834 307.383 16.834 c 102.352 16.834 l 96.992
 16.834 92.117 19.034 88.574 22.577 c 85.035 26.116 82.836 30.991 82.836
 36.35 c 82.836 53.151 l 82.836 57.565 79.219 61.151 74.801 61.151 c h
74.801 93.151 m 79.219 93.151 82.801 89.565 82.801 85.151 c 82.801 80.733
 79.219 77.151 74.801 77.151 c 70.383 77.151 66.801 80.733 66.801 85.151
 c 66.801 89.565 70.383 93.151 74.801 93.151 c h
334.93 290.252 m 330.512 290.252 326.93 286.67 326.93 282.252 c 326.93 
277.834 330.512 274.252 334.93 274.252 c 339.352 274.252 342.93 277.834 
342.93 282.252 c 342.93 286.67 339.352 290.252 334.93 290.252 c h
224.277 266.885 m 296.102 266.885 l 300.531 266.885 304.117 270.475 304.117
 274.905 c 304.117 279.33 300.531 282.92 296.102 282.92 c 224.277 282.92
 l 219.852 282.92 216.262 279.33 216.262 274.905 c 216.258 270.475 219.852
 266.885 224.277 266.885 c h
113.629 55.823 m 109.199 55.823 105.609 59.412 105.609 63.838 c 105.609
 68.264 109.199 71.858 113.629 71.858 c 296.102 71.858 l 300.531 71.858 
304.117 68.264 304.117 63.838 c 304.117 59.412 300.531 55.823 296.102 55.823
 c h
113.629 98.034 m 296.102 98.034 l 300.531 98.034 304.117 101.623 304.117
 106.049 c 304.117 110.479 300.531 114.069 296.102 114.069 c 113.629 114.069
 l 109.199 114.069 105.609 110.479 105.609 106.049 c 105.613 101.623 109.199
 98.034 113.629 98.034 c h
113.629 140.248 m 296.102 140.248 l 300.531 140.248 304.117 143.834 304.117
 148.264 c 304.117 152.69 300.531 156.28 296.102 156.28 c 113.629 156.28
 l 109.199 156.28 105.609 152.69 105.609 148.264 c 105.613 143.834 109.199
 140.248 113.629 140.248 c h
224.277 182.459 m 296.102 182.459 l 300.531 182.459 304.117 186.045 304.117
 190.475 c 304.117 194.905 300.531 198.495 296.102 198.495 c 224.277 198.495
 l 219.852 198.495 216.262 194.905 216.262 190.475 c 216.258 186.049 219.852
 182.459 224.277 182.459 c h
224.277 224.67 m 296.102 224.67 l 300.531 224.67 304.117 228.264 304.117
 232.69 c 304.117 237.12 300.531 240.705 296.102 240.705 c 224.277 240.705
 l 219.852 240.705 216.262 237.12 216.262 232.69 c 216.258 228.264 219.852
 224.67 224.277 224.67 c h
132.68 282.92 m 125.227 282.92 118.461 279.877 113.555 274.975 c 108.652
 270.073 105.613 263.303 105.613 255.854 c 105.613 209.526 l 105.613 202.077
 108.656 195.307 113.555 190.405 c 118.461 185.502 125.227 182.459 132.68
 182.459 c 169.414 182.459 l 176.867 182.459 183.637 185.502 188.539 190.405
 c 193.441 195.307 196.484 202.077 196.484 209.526 c 196.484 255.854 l 196.484
 263.303 193.441 270.073 188.539 274.975 c 183.637 279.877 176.867 282.92
 169.414 282.92 c h
169.414 266.885 m 132.68 266.885 l 129.652 266.885 126.898 265.639 124.895
 263.639 c 122.891 261.635 121.648 258.877 121.648 255.854 c 121.648 209.526
 l 121.648 206.498 122.891 203.745 124.895 201.741 c 126.898 199.737 129.652
 198.495 132.68 198.495 c 169.414 198.495 l 172.445 198.495 175.199 199.737
 177.199 201.741 c 179.207 203.745 180.449 206.498 180.449 209.526 c 180.449
 255.854 l 180.449 258.877 179.207 261.635 177.199 263.639 c 175.195 265.639
 172.445 266.885 169.414 266.885 c h
141.242 347.217 m 141.242 345.416 141.984 343.772 143.18 342.577 c 144.379
 341.377 146.023 340.635 147.82 340.635 c 261.91 340.635 l 263.711 340.635
 265.352 341.377 266.555 342.577 c 267.746 343.772 268.492 345.416 268.492
 347.217 c 268.492 369.952 l 268.492 371.752 267.746 373.397 266.555 374.592
 c 265.352 375.791 263.711 376.534 261.91 376.534 c 232.086 376.534 l 227.656
 376.534 224.066 380.123 224.066 384.549 c 224.066 387.241 222.961 389.694
 221.18 391.475 c 219.395 393.26 216.945 394.366 214.254 394.366 c 195.48
 394.366 l 192.789 394.366 190.336 393.26 188.555 391.475 c 186.773 389.694
 185.664 387.241 185.664 384.549 c 185.664 380.123 182.078 376.534 177.648
 376.534 c 147.824 376.534 l 146.023 376.534 144.379 375.791 143.18 374.592
 c 141.984 373.397 141.242 371.752 141.242 369.952 c h
141.242 347.217 m f*
Q Q
showpage
%%Trailer
end restore
%%EOF
