%!PS-Adobe-3.0 EPSF-3.0
%%Creator: cairo 1.14.2 (http://cairographics.org)
%%CreationDate: Wed Oct  3 10:33:22 2018
%%Pages: 1
%%DocumentData: Clean7Bit
%%LanguageLevel: 2
%%BoundingBox: 0 22 410 388
%%EndComments
%%BeginProlog
save
50 dict begin
/q { gsave } bind def
/Q { grestore } bind def
/cm { 6 array astore concat } bind def
/w { setlinewidth } bind def
/J { setlinecap } bind def
/j { setlinejoin } bind def
/M { setmiterlimit } bind def
/d { setdash } bind def
/m { moveto } bind def
/l { lineto } bind def
/c { curveto } bind def
/h { closepath } bind def
/re { exch dup neg 3 1 roll 5 3 roll moveto 0 rlineto
      0 exch rlineto 0 rlineto closepath } bind def
/S { stroke } bind def
/f { fill } bind def
/f* { eofill } bind def
/n { newpath } bind def
/W { clip } bind def
/W* { eoclip } bind def
/BT { } bind def
/ET { } bind def
/pdfmark where { pop globaldict /?pdfmark /exec load put }
    { globaldict begin /?pdfmark /pop load def /pdfmark
    /cleartomark load def end } ifelse
/BDC { mark 3 1 roll /BDC pdfmark } bind def
/EMC { mark /EMC pdfmark } bind def
/cairo_store_point { /cairo_point_y exch def /cairo_point_x exch def } def
/Tj { show currentpoint cairo_store_point } bind def
/TJ {
  {
    dup
    type /stringtype eq
    { show } { -0.001 mul 0 cairo_font_matrix dtransform rmoveto } ifelse
  } forall
  currentpoint cairo_store_point
} bind def
/cairo_selectfont { cairo_font_matrix aload pop pop pop 0 0 6 array astore
    cairo_font exch selectfont cairo_point_x cairo_point_y moveto } bind def
/Tf { pop /cairo_font exch def /cairo_font_matrix where
      { pop cairo_selectfont } if } bind def
/Td { matrix translate cairo_font_matrix matrix concatmatrix dup
      /cairo_font_matrix exch def dup 4 get exch 5 get cairo_store_point
      /cairo_font where { pop cairo_selectfont } if } bind def
/Tm { 2 copy 8 2 roll 6 array astore /cairo_font_matrix exch def
      cairo_store_point /cairo_font where { pop cairo_selectfont } if } bind def
/g { setgray } bind def
/rg { setrgbcolor } bind def
/d1 { setcachedevice } bind def
%%EndProlog
%%BeginSetup
%%EndSetup
%%Page: 1 1
%%BeginPageSetup
%%PageBoundingBox: 0 22 410 388
%%EndPageSetup
q 0 22 410 366 rectclip q
0 g
365.539 278.78 m 379.461 265.205 390.551 249.811 398.121 233.127 c 405.559
 216.733 409.602 199.131 409.602 180.807 c 409.602 136.76 386.367 97.03 
348.801 68.401 c 319.254 45.881 280.781 30.233 237.859 24.862 c 233.672 
24.342 229.832 27.479 229.285 31.873 c 228.734 36.264 231.684 40.252 235.875
 40.776 c 235.871 40.776 l 275.941 45.772 311.723 60.272 339.086 81.123 
c 372.738 106.772 393.555 142.03 393.555 180.807 c 393.555 196.827 390.023
 212.213 383.516 226.545 c 377.129 240.627 367.871 253.725 356.273 265.44
 c 280.555 265.44 l 319.188 173.405 l 320.902 169.319 318.977 164.62 314.895
 162.905 c 310.809 161.19 306.109 163.112 304.395 167.198 c 263.152 265.44
 l 212.82 265.44 l 212.801 202.276 l 212.801 197.858 209.219 194.276 204.801
 194.276 c 200.383 194.276 196.801 197.858 196.801 202.276 c 196.754 202.276
 l 196.773 265.44 l 146.445 265.44 l 105.203 167.198 l 103.492 163.108 98.789
 161.186 94.707 162.905 c 90.617 164.616 88.695 169.315 90.414 173.401 c
 129.047 265.44 l 53.328 265.44 l 41.727 253.721 32.473 240.623 26.082 226.545
 c 19.578 212.213 16.047 196.823 16.047 180.807 c 16.047 142.026 36.863 
106.772 70.516 81.123 c 97.914 60.241 133.758 45.733 173.891 40.756 c 173.957
 40.748 174.023 40.741 174.086 40.733 c 178.188 40.155 181.012 36.127 180.395
 31.741 c 179.773 27.358 175.945 24.268 171.848 24.846 c 128.883 30.205 
90.371 45.862 60.801 68.401 c 23.234 97.03 0 136.76 0 180.807 c 0 199.131
 4.039 216.733 11.477 233.127 c 19.125 249.983 30.367 265.522 44.484 279.202
 c 46.039 280.713 48.055 281.467 50.066 281.463 c 359.539 281.487 l 361.926
 281.487 364.07 280.44 365.539 278.78 c h
204.801 178.276 m 200.383 178.276 196.801 174.694 196.801 170.276 c 196.801
 165.858 200.383 162.276 204.801 162.276 c 209.219 162.276 212.801 165.858
 212.801 170.276 c 212.801 174.694 209.219 178.276 204.801 178.276 c h
204.801 38.834 m 200.383 38.834 196.801 35.252 196.801 30.834 c 196.801
 26.42 200.383 22.834 204.801 22.834 c 209.219 22.834 212.801 26.416 212.801
 30.834 c 212.801 35.252 209.219 38.834 204.801 38.834 c h
204.801 387.202 m 217.785 387.202 229.586 381.893 238.133 373.342 c 246.68
 364.795 251.988 352.998 251.988 340.014 c 251.988 314.604 l 359.539 314.604
 l 363.969 314.604 367.559 311.014 367.559 306.58 c 367.559 302.151 363.969
 298.557 359.539 298.557 c 50.062 298.557 l 45.633 298.557 42.039 302.151
 42.039 306.58 c 42.039 311.014 45.633 314.604 50.062 314.604 c 157.613 
314.604 l 157.613 340.014 l 157.613 352.998 162.918 364.795 171.469 373.342
 c 180.016 381.893 191.816 387.202 204.801 387.202 c h
204.801 371.155 m 196.242 371.155 188.461 367.647 182.812 361.998 c 177.164
 356.35 173.66 348.569 173.66 340.014 c 173.66 314.604 l 235.941 314.604
 l 235.941 340.014 l 235.941 348.565 232.434 356.35 226.789 361.998 c 221.141
 367.647 213.355 371.155 204.801 371.155 c h
204.801 371.155 m f*
Q Q
showpage
%%Trailer
end restore
%%EOF
