%!PS-Adobe-3.0 EPSF-3.0
%%Creator: cairo 1.14.2 (http://cairographics.org)
%%CreationDate: Wed Oct  3 10:33:22 2018
%%Pages: 1
%%DocumentData: Clean7Bit
%%LanguageLevel: 2
%%BoundingBox: 19 -1 391 410
%%EndComments
%%BeginProlog
save
50 dict begin
/q { gsave } bind def
/Q { grestore } bind def
/cm { 6 array astore concat } bind def
/w { setlinewidth } bind def
/J { setlinecap } bind def
/j { setlinejoin } bind def
/M { setmiterlimit } bind def
/d { setdash } bind def
/m { moveto } bind def
/l { lineto } bind def
/c { curveto } bind def
/h { closepath } bind def
/re { exch dup neg 3 1 roll 5 3 roll moveto 0 rlineto
      0 exch rlineto 0 rlineto closepath } bind def
/S { stroke } bind def
/f { fill } bind def
/f* { eofill } bind def
/n { newpath } bind def
/W { clip } bind def
/W* { eoclip } bind def
/BT { } bind def
/ET { } bind def
/pdfmark where { pop globaldict /?pdfmark /exec load put }
    { globaldict begin /?pdfmark /pop load def /pdfmark
    /cleartomark load def end } ifelse
/BDC { mark 3 1 roll /BDC pdfmark } bind def
/EMC { mark /EMC pdfmark } bind def
/cairo_store_point { /cairo_point_y exch def /cairo_point_x exch def } def
/Tj { show currentpoint cairo_store_point } bind def
/TJ {
  {
    dup
    type /stringtype eq
    { show } { -0.001 mul 0 cairo_font_matrix dtransform rmoveto } ifelse
  } forall
  currentpoint cairo_store_point
} bind def
/cairo_selectfont { cairo_font_matrix aload pop pop pop 0 0 6 array astore
    cairo_font exch selectfont cairo_point_x cairo_point_y moveto } bind def
/Tf { pop /cairo_font exch def /cairo_font_matrix where
      { pop cairo_selectfont } if } bind def
/Td { matrix translate cairo_font_matrix matrix concatmatrix dup
      /cairo_font_matrix exch def dup 4 get exch 5 get cairo_store_point
      /cairo_font where { pop cairo_selectfont } if } bind def
/Tm { 2 copy 8 2 roll 6 array astore /cairo_font_matrix exch def
      cairo_store_point /cairo_font where { pop cairo_selectfont } if } bind def
/g { setgray } bind def
/rg { setrgbcolor } bind def
/d1 { setcachedevice } bind def
%%EndProlog
%%BeginSetup
%%EndSetup
%%Page: 1 1
%%BeginPageSetup
%%PageBoundingBox: 19 -1 391 410
%%EndPageSetup
q 19 -1 372 411 rectclip q
0 g
205.09 409.599 m 215.934 409.599 223.66 402.044 231.258 394.607 c 235.555
 390.404 239.801 386.247 243.301 385.083 c 246.875 383.892 252.887 384.798
 258.883 385.701 c 269.016 387.228 279.105 388.747 287.352 382.701 c 295.586
 376.665 297.148 366.548 298.711 356.443 c 299.617 350.576 300.523 344.712
 302.699 341.743 c 304.867 338.79 310.133 336.15 315.426 333.497 c 324.652
 328.868 333.945 324.208 337.242 314.31 c 340.492 304.544 336.023 295.267
 331.492 285.857 c 328.789 280.247 326.055 274.576 326.055 270.314 c 326.055
 266.052 328.789 260.38 331.492 254.771 c 336.023 245.361 340.492 236.087
 337.242 226.322 c 333.949 216.423 324.656 211.763 315.426 207.138 c 311.117
 204.978 306.832 202.826 304.215 200.513 c 389.508 52.783 l 391.711 48.978
 390.414 44.103 386.605 41.896 c 384.992 40.962 383.18 40.654 381.461 40.908
 c 381.461 40.9 l 336.141 47.642 l 319.336 5.072 l 317.734 0.97 313.113 
-1.053 309.012 0.548 c 307.176 1.267 305.758 2.591 304.895 4.204 c 279.035
 48.993 l 279.031 48.993 l 278.102 50.302 277.555 51.9 277.555 53.622 c 
277.555 58.044 281.137 61.622 285.555 61.622 c 288.789 61.622 291.574 59.704
 292.836 56.947 c 310.559 26.247 l 323.523 59.095 l 324.758 62.634 328.363
 64.915 332.207 64.353 c 367.461 59.107 l 297.957 179.49 l 296.504 171.036
 294.305 163.029 287.352 157.927 c 279.102 151.884 269.016 153.404 258.883
 154.931 c 252.887 155.829 246.875 156.736 243.297 155.544 c 241.633 154.993
 239.793 153.759 237.863 152.161 c 260.688 112.626 l 261.617 111.318 262.164
 109.72 262.164 107.993 c 262.164 103.576 258.586 99.993 254.164 99.993 
c 250.93 99.993 248.148 101.911 246.883 104.673 c 246.883 104.669 l 225.938
 140.951 l 219.926 135.501 213.43 131.029 205.09 131.029 c 196.746 131.029
 190.254 135.505 184.242 140.951 c 105.289 4.204 l 104.426 2.591 103.004
 1.267 101.168 0.548 c 97.07 -1.049 92.445 0.974 90.844 5.072 c 74.039 47.642
 l 28.723 40.904 l 28.719 40.911 l 27.004 40.658 25.195 40.962 23.574 41.9
 c 19.766 44.103 18.469 48.978 20.676 52.783 c 48.355 100.732 l 49.617 103.49
 52.402 105.408 55.633 105.408 c 60.055 105.408 63.637 101.826 63.637 97.408
 c 63.637 95.685 63.09 94.083 62.16 92.779 c 42.723 59.107 l 77.977 64.353
 l 81.82 64.915 85.422 62.634 86.656 59.099 c 99.621 26.247 l 172.32 152.165
 l 170.387 153.759 168.551 154.993 166.883 155.548 c 163.309 156.74 157.293
 155.833 151.305 154.931 c 141.164 153.404 131.078 151.888 122.832 157.931
 c 115.879 163.029 113.68 171.036 112.223 179.49 c 94.273 148.404 l 93.012
 145.646 90.227 143.732 86.996 143.732 c 82.578 143.732 78.996 147.31 78.996
 151.732 c 78.996 152.915 79.258 154.04 79.719 155.052 c 79.719 155.056 
l 79.93 155.517 80.184 155.951 80.473 156.361 c 105.961 200.513 l 103.348
 202.829 99.059 204.982 94.758 207.138 c 85.523 211.763 76.23 216.423 72.938
 226.326 c 69.688 236.087 74.156 245.365 78.688 254.775 c 81.391 260.384
 84.125 266.056 84.125 270.318 c 84.125 274.579 81.391 280.251 78.688 285.861
 c 74.156 295.271 69.688 304.544 72.938 314.31 c 76.23 324.208 85.523 328.872
 94.758 333.497 c 100.047 336.154 105.312 338.79 107.477 341.747 c 109.652
 344.716 110.562 350.576 111.465 356.447 c 113.027 366.552 114.594 376.669
 122.828 382.704 c 131.074 388.747 141.164 387.232 151.301 385.704 c 157.289
 384.802 163.305 383.896 166.883 385.087 c 170.379 386.251 174.621 390.404
 178.918 394.607 c 186.523 402.044 194.246 409.599 205.09 409.599 c h
269.836 88.853 m 265.418 88.853 261.836 85.271 261.836 80.853 c 261.836
 76.435 265.418 72.853 269.836 72.853 c 274.258 72.853 277.836 76.435 277.836
 80.853 c 277.836 85.271 274.258 88.853 269.836 88.853 c h
71.512 132.904 m 67.094 132.904 63.512 129.322 63.512 124.904 c 63.512 
120.482 67.094 116.904 71.512 116.904 c 75.93 116.904 79.512 120.482 79.512
 124.904 c 79.512 129.322 75.93 132.904 71.512 132.904 c h
205.09 353.415 m 182.145 353.415 161.367 344.115 146.332 329.076 c 131.289
 314.036 121.992 293.263 121.992 270.314 c 121.992 247.368 131.289 226.591
 146.332 211.552 c 161.367 196.513 182.145 187.212 205.09 187.212 c 228.039
 187.212 248.812 196.513 263.852 211.552 c 278.891 226.591 288.195 247.368
 288.195 270.314 c 288.195 293.263 278.891 314.036 263.852 329.076 c 248.812
 344.115 228.039 353.415 205.09 353.415 c h
252.562 317.783 m 240.414 329.935 223.633 337.447 205.09 337.447 c 186.555
 337.447 169.77 329.935 157.621 317.786 c 145.473 305.638 137.961 288.857
 137.961 270.314 c 137.961 251.779 145.477 234.993 157.621 222.845 c 169.77
 210.697 186.555 203.185 205.09 203.185 c 223.633 203.185 240.414 210.697
 252.562 222.845 c 264.711 234.993 272.223 251.779 272.223 270.314 c 272.223
 288.853 264.711 305.638 252.562 317.783 c h
159.062 255.368 m 184.387 230.044 l 187.504 226.923 192.559 226.923 195.68
 230.044 c 246.328 280.693 l 249.445 283.81 249.445 288.868 246.328 291.982
 c 243.211 295.103 238.156 295.103 235.039 291.982 c 190.031 246.982 l 170.352
 266.658 l 167.234 269.779 162.18 269.779 159.062 266.658 c 155.945 263.54
 155.945 258.482 159.062 255.368 c h
238.309 170.642 m 245.598 173.068 253.438 171.888 261.25 170.712 c 268.148
 169.673 275.012 168.638 277.93 170.779 c 280.879 172.939 281.938 179.783
 282.992 186.622 c 284.199 194.435 285.41 202.247 289.852 208.306 c 294.25
 214.306 301.262 217.822 308.312 221.357 c 314.605 224.513 320.945 227.689
 322.148 231.31 c 323.359 234.947 320.273 241.353 317.145 247.845 c 313.633
 255.13 310.086 262.497 310.086 270.314 c 310.086 278.134 313.633 285.497
 317.145 292.783 c 320.273 299.279 323.359 305.681 322.148 309.318 c 320.945
 312.939 314.605 316.118 308.312 319.271 c 301.262 322.81 294.25 326.326
 289.852 332.322 c 285.41 338.384 284.199 346.193 282.992 354.009 c 281.938
 360.845 280.879 367.689 277.93 369.849 c 275.016 371.99 268.148 370.954
 261.25 369.919 c 253.438 368.743 245.598 367.56 238.309 369.986 c 231.246
 372.337 225.707 377.759 220.094 383.247 c 214.836 388.4 209.488 393.63 
205.09 393.63 c 200.695 393.63 195.352 388.4 190.086 383.251 c 184.477 377.763
 178.934 372.337 171.875 369.986 c 164.586 367.56 156.742 368.743 148.93
 369.919 c 142.035 370.954 135.168 371.99 132.25 369.853 c 129.305 367.693
 128.246 360.845 127.188 354.009 c 125.98 346.193 124.773 338.388 120.332
 332.326 c 115.93 326.326 108.918 322.81 101.867 319.271 c 95.574 316.118
 89.242 312.939 88.035 309.318 c 86.824 305.685 89.91 299.279 93.039 292.783
 c 96.547 285.501 100.098 278.138 100.098 270.314 c 100.098 262.497 96.547
 255.13 93.039 247.845 c 89.91 241.353 86.824 234.951 88.035 231.31 c 89.242
 227.689 95.578 224.513 101.867 221.357 c 108.918 217.826 115.93 214.306
 120.332 208.31 c 124.773 202.247 125.98 194.435 127.188 186.622 c 128.246
 179.783 129.305 172.939 132.25 170.779 c 135.168 168.638 142.035 169.673
 148.93 170.712 c 156.742 171.888 164.586 173.068 171.875 170.642 c 177.953
 168.618 182.902 164.322 187.742 159.658 c 187.895 159.529 188.035 159.388
 188.168 159.247 c 188.809 158.63 189.449 158.005 190.086 157.376 c 195.348
 152.232 200.695 146.997 205.09 146.997 c 209.488 146.997 214.832 152.232
 220.094 157.376 c 225.449 162.618 231.039 168.22 238.309 170.642 c h
238.309 170.642 m f*
Q Q
showpage
%%Trailer
end restore
%%EOF
