%!PS-Adobe-3.0 EPSF-3.0
%%Creator: cairo 1.14.2 (http://cairographics.org)
%%CreationDate: Wed Oct  3 10:33:22 2018
%%Pages: 1
%%DocumentData: Clean7Bit
%%LanguageLevel: 2
%%BoundingBox: 4 -1 406 410
%%EndComments
%%BeginProlog
save
50 dict begin
/q { gsave } bind def
/Q { grestore } bind def
/cm { 6 array astore concat } bind def
/w { setlinewidth } bind def
/J { setlinecap } bind def
/j { setlinejoin } bind def
/M { setmiterlimit } bind def
/d { setdash } bind def
/m { moveto } bind def
/l { lineto } bind def
/c { curveto } bind def
/h { closepath } bind def
/re { exch dup neg 3 1 roll 5 3 roll moveto 0 rlineto
      0 exch rlineto 0 rlineto closepath } bind def
/S { stroke } bind def
/f { fill } bind def
/f* { eofill } bind def
/n { newpath } bind def
/W { clip } bind def
/W* { eoclip } bind def
/BT { } bind def
/ET { } bind def
/pdfmark where { pop globaldict /?pdfmark /exec load put }
    { globaldict begin /?pdfmark /pop load def /pdfmark
    /cleartomark load def end } ifelse
/BDC { mark 3 1 roll /BDC pdfmark } bind def
/EMC { mark /EMC pdfmark } bind def
/cairo_store_point { /cairo_point_y exch def /cairo_point_x exch def } def
/Tj { show currentpoint cairo_store_point } bind def
/TJ {
  {
    dup
    type /stringtype eq
    { show } { -0.001 mul 0 cairo_font_matrix dtransform rmoveto } ifelse
  } forall
  currentpoint cairo_store_point
} bind def
/cairo_selectfont { cairo_font_matrix aload pop pop pop 0 0 6 array astore
    cairo_font exch selectfont cairo_point_x cairo_point_y moveto } bind def
/Tf { pop /cairo_font exch def /cairo_font_matrix where
      { pop cairo_selectfont } if } bind def
/Td { matrix translate cairo_font_matrix matrix concatmatrix dup
      /cairo_font_matrix exch def dup 4 get exch 5 get cairo_store_point
      /cairo_font where { pop cairo_selectfont } if } bind def
/Tm { 2 copy 8 2 roll 6 array astore /cairo_font_matrix exch def
      cairo_store_point /cairo_font where { pop cairo_selectfont } if } bind def
/g { setgray } bind def
/rg { setrgbcolor } bind def
/d1 { setcachedevice } bind def
%%EndProlog
%%BeginSetup
%%EndSetup
%%Page: 1 1
%%BeginPageSetup
%%PageBoundingBox: 4 -1 406 410
%%EndPageSetup
q 4 -1 402 411 rectclip q
0 g
54.523 371.565 m 8.82 394.463 l 4.871 396.436 3.273 401.233 5.246 405.182
 c 7.219 409.127 12.02 410.729 15.965 408.752 c 64.695 384.342 l 67.188 
383.346 69.121 381.119 69.617 378.276 c 80.227 318.561 l 278.418 318.561
 l 282.852 318.561 286.445 314.967 286.445 310.533 c 286.445 306.104 282.852
 302.514 278.418 302.514 c 83.078 302.514 l 116.348 115.237 l 142.18 115.237
 l 146.613 115.237 150.207 111.647 150.207 107.213 c 150.207 102.78 146.613
 99.19 142.18 99.19 c 119.195 99.19 l 123.312 76.03 l 133.258 75.67 142.23
 71.494 148.809 64.916 c 153.883 59.842 157.535 53.334 159.098 46.053 c 
294.195 46.053 l 295.762 53.334 299.414 59.842 304.488 64.916 c 311.367 
71.799 320.879 76.057 331.379 76.057 c 341.879 76.057 351.383 71.799 358.266
 64.916 c 365.148 58.033 369.402 48.53 369.402 38.03 c 369.402 27.53 365.148
 18.018 358.266 11.139 c 351.383 4.256 341.879 -0.002 331.379 -0.002 c 320.879
 -0.002 311.367 4.256 304.488 11.139 c 299.41 16.217 295.762 22.725 294.195
 30.002 c 159.098 30.002 l 157.531 22.725 153.883 16.217 148.805 11.139 
c 141.926 4.256 132.418 -0.002 121.918 -0.002 c 111.418 -0.002 101.91 4.256
 95.027 11.139 c 88.148 18.022 83.891 27.53 83.891 38.03 c 83.891 48.53 
88.148 58.033 95.027 64.916 c 98.57 68.459 102.809 71.307 107.52 73.233 
c 89.855 172.678 72.191 272.123 54.523 371.565 c h
206.375 99.19 m 342.672 99.19 l 352.465 99.19 360.594 103.045 366.812 109.264
 c 373.289 115.744 377.551 124.795 379.281 134.545 c 404.695 277.623 l 404.996
 279.311 405.145 280.983 405.145 282.635 c 405.145 291.151 401.367 299.358
 395.512 305.752 c 389.793 311.998 381.992 316.588 373.762 318.049 c 371.879
 318.385 369.98 318.561 368.09 318.561 c 342.613 318.561 l 338.18 318.561
 334.586 314.967 334.586 310.537 c 334.586 306.108 338.18 302.514 342.613
 302.514 c 368.09 302.514 l 369.07 302.514 370.047 302.424 371.008 302.252
 c 375.758 301.408 380.32 298.69 383.727 294.971 c 386.992 291.408 389.094
 287.01 389.094 282.635 c 389.094 281.869 389.031 281.116 388.898 280.381
 c 363.484 137.303 l 362.312 130.701 359.57 124.717 355.465 120.612 c 352.148
 117.295 347.84 115.241 342.672 115.241 c 206.375 115.241 l 201.945 115.241
 198.352 111.647 198.352 107.217 c 198.352 102.78 201.945 99.19 206.375 
99.19 c h
174.277 115.237 m 169.848 115.237 166.254 111.647 166.254 107.217 c 166.254
 102.783 169.848 99.19 174.277 99.19 c 178.711 99.19 182.305 102.783 182.305
 107.217 c 182.305 111.647 178.711 115.237 174.277 115.237 c h
310.516 318.561 m 306.086 318.561 302.492 314.967 302.492 310.537 c 302.492
 306.104 306.086 302.514 310.516 302.514 c 314.945 302.514 318.539 306.104
 318.539 310.537 c 318.539 314.967 314.945 318.561 310.516 318.561 c h
167.102 267.049 m 158.18 258.127 153.719 246.373 153.719 234.623 c 153.719
 222.877 158.18 211.123 167.102 202.201 c 229.641 139.666 l 232.773 136.53
 237.852 136.53 240.988 139.666 c 303.523 202.201 l 312.445 211.123 316.91
 222.877 316.91 234.623 c 316.91 246.373 312.449 258.127 303.523 267.049
 c 294.602 275.975 282.848 280.436 271.102 280.436 c 259.352 280.436 247.598
 275.975 238.676 267.049 c 235.316 263.69 l 231.953 267.049 l 223.031 275.975
 211.277 280.436 199.527 280.436 c 187.781 280.436 176.027 275.975 167.102
 267.049 c h
199.527 264.389 m 191.883 264.389 184.238 261.494 178.449 255.705 c 172.66
 249.916 169.766 242.276 169.766 234.623 c 169.766 226.979 172.66 219.338
 178.449 213.545 c 235.312 156.686 l 292.18 213.545 l 297.965 219.338 300.859
 226.979 300.859 234.623 c 300.859 242.276 297.965 249.916 292.18 255.705
 c 286.387 261.494 278.746 264.389 271.098 264.389 c 263.449 264.389 255.809
 261.494 250.02 255.705 c 240.984 246.67 l 237.852 243.537 232.773 243.537
 229.637 246.67 c 220.605 255.705 l 214.82 261.494 207.176 264.389 199.527
 264.389 c h
346.918 53.573 m 342.945 57.549 337.445 60.01 331.379 60.01 c 325.305 60.01
 319.812 57.549 315.836 53.573 c 311.855 49.592 309.398 44.1 309.398 38.03
 c 309.398 31.955 311.855 26.463 315.836 22.483 c 319.812 18.51 325.305 
16.045 331.379 16.045 c 337.445 16.045 342.945 18.51 346.918 22.483 c 350.898
 26.463 353.355 31.955 353.355 38.03 c 353.355 44.1 350.898 49.592 346.918
 53.573 c h
137.461 53.573 m 133.484 57.549 127.988 60.01 121.918 60.01 c 115.848 60.01
 110.352 57.549 106.371 53.573 c 102.398 49.592 99.938 44.1 99.938 38.03
 c 99.938 31.955 102.398 26.463 106.371 22.483 c 110.352 18.51 115.848 16.045
 121.918 16.045 c 127.988 16.045 133.484 18.51 137.461 22.483 c 141.438 
26.463 143.898 31.955 143.898 38.03 c 143.898 44.1 141.438 49.592 137.461
 53.573 c h
137.461 53.573 m f*
Q Q
showpage
%%Trailer
end restore
%%EOF
