%!PS-Adobe-3.0 EPSF-3.0
%%Creator: cairo 1.14.2 (http://cairographics.org)
%%CreationDate: Wed Oct  3 10:33:22 2018
%%Pages: 1
%%DocumentData: Clean7Bit
%%LanguageLevel: 2
%%BoundingBox: 0 39 410 369
%%EndComments
%%BeginProlog
save
50 dict begin
/q { gsave } bind def
/Q { grestore } bind def
/cm { 6 array astore concat } bind def
/w { setlinewidth } bind def
/J { setlinecap } bind def
/j { setlinejoin } bind def
/M { setmiterlimit } bind def
/d { setdash } bind def
/m { moveto } bind def
/l { lineto } bind def
/c { curveto } bind def
/h { closepath } bind def
/re { exch dup neg 3 1 roll 5 3 roll moveto 0 rlineto
      0 exch rlineto 0 rlineto closepath } bind def
/S { stroke } bind def
/f { fill } bind def
/f* { eofill } bind def
/n { newpath } bind def
/W { clip } bind def
/W* { eoclip } bind def
/BT { } bind def
/ET { } bind def
/pdfmark where { pop globaldict /?pdfmark /exec load put }
    { globaldict begin /?pdfmark /pop load def /pdfmark
    /cleartomark load def end } ifelse
/BDC { mark 3 1 roll /BDC pdfmark } bind def
/EMC { mark /EMC pdfmark } bind def
/cairo_store_point { /cairo_point_y exch def /cairo_point_x exch def } def
/Tj { show currentpoint cairo_store_point } bind def
/TJ {
  {
    dup
    type /stringtype eq
    { show } { -0.001 mul 0 cairo_font_matrix dtransform rmoveto } ifelse
  } forall
  currentpoint cairo_store_point
} bind def
/cairo_selectfont { cairo_font_matrix aload pop pop pop 0 0 6 array astore
    cairo_font exch selectfont cairo_point_x cairo_point_y moveto } bind def
/Tf { pop /cairo_font exch def /cairo_font_matrix where
      { pop cairo_selectfont } if } bind def
/Td { matrix translate cairo_font_matrix matrix concatmatrix dup
      /cairo_font_matrix exch def dup 4 get exch 5 get cairo_store_point
      /cairo_font where { pop cairo_selectfont } if } bind def
/Tm { 2 copy 8 2 roll 6 array astore /cairo_font_matrix exch def
      cairo_store_point /cairo_font where { pop cairo_selectfont } if } bind def
/g { setgray } bind def
/rg { setrgbcolor } bind def
/d1 { setcachedevice } bind def
%%EndProlog
%%BeginSetup
%%EndSetup
%%Page: 1 1
%%BeginPageSetup
%%PageBoundingBox: 0 39 410 369
%%EndPageSetup
q 0 39 410 330 rectclip q
0 g
40.746 75.636 m 21.355 75.636 l 15.477 75.636 10.133 78.034 6.266 81.902
 c 2.398 85.769 0 91.109 0 96.991 c 0 294.366 l 0 300.245 2.398 305.589 
6.266 309.452 c 10.133 313.323 15.477 315.722 21.355 315.722 c 56.848 315.722
 l 61.492 324.277 67.348 332.077 74.176 338.902 c 92.398 357.128 117.574
 368.402 145.383 368.402 c 173.188 368.402 198.367 357.128 216.586 338.902
 c 223.414 332.077 229.27 324.277 233.914 315.722 c 269.406 315.722 l 275.289
 315.722 280.629 313.323 284.492 309.452 c 288.363 305.589 290.762 300.245
 290.762 294.366 c 290.762 239.706 l 344.926 239.706 l 354.18 239.706 362.992
 235.952 370.086 230.027 c 377.312 223.984 382.82 215.558 385.164 206.527
 c 392.852 176.87 400.539 147.222 408.227 117.573 c 408.887 115.015 409.305
 112.601 409.48 110.339 c 410.152 101.882 407.922 94.534 403.5 88.706 c 
399.152 82.98 392.797 78.929 385.109 76.937 c 384.879 76.878 384.645 76.82
 384.414 76.761 c 382.938 67.456 378.523 59.132 372.156 52.761 c 364.246
 44.855 353.324 39.964 341.258 39.964 c 329.195 39.964 318.273 44.855 310.367
 52.761 c 304.254 58.87 299.945 66.784 298.305 75.636 c 126.664 75.636 l
 125.02 66.784 120.711 58.87 114.602 52.761 c 106.691 44.855 95.77 39.964
 83.703 39.964 c 71.637 39.964 60.715 44.855 52.809 52.761 c 46.695 58.87
 42.387 66.788 40.746 75.636 c h
145.383 183.015 m 140.961 183.015 137.383 179.433 137.383 175.015 c 137.383
 170.597 140.961 167.015 145.383 167.015 c 149.801 167.015 153.383 170.597
 153.383 175.015 c 153.383 179.433 149.801 183.015 145.383 183.015 c h
122.055 177.62 m 120.598 173.448 116.148 171.214 112.121 172.62 c 97.691
 177.667 84.758 185.905 74.176 196.495 c 55.949 214.714 44.68 239.89 44.68
 267.698 c 44.68 278.882 46.504 289.636 49.867 299.683 c 21.355 299.683 
l 19.902 299.683 18.574 299.081 17.605 298.116 c 16.641 297.148 16.039 295.82
 16.039 294.366 c 16.039 96.991 l 16.039 95.538 16.641 94.21 17.605 93.245
 c 18.574 92.277 19.902 91.675 21.355 91.675 c 40.746 91.675 l 42.387 100.527
 46.695 108.437 52.809 114.55 c 60.715 122.456 71.637 127.351 83.703 127.351
 c 95.77 127.351 106.691 122.456 114.598 114.55 c 120.711 108.437 125.02
 100.527 126.66 91.675 c 274.723 91.675 l 274.723 294.366 l 274.723 295.82
 274.121 297.148 273.152 298.116 c 272.188 299.081 270.859 299.683 269.406
 299.683 c 240.895 299.683 l 244.258 289.636 246.082 278.878 246.082 267.698
 c 246.082 239.89 234.809 214.714 216.586 196.495 c 206.258 186.167 193.695
 178.073 179.691 172.995 c 175.602 171.515 171.352 174.046 169.922 177.991
 c 168.414 182.155 170.344 186.675 174.23 188.077 c 186.008 192.347 196.566
 199.152 205.246 207.831 c 220.57 223.152 230.043 244.32 230.043 267.698
 c 230.043 291.077 220.57 312.245 205.246 327.566 c 189.926 342.886 168.758
 352.362 145.383 352.362 c 122 352.362 100.836 342.886 85.512 327.566 c 
70.195 312.245 60.715 291.077 60.715 267.698 c 60.715 244.32 70.195 223.152
 85.512 207.831 c 94.426 198.917 105.262 192.003 117.418 187.761 c 121.445
 186.355 123.516 181.792 122.055 177.62 c h
132.027 327.878 m 132.027 267.698 l 132.027 263.269 135.617 259.679 140.047
 259.679 c 176.383 259.679 l 180.812 259.679 184.402 263.269 184.402 267.698
 c 184.402 272.128 180.812 275.718 176.383 275.718 c 148.066 275.718 l 148.066
 327.878 l 148.066 332.308 144.477 335.898 140.047 335.898 c 135.617 335.902
 132.027 332.308 132.027 327.878 c h
383.883 93.323 m 386.789 94.491 389.148 96.198 390.785 98.355 c 392.836
 101.058 393.855 104.695 393.508 109.085 c 393.387 110.57 393.141 112.066
 392.754 113.562 c 380.715 159.987 l 290.762 159.987 l 290.762 91.675 l 
298.305 91.675 l 299.945 100.527 304.254 108.441 310.367 114.55 c 318.273
 122.46 329.195 127.351 341.262 127.351 c 353.324 127.351 364.25 122.46 
372.156 114.55 c 377.887 108.823 382.031 101.507 383.883 93.323 c h
360.816 103.214 m 355.812 108.214 348.898 111.308 341.262 111.308 c 333.625
 111.308 326.711 108.214 321.707 103.214 c 316.703 98.206 313.609 91.292
 313.609 83.655 c 313.609 76.019 316.703 69.105 321.707 64.101 c 326.711
 59.097 333.625 55.999 341.262 55.999 c 348.898 55.999 355.812 59.097 360.82
 64.101 c 365.82 69.105 368.914 76.019 368.914 83.655 c 368.914 91.292 365.82
 98.206 360.816 103.214 c h
103.258 103.214 m 98.258 108.214 91.34 111.308 83.703 111.308 c 76.066 
111.308 69.152 108.214 64.148 103.214 c 59.145 98.206 56.051 91.292 56.051
 83.655 c 56.051 76.019 59.145 69.105 64.148 64.101 c 69.152 59.097 76.066
 55.999 83.703 55.999 c 91.34 55.999 98.258 59.097 103.258 64.101 c 108.262
 69.105 111.359 76.019 111.359 83.655 c 111.359 91.292 108.262 98.206 103.258
 103.214 c h
290.762 176.027 m 376.559 176.027 l 369.691 202.515 l 368.191 208.296 364.582
 213.761 359.812 217.745 c 355.477 221.37 350.242 223.667 344.93 223.667
 c 290.762 223.667 l h
290.762 176.027 m f*
Q Q
showpage
%%Trailer
end restore
%%EOF
