%!PS-Adobe-3.0 EPSF-3.0
%%Creator: cairo 1.14.2 (http://cairographics.org)
%%CreationDate: Wed Oct  3 10:33:22 2018
%%Pages: 1
%%DocumentData: Clean7Bit
%%LanguageLevel: 2
%%BoundingBox: 0 67 410 342
%%EndComments
%%BeginProlog
save
50 dict begin
/q { gsave } bind def
/Q { grestore } bind def
/cm { 6 array astore concat } bind def
/w { setlinewidth } bind def
/J { setlinecap } bind def
/j { setlinejoin } bind def
/M { setmiterlimit } bind def
/d { setdash } bind def
/m { moveto } bind def
/l { lineto } bind def
/c { curveto } bind def
/h { closepath } bind def
/re { exch dup neg 3 1 roll 5 3 roll moveto 0 rlineto
      0 exch rlineto 0 rlineto closepath } bind def
/S { stroke } bind def
/f { fill } bind def
/f* { eofill } bind def
/n { newpath } bind def
/W { clip } bind def
/W* { eoclip } bind def
/BT { } bind def
/ET { } bind def
/pdfmark where { pop globaldict /?pdfmark /exec load put }
    { globaldict begin /?pdfmark /pop load def /pdfmark
    /cleartomark load def end } ifelse
/BDC { mark 3 1 roll /BDC pdfmark } bind def
/EMC { mark /EMC pdfmark } bind def
/cairo_store_point { /cairo_point_y exch def /cairo_point_x exch def } def
/Tj { show currentpoint cairo_store_point } bind def
/TJ {
  {
    dup
    type /stringtype eq
    { show } { -0.001 mul 0 cairo_font_matrix dtransform rmoveto } ifelse
  } forall
  currentpoint cairo_store_point
} bind def
/cairo_selectfont { cairo_font_matrix aload pop pop pop 0 0 6 array astore
    cairo_font exch selectfont cairo_point_x cairo_point_y moveto } bind def
/Tf { pop /cairo_font exch def /cairo_font_matrix where
      { pop cairo_selectfont } if } bind def
/Td { matrix translate cairo_font_matrix matrix concatmatrix dup
      /cairo_font_matrix exch def dup 4 get exch 5 get cairo_store_point
      /cairo_font where { pop cairo_selectfont } if } bind def
/Tm { 2 copy 8 2 roll 6 array astore /cairo_font_matrix exch def
      cairo_store_point /cairo_font where { pop cairo_selectfont } if } bind def
/g { setgray } bind def
/rg { setrgbcolor } bind def
/d1 { setcachedevice } bind def
%%EndProlog
%%BeginSetup
%%EndSetup
%%Page: 1 1
%%BeginPageSetup
%%PageBoundingBox: 0 67 410 342
%%EndPageSetup
q 0 67 410 275 rectclip q
0 g
52.621 298.1 m 78.32 298.1 l 80.07 309.233 85.398 319.084 93.086 326.596
 c 102.637 335.92 115.82 341.6 130.305 341.6 c 399.961 341.6 l 404.422 341.6
 408.039 337.983 408.039 333.526 c 408.039 329.678 405.352 326.459 401.746
 325.647 c 398.93 324.756 396.477 322.955 394.711 320.577 c 392.898 318.123
 391.82 315.03 391.82 311.639 c 391.82 308.487 392.742 305.6 394.324 303.248
 c 395.938 300.846 398.238 298.971 400.93 297.92 c 405.078 296.299 407.125
 291.623 405.508 287.479 c 404.652 285.295 402.953 283.694 400.93 282.905
 c 398.238 281.854 395.938 279.975 394.324 277.577 c 392.742 275.221 391.82
 272.334 391.82 269.186 c 391.82 266.038 392.742 263.151 394.324 260.795
 c 395.938 258.397 398.238 256.518 400.93 255.467 c 405.078 253.846 407.125
 249.17 405.508 245.026 c 404.652 242.842 402.953 241.245 400.93 240.452
 c 398.238 239.401 395.938 237.526 394.324 235.123 c 392.742 232.772 391.82
 229.881 391.82 226.733 c 391.82 223.588 392.742 220.698 394.324 218.342
 c 395.938 215.944 398.238 214.065 400.93 213.014 c 405.078 211.393 407.125
 206.721 405.508 202.577 c 404.652 200.389 402.953 198.791 400.93 197.998
 c 398.238 196.952 395.938 195.073 394.324 192.67 c 392.742 190.319 391.82
 187.432 391.82 184.28 c 391.82 181.135 392.742 178.245 394.324 175.889 
c 395.938 173.495 398.238 171.616 400.93 170.561 c 405.078 168.944 407.125
 164.268 405.508 160.123 c 404.652 157.94 402.953 156.342 400.93 155.549
 c 398.238 154.498 395.938 152.623 394.324 150.221 c 392.742 147.87 391.82
 144.979 391.82 141.83 c 391.82 138.225 393.023 134.963 395.035 132.452 
c 397.066 129.909 399.906 128.096 403.133 127.444 c 407.488 126.573 410.312
 122.334 409.445 117.983 c 408.68 114.155 405.316 111.51 401.555 111.514
 c 321.988 111.483 l 319.836 110.385 318 108.737 316.648 106.721 c 315.066
 104.37 314.141 101.479 314.141 98.33 c 314.141 94.729 315.348 91.463 317.355
 88.952 c 319.387 86.409 322.227 84.596 325.457 83.944 c 329.809 83.073 
332.637 78.838 331.766 74.483 c 331 70.655 327.637 68.014 323.883 68.014
 c 212.859 68.002 l 212.73 67.998 212.602 67.991 212.477 67.991 c 208.016
 67.991 204.402 71.608 204.402 76.061 c 204.402 80.518 208.016 84.135 212.477
 84.135 c 212.602 84.135 212.73 84.131 212.859 84.123 c 212.859 84.135 l
 301.426 84.135 l 299.23 88.393 297.992 93.225 297.992 98.33 c 297.992 104.741
 299.941 110.717 303.273 115.682 c 304.195 117.057 305.227 118.354 306.352
 119.557 c 305.227 120.76 304.199 122.057 303.273 123.436 c 299.941 128.397
 297.992 134.373 297.992 140.784 c 297.992 147.194 299.941 153.17 303.273
 158.131 c 304.195 159.51 305.227 160.807 306.352 162.01 c 305.227 163.213
 304.199 164.51 303.273 165.889 c 299.941 170.846 297.992 176.827 297.992
 183.237 c 297.992 189.647 299.941 195.623 303.273 200.584 c 304.195 201.963
 305.227 203.26 306.352 204.463 c 305.227 205.666 304.199 206.963 303.273
 208.342 c 299.941 213.299 297.992 219.28 297.992 225.686 c 297.992 232.096
 299.941 238.077 303.273 243.038 c 304.195 244.416 305.227 245.713 306.352
 246.916 c 305.227 248.12 304.199 249.413 303.273 250.791 c 299.941 255.752
 297.992 261.733 297.992 268.139 c 297.992 273.092 299.152 277.788 301.219
 281.952 c 70.695 281.952 l 70.695 84.135 l 147.906 84.135 l 152.367 84.135
 155.977 80.522 155.977 76.065 c 155.977 71.608 152.367 67.995 147.906 67.995
 c 147.82 67.995 l 62.617 67.983 l 52.621 67.983 l 38.145 67.983 24.984 
73.901 15.453 83.436 c 5.918 92.967 0 106.127 0 120.608 c 0 245.479 l 0 
259.959 5.918 273.116 15.453 282.651 c 24.984 292.186 38.145 298.1 52.621
 298.1 c h
180.191 84.135 m 175.734 84.135 172.117 80.518 172.117 76.061 c 172.117
 71.608 175.734 67.991 180.191 67.991 c 184.648 67.991 188.262 71.608 188.262
 76.061 c 188.262 80.522 184.648 84.135 180.191 84.135 c h
215.805 210.58 m 215.805 220.416 211.816 229.319 205.371 235.764 c 200.746
 240.389 194.855 243.748 188.266 245.276 c 188.266 255.549 l 188.266 260.01
 184.648 263.623 180.191 263.623 c 175.73 263.623 172.117 260.01 172.117
 255.549 c 172.117 245.276 l 165.523 243.748 159.633 240.389 155.008 235.764
 c 148.562 229.319 144.574 220.416 144.574 210.58 c 144.574 200.748 148.562
 191.842 155.008 185.401 c 161.453 178.952 170.355 174.967 180.191 174.967
 c 185.566 174.967 190.43 172.791 193.953 169.268 c 197.473 165.748 199.652
 160.881 199.652 155.506 c 199.652 150.127 197.473 145.264 193.953 141.741
 c 190.43 138.221 185.566 136.041 180.191 136.041 c 174.812 136.041 169.945
 138.221 166.426 141.741 c 162.902 145.264 160.727 150.127 160.727 155.506
 c 160.727 159.967 157.109 163.58 152.648 163.58 c 148.191 163.58 144.574
 159.967 144.574 155.506 c 144.574 145.67 148.562 136.768 155.008 130.323
 c 159.633 125.702 165.523 122.342 172.113 120.811 c 172.113 110.538 l 172.113
 106.077 175.727 102.459 180.191 102.459 c 184.648 102.459 188.266 106.077
 188.266 110.538 c 188.266 120.811 l 194.855 122.342 200.742 125.698 205.371
 130.323 c 211.816 136.768 215.805 145.67 215.805 155.506 c 215.805 165.338
 211.816 174.241 205.371 180.686 c 198.926 187.131 190.023 191.12 180.191
 191.12 c 174.812 191.12 169.949 193.295 166.43 196.819 c 162.906 200.342
 160.727 205.205 160.727 210.58 c 160.727 215.955 162.906 220.827 166.43
 224.342 c 169.949 227.866 174.812 230.045 180.191 230.045 c 185.566 230.045
 190.43 227.866 193.953 224.342 c 197.477 220.827 199.652 215.955 199.652
 210.58 c 199.652 206.123 203.27 202.506 207.727 202.506 c 212.188 202.506
 215.805 206.123 215.805 210.58 c h
148.371 325.452 m 148.371 298.1 l 322.285 298.1 l 326.742 298.1 330.359
 294.487 330.359 290.026 c 330.359 286.178 327.672 282.963 324.07 282.151
 c 321.25 281.256 318.801 279.459 317.035 277.077 c 315.219 274.627 314.141
 271.53 314.141 268.139 c 314.141 264.991 315.066 262.1 316.648 259.748 
c 318.258 257.346 320.555 255.471 323.254 254.42 c 327.398 252.799 329.445
 248.123 327.824 243.979 c 326.977 241.795 325.273 240.198 323.254 239.405
 c 320.555 238.354 318.258 236.479 316.648 234.077 c 315.066 231.725 314.141
 228.834 314.141 225.686 c 314.141 222.538 315.066 219.651 316.648 217.295
 c 318.258 214.897 320.555 213.022 323.254 211.967 c 327.398 210.35 329.445
 205.674 327.828 201.53 c 326.977 199.346 325.277 197.745 323.254 196.952
 c 320.555 195.901 318.258 194.026 316.648 191.623 c 315.066 189.272 314.141
 186.385 314.141 183.233 c 314.141 180.088 315.066 177.198 316.648 174.842
 c 318.258 172.444 320.555 170.569 323.254 169.514 c 327.398 167.897 329.445
 163.221 327.828 159.077 c 326.977 156.893 325.277 155.295 323.254 154.502
 c 320.555 153.452 318.258 151.577 316.648 149.174 c 315.066 146.823 314.141
 143.932 314.141 140.784 c 314.141 137.639 315.066 134.748 316.648 132.393
 c 318 130.377 319.836 128.733 321.992 127.635 c 379.102 127.635 l 376.914
 131.893 375.668 136.725 375.668 141.83 c 375.668 148.241 377.617 154.217
 380.953 159.178 c 381.879 160.557 382.91 161.854 384.035 163.057 c 382.91
 164.26 381.879 165.557 380.953 166.936 c 377.621 171.893 375.668 177.873
 375.668 184.284 c 375.668 190.69 377.617 196.67 380.953 201.631 c 381.879
 203.01 382.91 204.307 384.035 205.51 c 382.91 206.713 381.879 208.01 380.953
 209.389 c 377.621 214.346 375.668 220.327 375.668 226.733 c 375.668 233.143
 377.617 239.123 380.953 244.084 c 381.879 245.463 382.91 246.76 384.035
 247.963 c 382.91 249.166 381.879 250.463 380.953 251.838 c 377.621 256.799
 375.668 262.78 375.668 269.186 c 375.668 275.596 377.617 281.577 380.953
 286.538 c 381.879 287.916 382.91 289.209 384.035 290.413 c 382.91 291.62
 381.879 292.913 380.953 294.291 c 377.621 299.252 375.668 305.233 375.668
 311.639 c 375.668 316.592 376.836 321.288 378.898 325.452 c h
132.223 298.1 m 132.223 325.452 l 130.305 325.452 l 120.137 325.452 110.934
 321.514 104.32 315.053 c 99.668 310.514 96.289 304.698 94.758 298.104 c
 132.223 298.104 l h
54.543 84.135 m 54.543 281.952 l 52.625 281.952 l 42.602 281.952 33.484
 277.846 26.871 271.233 c 20.258 264.616 16.148 255.498 16.148 245.479 c
 16.148 120.608 l 16.148 110.584 20.258 101.467 26.871 94.854 c 33.488 88.241
 42.602 84.135 52.625 84.135 c h
54.543 84.135 m f*
Q Q
showpage
%%Trailer
end restore
%%EOF
