%!PS-Adobe-3.0 EPSF-3.0
%%Creator: cairo 1.14.2 (http://cairographics.org)
%%CreationDate: Wed Oct  3 10:33:22 2018
%%Pages: 1
%%DocumentData: Clean7Bit
%%LanguageLevel: 2
%%BoundingBox: 0 7 409 400
%%EndComments
%%BeginProlog
save
50 dict begin
/q { gsave } bind def
/Q { grestore } bind def
/cm { 6 array astore concat } bind def
/w { setlinewidth } bind def
/J { setlinecap } bind def
/j { setlinejoin } bind def
/M { setmiterlimit } bind def
/d { setdash } bind def
/m { moveto } bind def
/l { lineto } bind def
/c { curveto } bind def
/h { closepath } bind def
/re { exch dup neg 3 1 roll 5 3 roll moveto 0 rlineto
      0 exch rlineto 0 rlineto closepath } bind def
/S { stroke } bind def
/f { fill } bind def
/f* { eofill } bind def
/n { newpath } bind def
/W { clip } bind def
/W* { eoclip } bind def
/BT { } bind def
/ET { } bind def
/pdfmark where { pop globaldict /?pdfmark /exec load put }
    { globaldict begin /?pdfmark /pop load def /pdfmark
    /cleartomark load def end } ifelse
/BDC { mark 3 1 roll /BDC pdfmark } bind def
/EMC { mark /EMC pdfmark } bind def
/cairo_store_point { /cairo_point_y exch def /cairo_point_x exch def } def
/Tj { show currentpoint cairo_store_point } bind def
/TJ {
  {
    dup
    type /stringtype eq
    { show } { -0.001 mul 0 cairo_font_matrix dtransform rmoveto } ifelse
  } forall
  currentpoint cairo_store_point
} bind def
/cairo_selectfont { cairo_font_matrix aload pop pop pop 0 0 6 array astore
    cairo_font exch selectfont cairo_point_x cairo_point_y moveto } bind def
/Tf { pop /cairo_font exch def /cairo_font_matrix where
      { pop cairo_selectfont } if } bind def
/Td { matrix translate cairo_font_matrix matrix concatmatrix dup
      /cairo_font_matrix exch def dup 4 get exch 5 get cairo_store_point
      /cairo_font where { pop cairo_selectfont } if } bind def
/Tm { 2 copy 8 2 roll 6 array astore /cairo_font_matrix exch def
      cairo_store_point /cairo_font where { pop cairo_selectfont } if } bind def
/g { setgray } bind def
/rg { setrgbcolor } bind def
/d1 { setcachedevice } bind def
%%EndProlog
%%BeginSetup
%%EndSetup
%%Page: 1 1
%%BeginPageSetup
%%PageBoundingBox: 0 7 409 400
%%EndPageSetup
q 0 7 409 393 rectclip q
0 g
7.227 73.417 m 22.668 73.417 l 22.668 286.62 l 22.668 294.359 25.828 301.386
 30.922 306.48 c 36.012 311.573 43.039 314.73 50.781 314.73 c 101.516 314.73
 l 105.27 334.632 114.848 353.652 130.246 369.05 c 150.613 389.417 177.305
 399.601 204 399.601 c 230.695 399.601 257.383 389.417 277.754 369.05 c 
293.152 353.652 302.73 334.632 306.484 314.73 c 357.219 314.73 l 364.957
 314.73 371.988 311.573 377.078 306.48 c 382.168 301.39 385.332 294.359 
385.332 286.62 c 385.332 73.417 l 400.773 73.417 l 405.207 73.417 408.801
 69.823 408.801 65.394 c 408.801 45.542 l 408.801 43.484 408.023 41.609 
406.754 40.187 c 385.113 11.261 l 383.543 9.167 381.148 8.066 378.719 8.062
 c 29.277 8.03 l 26.395 8.03 23.867 9.558 22.449 11.839 c 0.828 40.745 l
 -0.25 42.183 -0.773 43.87 -0.77 45.538 c -0.801 65.394 l -0.801 69.823 
2.789 73.417 7.227 73.417 c h
235.977 88.722 m 231.543 88.722 227.953 92.316 227.953 96.745 c 227.953
 101.179 231.543 104.769 235.977 104.769 c 337.93 104.769 l 337.93 266.667
 l 304.316 266.667 l 299.617 250.144 290.762 234.554 277.754 221.542 c 209.668
 153.464 l 206.539 150.327 201.457 150.327 198.324 153.464 c 130.246 221.542
 l 117.062 234.73 108.148 250.562 103.496 267.331 c 70.07 267.331 l 70.07
 104.769 l 171.789 104.769 l 176.219 104.769 179.809 101.179 179.809 96.745
 c 179.809 92.316 176.219 88.722 171.789 88.722 c 62.043 88.722 l 57.613
 88.722 54.023 92.316 54.023 96.745 c 54.023 275.355 l 54.023 279.788 57.613
 283.378 62.043 283.378 c 100.379 283.378 l 99.926 287.339 99.695 291.32
 99.695 295.296 c 99.695 296.425 99.715 297.558 99.754 298.683 c 50.781 
298.683 l 47.473 298.683 44.457 297.323 42.266 295.136 c 40.074 292.945 
38.715 289.929 38.715 286.62 c 38.715 73.417 l 369.285 73.417 l 369.285 
286.62 l 369.285 289.929 367.926 292.945 365.734 295.136 c 363.543 297.323
 360.527 298.683 357.219 298.683 c 308.246 298.683 l 308.285 297.558 308.305
 296.429 308.305 295.296 c 308.305 291.097 308.051 286.894 307.547 282.714
 c 345.957 282.714 l 350.387 282.714 353.977 279.124 353.977 274.695 c 353.977
 96.745 l 353.977 92.316 350.387 88.722 345.957 88.722 c h
203.883 104.769 m 199.449 104.769 195.859 101.179 195.859 96.745 c 195.859
 92.316 199.449 88.722 203.883 88.722 c 208.312 88.722 211.906 92.316 211.906
 96.745 c 211.906 101.179 208.312 104.769 203.883 104.769 c h
292.258 295.296 m 292.258 317.886 283.641 340.472 266.406 357.706 c 249.176
 374.937 226.586 383.554 204 383.554 c 181.414 383.554 158.824 374.937 141.594
 357.702 c 124.359 340.472 115.742 317.886 115.742 295.296 c 115.742 272.71
 124.359 250.12 141.59 232.886 c 204 170.48 l 266.406 232.886 l 283.07 249.554
 292.258 271.909 292.258 295.296 c h
250.645 341.941 m 237.762 354.823 220.883 361.265 204 361.265 c 187.117
 361.265 170.238 354.823 157.355 341.945 c 144.473 329.062 138.031 312.179
 138.031 295.296 c 138.031 278.417 144.473 261.534 157.355 248.652 c 170.238
 235.773 187.117 229.327 204 229.327 c 220.883 229.327 237.762 235.773 250.645
 248.652 c 263.527 261.534 269.965 278.417 269.965 295.296 c 269.965 312.179
 263.523 329.062 250.645 341.941 c h
239.301 330.597 m 229.551 340.343 216.773 345.218 204 345.218 c 191.227
 345.218 178.445 340.343 168.699 330.597 c 158.953 320.851 154.082 308.073
 154.082 295.296 c 154.082 282.523 158.953 269.745 168.699 259.995 c 178.445
 250.249 191.227 245.378 204 245.378 c 216.773 245.378 229.555 250.249 239.301
 259.995 c 249.047 269.745 253.918 282.523 253.918 295.296 c 253.918 308.073
 249.047 320.851 239.301 330.597 c h
392.754 57.37 m 15.246 57.37 l 15.246 48.152 l 33.258 24.077 l 374.742 
24.077 l 392.754 48.152 l h
392.754 57.37 m f*
Q Q
showpage
%%Trailer
end restore
%%EOF
