%!PS-Adobe-3.0 EPSF-3.0
%%Creator: cairo 1.14.2 (http://cairographics.org)
%%CreationDate: Wed Oct  3 10:33:22 2018
%%Pages: 1
%%DocumentData: Clean7Bit
%%LanguageLevel: 2
%%BoundingBox: 0 93 409 314
%%EndComments
%%BeginProlog
save
50 dict begin
/q { gsave } bind def
/Q { grestore } bind def
/cm { 6 array astore concat } bind def
/w { setlinewidth } bind def
/J { setlinecap } bind def
/j { setlinejoin } bind def
/M { setmiterlimit } bind def
/d { setdash } bind def
/m { moveto } bind def
/l { lineto } bind def
/c { curveto } bind def
/h { closepath } bind def
/re { exch dup neg 3 1 roll 5 3 roll moveto 0 rlineto
      0 exch rlineto 0 rlineto closepath } bind def
/S { stroke } bind def
/f { fill } bind def
/f* { eofill } bind def
/n { newpath } bind def
/W { clip } bind def
/W* { eoclip } bind def
/BT { } bind def
/ET { } bind def
/pdfmark where { pop globaldict /?pdfmark /exec load put }
    { globaldict begin /?pdfmark /pop load def /pdfmark
    /cleartomark load def end } ifelse
/BDC { mark 3 1 roll /BDC pdfmark } bind def
/EMC { mark /EMC pdfmark } bind def
/cairo_store_point { /cairo_point_y exch def /cairo_point_x exch def } def
/Tj { show currentpoint cairo_store_point } bind def
/TJ {
  {
    dup
    type /stringtype eq
    { show } { -0.001 mul 0 cairo_font_matrix dtransform rmoveto } ifelse
  } forall
  currentpoint cairo_store_point
} bind def
/cairo_selectfont { cairo_font_matrix aload pop pop pop 0 0 6 array astore
    cairo_font exch selectfont cairo_point_x cairo_point_y moveto } bind def
/Tf { pop /cairo_font exch def /cairo_font_matrix where
      { pop cairo_selectfont } if } bind def
/Td { matrix translate cairo_font_matrix matrix concatmatrix dup
      /cairo_font_matrix exch def dup 4 get exch 5 get cairo_store_point
      /cairo_font where { pop cairo_selectfont } if } bind def
/Tm { 2 copy 8 2 roll 6 array astore /cairo_font_matrix exch def
      cairo_store_point /cairo_font where { pop cairo_selectfont } if } bind def
/g { setgray } bind def
/rg { setrgbcolor } bind def
/d1 { setcachedevice } bind def
%%EndProlog
%%BeginSetup
%%EndSetup
%%Page: 1 1
%%BeginPageSetup
%%PageBoundingBox: 0 93 409 314
%%EndPageSetup
q 0 93 409 221 rectclip q
0 g
33.551 313.198 m 277.133 313.198 l 281.543 313.198 285.121 309.62 285.121
 305.214 c 285.121 300.8 281.543 297.222 277.133 297.222 c 96.652 297.222
 l 96.652 285.019 l 96.652 280.605 93.078 277.03 88.664 277.03 c 84.254 
277.03 80.68 280.609 80.68 285.019 c 80.68 297.222 l 33.551 297.222 l 28.508
 297.222 23.914 295.152 20.582 291.82 c 18.727 289.968 17.27 287.73 16.336
 285.241 c 20.07 283.886 23.426 281.726 26.18 278.968 c 31.039 274.109 34.051
 267.394 34.051 259.98 c 34.051 252.558 31.039 245.847 26.18 240.984 c 23.145
 237.948 19.383 235.636 15.18 234.323 c 15.18 229.612 l 19.383 228.304 23.145
 225.991 26.18 222.952 c 31.039 218.089 34.051 211.374 34.051 203.96 c 34.051
 196.542 31.039 189.827 26.18 184.968 c 23.145 181.929 19.383 179.616 15.18
 178.308 c 15.18 173.593 l 19.383 172.288 23.145 169.972 26.18 166.933 c
 31.039 162.073 34.051 155.359 34.051 147.941 c 34.051 140.527 31.039 133.808
 26.18 128.948 c 23.426 126.195 20.07 124.034 16.336 122.679 c 17.27 120.191
 18.727 117.948 20.582 116.101 c 23.914 112.765 28.508 110.698 33.551 110.698
 c 80.68 110.698 l 80.68 122.902 l 80.68 127.312 84.254 130.886 88.664 130.886
 c 93.078 130.886 96.652 127.308 96.652 122.902 c 96.652 110.698 l 143.648
 110.698 l 148.062 110.698 151.641 107.12 151.641 102.71 c 151.641 98.296
 148.062 94.722 143.648 94.722 c 33.551 94.722 l 24.094 94.722 15.508 98.581
 9.285 104.804 c 3.062 111.027 -0.801 119.616 -0.801 129.07 c -0.801 133.48
 2.773 137.058 7.188 137.058 c 10.195 137.058 12.914 138.277 14.883 140.245
 c 16.852 142.214 18.07 144.933 18.07 147.941 c 18.07 150.948 16.852 153.667
 14.883 155.636 c 12.914 157.605 10.195 158.823 7.188 158.823 c 2.773 158.823
 -0.801 162.402 -0.801 166.812 c -0.801 185.085 l -0.801 189.495 2.773 193.073
 7.188 193.073 c 10.195 193.073 12.914 194.292 14.883 196.261 c 16.852 198.23
 18.07 200.948 18.07 203.956 c 18.07 206.964 16.852 209.683 14.883 211.652
 c 12.914 213.624 10.195 214.839 7.188 214.839 c 2.773 214.843 -0.801 218.421
 -0.801 222.831 c -0.801 241.105 l -0.801 245.519 2.773 249.093 7.188 249.093
 c 10.195 249.093 12.914 250.308 14.883 252.277 c 16.852 254.245 18.07 256.968
 18.07 259.976 c 18.07 262.984 16.852 265.702 14.883 267.675 c 12.914 269.644
 10.195 270.859 7.188 270.859 c 2.773 270.859 -0.801 274.437 -0.801 278.847
 c -0.801 288.304 3.062 296.894 9.285 303.112 c 15.508 309.339 24.094 313.198
 33.551 313.198 c h
175.602 110.698 m 171.195 110.698 167.617 107.12 167.617 102.706 c 167.617
 98.296 171.195 94.718 175.602 94.718 c 180.016 94.718 183.594 98.296 183.594
 102.706 c 183.594 107.12 180.016 110.698 175.602 110.698 c h
207.559 94.718 m 374.449 94.718 l 383.906 94.718 392.492 98.581 398.715
 104.804 c 404.938 111.027 408.801 119.616 408.801 129.07 c 408.801 278.851
 l 408.801 288.304 404.938 296.894 398.715 303.116 c 392.492 309.339 383.906
 313.198 374.449 313.198 c 341.039 313.198 l 336.629 313.198 333.055 309.624
 333.055 305.214 c 333.055 300.8 336.629 297.226 341.039 297.226 c 374.449
 297.226 l 379.492 297.226 384.086 295.152 387.422 291.823 c 390.754 288.487
 392.824 283.898 392.824 278.851 c 392.824 129.07 l 392.824 124.027 390.754
 119.433 387.422 116.101 c 384.086 112.765 379.492 110.698 374.449 110.698
 c 207.559 110.698 l 203.148 110.698 199.57 107.12 199.57 102.71 c 199.57
 98.296 203.148 94.718 207.559 94.718 c h
309.086 313.198 m 313.496 313.198 317.074 309.62 317.074 305.214 c 317.074
 300.8 313.496 297.222 309.086 297.222 c 304.676 297.222 301.098 300.8 301.098
 305.214 c 301.098 309.624 304.676 313.198 309.086 313.198 c h
274.02 266.445 m 197.379 150.214 l 194.965 146.542 195.988 141.609 199.656
 139.198 c 203.328 136.784 208.258 137.808 210.672 141.476 c 287.312 257.706
 l 289.727 261.378 288.707 266.308 285.035 268.722 c 281.367 271.136 276.43
 270.112 274.02 266.445 c h
280.664 195.339 m 272.73 195.339 265.543 192.124 260.344 186.921 c 255.141
 181.722 251.922 174.534 251.922 166.601 c 251.922 158.663 255.141 151.48
 260.344 146.277 c 265.543 141.073 272.73 137.855 280.664 137.855 c 288.602
 137.855 295.789 141.073 300.992 146.277 c 306.195 151.48 309.41 158.663
 309.41 166.601 c 309.41 174.534 306.195 181.722 300.992 186.921 c 295.789
 192.124 288.602 195.339 280.664 195.339 c h
289.695 175.628 m 287.383 177.937 284.195 179.366 280.664 179.366 c 277.141
 179.366 273.945 177.937 271.637 175.628 c 269.328 173.32 267.898 170.124
 267.898 166.601 c 267.898 163.073 269.328 159.882 271.637 157.573 c 273.945
 155.261 277.141 153.831 280.664 153.831 c 284.195 153.831 287.383 155.261
 289.695 157.573 c 292.004 159.882 293.434 163.073 293.434 166.601 c 293.434
 170.124 292.004 173.32 289.695 175.628 c h
204.023 270.062 m 196.09 270.062 188.902 266.847 183.703 261.644 c 178.5
 256.441 175.281 249.257 175.281 241.323 c 175.281 233.386 178.5 226.198
 183.703 220.995 c 188.902 215.792 196.09 212.577 204.023 212.577 c 211.961
 212.577 219.148 215.792 224.352 220.995 c 229.555 226.198 232.77 233.386
 232.77 241.323 c 232.77 249.257 229.555 256.441 224.352 261.644 c 219.148
 266.847 211.961 270.062 204.023 270.062 c h
213.055 250.347 m 210.742 252.659 207.555 254.089 204.023 254.089 c 200.5
 254.089 197.305 252.659 194.996 250.347 c 192.688 248.038 191.258 244.847
 191.258 241.323 c 191.258 237.792 192.688 234.605 194.996 232.292 c 197.309
 229.98 200.5 228.554 204.023 228.554 c 207.555 228.554 210.742 229.98 213.055
 232.292 c 215.367 234.605 216.793 237.792 216.793 241.323 c 216.793 244.847
 215.367 248.038 213.055 250.347 c h
80.68 168.48 m 80.68 148.288 l 80.68 143.87 84.254 140.296 88.664 140.296
 c 93.078 140.296 96.652 143.874 96.652 148.288 c 96.652 168.48 l 96.652
 172.89 93.078 176.464 88.664 176.464 c 84.254 176.464 80.68 172.89 80.68
 168.48 c h
80.68 214.058 m 80.68 193.862 l 80.68 189.452 84.254 185.874 88.664 185.874
 c 93.078 185.874 96.652 189.452 96.652 193.862 c 96.652 214.058 l 96.652
 218.468 93.078 222.042 88.664 222.042 c 84.254 222.042 80.68 218.464 80.68
 214.058 c h
80.68 259.636 m 80.68 239.441 l 80.68 235.027 84.254 231.452 88.664 231.452
 c 93.078 231.452 96.652 235.03 96.652 239.441 c 96.652 259.636 l 96.652
 264.042 93.078 267.62 88.664 267.62 c 84.254 267.62 80.68 264.042 80.68
 259.636 c h
80.68 259.636 m f*
Q Q
showpage
%%Trailer
end restore
%%EOF
