%!PS-Adobe-3.0 EPSF-3.0
%%Creator: cairo 1.14.2 (http://cairographics.org)
%%CreationDate: Wed Oct  3 10:33:22 2018
%%Pages: 1
%%DocumentData: Clean7Bit
%%LanguageLevel: 2
%%BoundingBox: 0 64 410 345
%%EndComments
%%BeginProlog
save
50 dict begin
/q { gsave } bind def
/Q { grestore } bind def
/cm { 6 array astore concat } bind def
/w { setlinewidth } bind def
/J { setlinecap } bind def
/j { setlinejoin } bind def
/M { setmiterlimit } bind def
/d { setdash } bind def
/m { moveto } bind def
/l { lineto } bind def
/c { curveto } bind def
/h { closepath } bind def
/re { exch dup neg 3 1 roll 5 3 roll moveto 0 rlineto
      0 exch rlineto 0 rlineto closepath } bind def
/S { stroke } bind def
/f { fill } bind def
/f* { eofill } bind def
/n { newpath } bind def
/W { clip } bind def
/W* { eoclip } bind def
/BT { } bind def
/ET { } bind def
/pdfmark where { pop globaldict /?pdfmark /exec load put }
    { globaldict begin /?pdfmark /pop load def /pdfmark
    /cleartomark load def end } ifelse
/BDC { mark 3 1 roll /BDC pdfmark } bind def
/EMC { mark /EMC pdfmark } bind def
/cairo_store_point { /cairo_point_y exch def /cairo_point_x exch def } def
/Tj { show currentpoint cairo_store_point } bind def
/TJ {
  {
    dup
    type /stringtype eq
    { show } { -0.001 mul 0 cairo_font_matrix dtransform rmoveto } ifelse
  } forall
  currentpoint cairo_store_point
} bind def
/cairo_selectfont { cairo_font_matrix aload pop pop pop 0 0 6 array astore
    cairo_font exch selectfont cairo_point_x cairo_point_y moveto } bind def
/Tf { pop /cairo_font exch def /cairo_font_matrix where
      { pop cairo_selectfont } if } bind def
/Td { matrix translate cairo_font_matrix matrix concatmatrix dup
      /cairo_font_matrix exch def dup 4 get exch 5 get cairo_store_point
      /cairo_font where { pop cairo_selectfont } if } bind def
/Tm { 2 copy 8 2 roll 6 array astore /cairo_font_matrix exch def
      cairo_store_point /cairo_font where { pop cairo_selectfont } if } bind def
/g { setgray } bind def
/rg { setrgbcolor } bind def
/d1 { setcachedevice } bind def
%%EndProlog
%%BeginSetup
%%EndSetup
%%Page: 1 1
%%BeginPageSetup
%%PageBoundingBox: 0 64 410 345
%%EndPageSetup
q 0 64 410 281 rectclip q
0 g
260.949 111.803 m 116.902 111.803 l 112.43 111.803 108.805 115.428 108.805
 119.901 c 108.805 124.373 112.43 127.998 116.902 127.998 c 252.352 127.998
 l 249.289 136.073 247.617 144.827 247.617 153.975 c 247.617 162.073 248.93
 169.858 251.352 177.139 c 251.352 304.967 l 251.352 309.436 254.977 313.061
 259.445 313.061 c 263.914 313.061 267.539 309.436 267.539 304.967 c 267.539
 204.221 l 268.051 204.764 268.566 205.295 269.094 205.823 c 273.125 209.858
 277.629 213.42 282.508 216.432 c 282.508 304.963 l 282.508 309.436 286.133
 313.061 290.602 313.061 c 295.074 313.061 298.699 309.436 298.699 304.963
 c 298.699 223.862 l 303.492 225.389 308.504 226.432 313.664 226.94 c 313.664
 304.963 l 313.664 309.436 317.289 313.061 321.762 313.061 c 326.23 313.061
 329.855 309.436 329.855 304.963 c 329.855 226.764 l 335.793 226.041 341.512
 224.612 346.922 222.561 c 346.922 315.979 l 346.922 319.225 345.59 322.178
 343.441 324.327 c 341.293 326.475 338.336 327.811 335.094 327.811 c 310.973
 327.811 l 306.5 327.811 302.875 331.432 302.875 335.905 c 302.875 340.373
 306.5 343.998 310.973 343.998 c 335.094 343.998 l 342.805 343.998 349.812
 340.85 354.887 335.776 c 359.961 330.702 363.113 323.694 363.113 315.979
 c 363.113 213.967 l 366.57 211.53 369.809 208.807 372.789 205.827 c 386.059
 192.553 394.27 174.225 394.27 153.975 c 394.27 136.643 388.254 120.717 
378.199 108.166 c 407.23 79.135 l 410.391 75.971 410.391 70.846 407.23 67.686
 c 404.07 64.526 398.945 64.526 395.789 67.686 c 366.754 96.721 l 354.199
 86.666 338.273 80.651 320.945 80.651 c 300.695 80.651 282.367 88.858 269.094
 102.127 c 266.113 105.108 263.383 108.346 260.949 111.803 c h
52.145 127.995 m 28.023 127.995 l 24.773 127.995 21.82 129.327 19.672 131.475
 c 17.523 133.623 16.191 136.58 16.191 139.827 c 16.191 315.979 l 16.191
 319.225 17.523 322.178 19.672 324.327 c 21.82 326.475 24.773 327.811 28.023
 327.811 c 246.211 327.811 l 250.68 327.811 254.305 331.432 254.305 335.905
 c 254.305 340.373 250.68 343.998 246.211 343.998 c 28.023 343.998 l 20.305
 343.998 13.301 340.85 8.227 335.776 c 3.148 330.702 0 323.69 0 315.979 
c 0 139.827 l 0 132.108 3.148 125.104 8.227 120.03 c 13.301 114.952 20.305
 111.803 28.023 111.803 c 52.145 111.803 l 56.613 111.803 60.238 115.428
 60.238 119.901 c 60.238 124.373 56.613 127.995 52.145 127.995 c h
84.523 127.995 m 88.992 127.995 92.617 124.373 92.617 119.901 c 92.617 
115.428 88.992 111.803 84.523 111.803 c 80.055 111.803 76.43 115.428 76.43
 119.901 c 76.43 124.373 80.055 127.995 84.523 127.995 c h
278.586 343.998 m 274.117 343.998 270.492 340.373 270.492 335.905 c 270.492
 331.432 274.117 327.807 278.586 327.807 c 283.059 327.807 286.684 331.432
 286.684 335.905 c 286.684 340.373 283.059 343.998 278.586 343.998 c h
33.258 304.967 m 33.258 309.436 36.879 313.061 41.352 313.061 c 45.82 313.061
 49.445 309.436 49.445 304.967 c 49.445 150.838 l 49.445 146.37 45.82 142.745
 41.352 142.745 c 36.879 142.745 33.258 146.366 33.258 150.838 c h
220.195 304.967 m 220.195 187.186 l 220.195 182.717 223.82 179.092 228.289
 179.092 c 232.762 179.092 236.387 182.717 236.387 187.186 c 236.387 304.967
 l 236.387 309.436 232.762 313.061 228.289 313.061 c 223.82 313.061 220.195
 309.436 220.195 304.967 c h
189.039 304.967 m 189.039 171.608 l 189.039 167.139 192.664 163.514 197.133
 163.514 c 201.602 163.514 205.227 167.139 205.227 171.608 c 205.227 304.967
 l 205.227 309.436 201.605 313.061 197.133 313.061 c 192.664 313.061 189.039
 309.436 189.039 304.967 c h
157.883 304.967 m 157.883 171.608 l 157.883 167.139 161.508 163.514 165.977
 163.514 c 170.445 163.514 174.07 167.139 174.07 171.608 c 174.07 304.967
 l 174.07 309.436 170.449 313.061 165.977 313.061 c 161.508 313.061 157.883
 309.436 157.883 304.967 c h
126.727 304.967 m 126.727 205.362 l 126.727 200.893 130.352 197.268 134.82
 197.268 c 139.289 197.268 142.914 200.889 142.914 205.362 c 142.914 304.967
 l 142.914 309.436 139.289 313.061 134.82 313.061 c 130.352 313.061 126.727
 309.436 126.727 304.967 c h
95.57 304.967 m 95.57 187.186 l 95.57 182.717 99.195 179.092 103.664 179.092
 c 108.133 179.092 111.758 182.717 111.758 187.186 c 111.758 304.967 l 111.758
 309.436 108.133 313.061 103.664 313.061 c 99.195 313.061 95.57 309.436 
95.57 304.967 c h
64.414 304.967 m 64.414 309.436 68.039 313.061 72.508 313.061 c 76.977 
313.061 80.602 309.436 80.602 304.967 c 80.602 187.186 l 80.602 182.717 
76.977 179.092 72.508 179.092 c 68.039 179.092 64.414 182.717 64.414 187.186
 c h
378.074 153.975 m 378.074 169.752 371.68 184.038 361.34 194.373 c 351.004
 204.717 336.719 211.108 320.941 211.108 c 305.703 211.108 291.262 205.1
 280.539 194.373 c 270.199 184.038 263.805 169.752 263.805 153.975 c 263.805
 138.198 270.199 123.913 280.539 113.577 c 290.879 103.233 305.164 96.842
 320.941 96.842 c 352.496 96.842 378.074 122.42 378.074 153.975 c h
378.074 153.975 m f*
Q Q
showpage
%%Trailer
end restore
%%EOF
