%!PS-Adobe-3.0 EPSF-3.0
%%Creator: cairo 1.14.2 (http://cairographics.org)
%%CreationDate: Wed Oct  3 10:33:22 2018
%%Pages: 1
%%DocumentData: Clean7Bit
%%LanguageLevel: 2
%%BoundingBox: 0 10 410 399
%%EndComments
%%BeginProlog
save
50 dict begin
/q { gsave } bind def
/Q { grestore } bind def
/cm { 6 array astore concat } bind def
/w { setlinewidth } bind def
/J { setlinecap } bind def
/j { setlinejoin } bind def
/M { setmiterlimit } bind def
/d { setdash } bind def
/m { moveto } bind def
/l { lineto } bind def
/c { curveto } bind def
/h { closepath } bind def
/re { exch dup neg 3 1 roll 5 3 roll moveto 0 rlineto
      0 exch rlineto 0 rlineto closepath } bind def
/S { stroke } bind def
/f { fill } bind def
/f* { eofill } bind def
/n { newpath } bind def
/W { clip } bind def
/W* { eoclip } bind def
/BT { } bind def
/ET { } bind def
/pdfmark where { pop globaldict /?pdfmark /exec load put }
    { globaldict begin /?pdfmark /pop load def /pdfmark
    /cleartomark load def end } ifelse
/BDC { mark 3 1 roll /BDC pdfmark } bind def
/EMC { mark /EMC pdfmark } bind def
/cairo_store_point { /cairo_point_y exch def /cairo_point_x exch def } def
/Tj { show currentpoint cairo_store_point } bind def
/TJ {
  {
    dup
    type /stringtype eq
    { show } { -0.001 mul 0 cairo_font_matrix dtransform rmoveto } ifelse
  } forall
  currentpoint cairo_store_point
} bind def
/cairo_selectfont { cairo_font_matrix aload pop pop pop 0 0 6 array astore
    cairo_font exch selectfont cairo_point_x cairo_point_y moveto } bind def
/Tf { pop /cairo_font exch def /cairo_font_matrix where
      { pop cairo_selectfont } if } bind def
/Td { matrix translate cairo_font_matrix matrix concatmatrix dup
      /cairo_font_matrix exch def dup 4 get exch 5 get cairo_store_point
      /cairo_font where { pop cairo_selectfont } if } bind def
/Tm { 2 copy 8 2 roll 6 array astore /cairo_font_matrix exch def
      cairo_store_point /cairo_font where { pop cairo_selectfont } if } bind def
/g { setgray } bind def
/rg { setrgbcolor } bind def
/d1 { setcachedevice } bind def
%%EndProlog
%%BeginSetup
%%EndSetup
%%Page: 1 1
%%BeginPageSetup
%%PageBoundingBox: 0 10 410 399
%%EndPageSetup
q 0 10 410 389 rectclip q
0 g
0 349.733 m 0 351.409 0.516 352.967 1.391 354.256 c 25.016 394.014 l 26.348
 396.62 29.055 398.401 32.18 398.401 c 377.418 398.385 l 380.164 398.385
 382.836 396.975 384.332 394.44 c 408.207 354.256 l 409.113 352.913 409.602
 351.393 409.602 349.733 c 409.602 116.561 l 409.602 107.022 405.703 98.358
 399.43 92.08 c 393.152 85.807 384.488 81.909 374.953 81.909 c 243.441 81.909
 l 245.645 72.092 249.371 62.873 254.367 54.498 c 261.051 43.295 270.027
 33.561 280.668 25.932 c 284.277 23.346 285.109 18.323 282.523 14.713 c 
280.953 12.526 278.488 11.358 275.984 11.358 c 237.195 11.354 l 237.121 
11.354 237.051 11.35 236.98 11.35 c 232.539 11.35 228.934 14.952 228.934
 19.397 c 228.934 23.842 232.539 27.44 236.98 27.44 c 254.73 27.44 l 249.387
 33.178 244.648 39.487 240.602 46.268 c 234.129 57.116 229.461 69.135 227.02
 81.913 c 182.578 81.913 l 180.133 69.135 175.469 57.116 168.996 46.268 
c 164.953 39.487 160.211 33.178 154.867 27.44 c 172.617 27.44 l 177.062 
27.44 180.664 23.842 180.664 19.397 c 180.664 14.952 177.062 11.35 172.617
 11.35 c 172.531 11.354 l 133.613 11.35 l 129.168 11.35 125.57 14.952 125.57
 19.397 c 125.57 22.182 126.984 24.639 129.133 26.08 c 139.684 33.686 148.59
 43.366 155.23 54.498 c 160.227 62.873 163.957 72.092 166.16 81.909 c 34.648
 81.909 l 25.109 81.909 16.445 85.807 10.172 92.08 c 3.898 98.358 0 107.022
 0 116.561 c h
204.801 27.444 m 200.355 27.444 196.754 23.842 196.754 19.397 c 196.754
 14.952 200.355 11.354 204.801 11.354 c 209.242 11.354 212.844 14.952 212.844
 19.397 c 212.844 23.842 209.242 27.444 204.801 27.444 c h
190.586 107.28 m 219.016 107.28 l 223.461 107.28 227.062 110.885 227.062
 115.327 c 227.062 119.772 223.461 123.373 219.016 123.373 c 190.586 123.373
 l 186.141 123.373 182.539 119.772 182.539 115.327 c 182.539 110.885 186.141
 107.28 190.586 107.28 c h
16.09 148.741 m 393.508 148.741 l 393.508 261.955 l 385.148 254.577 374.18
 250.08 362.203 250.08 c 349.16 250.08 337.312 255.409 328.723 263.998 c
 326.543 266.174 324.574 268.561 322.852 271.127 c 321.125 268.561 319.16
 266.174 316.98 263.998 c 308.395 255.413 296.543 250.08 283.5 250.08 c 
270.461 250.08 258.609 255.409 250.023 263.998 c 247.844 266.174 245.875
 268.561 244.148 271.127 c 242.426 268.561 240.457 266.174 238.277 263.998
 c 229.691 255.413 217.84 250.08 204.797 250.08 c 191.758 250.08 179.906
 255.409 171.32 263.998 c 169.141 266.174 167.172 268.561 165.445 271.127
 c 163.723 268.561 161.754 266.174 159.574 263.998 c 150.988 255.413 139.137
 250.08 126.094 250.08 c 113.055 250.08 101.203 255.409 92.617 263.998 c
 90.438 266.174 88.469 268.561 86.742 271.127 c 85.02 268.561 83.051 266.174
 80.871 263.998 c 72.285 255.413 60.434 250.08 47.391 250.08 c 35.414 250.08
 24.445 254.577 16.086 261.955 c 16.086 148.741 l h
393.508 132.651 m 16.09 132.651 l 16.09 116.561 l 16.09 111.467 18.18 106.827
 21.547 103.459 c 24.914 100.092 29.555 98.002 34.648 98.002 c 374.953 98.002
 l 380.047 98.002 384.684 100.092 388.055 103.459 c 391.418 106.827 393.508
 111.467 393.508 116.561 c h
22.164 357.78 m 387.434 357.78 l 372.855 382.311 l 36.742 382.311 l h
362.203 266.17 m 370.805 266.17 378.633 269.694 384.309 275.373 c 389.984
 281.049 393.508 288.873 393.508 297.475 c 393.508 341.686 l 330.898 341.686
 l 330.898 297.475 l 330.898 288.873 334.422 281.049 340.102 275.373 c 345.777
 269.694 353.602 266.17 362.203 266.17 c h
283.504 266.17 m 292.102 266.17 299.93 269.694 305.605 275.373 c 311.285
 281.049 314.809 288.873 314.809 297.475 c 314.809 341.686 l 252.195 341.686
 l 252.195 297.475 l 252.195 288.873 255.719 281.049 261.398 275.373 c 267.074
 269.694 274.898 266.17 283.504 266.17 c h
204.801 266.17 m 213.398 266.17 221.227 269.694 226.902 275.373 c 232.582
 281.049 236.105 288.873 236.105 297.475 c 236.105 341.686 l 173.492 341.686
 l 173.492 297.475 l 173.492 288.873 177.02 281.049 182.695 275.373 c 188.375
 269.694 196.199 266.17 204.801 266.17 c h
126.098 266.17 m 134.695 266.17 142.523 269.694 148.203 275.373 c 153.879
 281.049 157.402 288.873 157.402 297.475 c 157.402 341.686 l 94.789 341.686
 l 94.789 297.475 l 94.789 288.873 98.316 281.049 103.992 275.373 c 109.672
 269.694 117.496 266.17 126.098 266.17 c h
47.398 266.17 m 55.996 266.17 63.82 269.694 69.5 275.373 c 75.18 281.049
 78.703 288.873 78.703 297.475 c 78.703 341.686 l 16.09 341.686 l 16.09 
297.475 l 16.09 288.873 19.613 281.049 25.289 275.373 c 30.969 269.694 38.793
 266.17 47.398 266.17 c h
47.398 266.17 m f*
Q Q
showpage
%%Trailer
end restore
%%EOF
