%!PS-Adobe-3.0 EPSF-3.0
%%Creator: cairo 1.14.2 (http://cairographics.org)
%%CreationDate: Wed Oct  3 10:33:22 2018
%%Pages: 1
%%DocumentData: Clean7Bit
%%LanguageLevel: 2
%%BoundingBox: 0 12 410 396
%%EndComments
%%BeginProlog
save
50 dict begin
/q { gsave } bind def
/Q { grestore } bind def
/cm { 6 array astore concat } bind def
/w { setlinewidth } bind def
/J { setlinecap } bind def
/j { setlinejoin } bind def
/M { setmiterlimit } bind def
/d { setdash } bind def
/m { moveto } bind def
/l { lineto } bind def
/c { curveto } bind def
/h { closepath } bind def
/re { exch dup neg 3 1 roll 5 3 roll moveto 0 rlineto
      0 exch rlineto 0 rlineto closepath } bind def
/S { stroke } bind def
/f { fill } bind def
/f* { eofill } bind def
/n { newpath } bind def
/W { clip } bind def
/W* { eoclip } bind def
/BT { } bind def
/ET { } bind def
/pdfmark where { pop globaldict /?pdfmark /exec load put }
    { globaldict begin /?pdfmark /pop load def /pdfmark
    /cleartomark load def end } ifelse
/BDC { mark 3 1 roll /BDC pdfmark } bind def
/EMC { mark /EMC pdfmark } bind def
/cairo_store_point { /cairo_point_y exch def /cairo_point_x exch def } def
/Tj { show currentpoint cairo_store_point } bind def
/TJ {
  {
    dup
    type /stringtype eq
    { show } { -0.001 mul 0 cairo_font_matrix dtransform rmoveto } ifelse
  } forall
  currentpoint cairo_store_point
} bind def
/cairo_selectfont { cairo_font_matrix aload pop pop pop 0 0 6 array astore
    cairo_font exch selectfont cairo_point_x cairo_point_y moveto } bind def
/Tf { pop /cairo_font exch def /cairo_font_matrix where
      { pop cairo_selectfont } if } bind def
/Td { matrix translate cairo_font_matrix matrix concatmatrix dup
      /cairo_font_matrix exch def dup 4 get exch 5 get cairo_store_point
      /cairo_font where { pop cairo_selectfont } if } bind def
/Tm { 2 copy 8 2 roll 6 array astore /cairo_font_matrix exch def
      cairo_store_point /cairo_font where { pop cairo_selectfont } if } bind def
/g { setgray } bind def
/rg { setrgbcolor } bind def
/d1 { setcachedevice } bind def
%%EndProlog
%%BeginSetup
%%EndSetup
%%Page: 1 1
%%BeginPageSetup
%%PageBoundingBox: 0 12 410 396
%%EndPageSetup
q 0 12 410 384 rectclip q
0 g
23.715 261.597 m 44.867 261.597 l 44.867 318.765 l 44.867 323.198 48.461
 326.788 52.891 326.788 c 105.633 326.788 l 105.633 359.812 l 105.633 364.241
 109.227 367.835 113.652 367.835 c 166.398 367.835 l 166.398 387.577 l 166.398
 392.011 169.988 395.601 174.414 395.601 c 295.945 395.601 l 300.375 395.601
 303.965 392.011 303.965 387.577 c 303.965 306.87 l 356.711 306.87 l 361.137
 306.87 364.73 303.277 364.73 298.847 c 364.73 261.597 l 385.883 261.597
 l 392.414 261.597 398.344 258.933 402.637 254.636 c 406.93 250.343 409.598
 244.413 409.598 237.882 c 409.598 204.081 l 409.598 197.55 406.93 191.62
 402.637 187.323 c 399.762 184.448 396.156 182.308 392.129 181.202 c 345.273
 18.96 l 344.258 15.464 341.062 13.187 337.594 13.191 c 236.801 13.179 l
 236.801 13.183 l 232.383 13.183 228.801 16.765 228.801 21.183 c 228.801
 25.605 232.383 29.183 236.801 29.183 c 236.801 29.206 l 331.59 29.206 l
 375.246 180.362 l 236.801 180.362 l 236.801 180.386 l 232.383 180.386 228.801
 183.964 228.801 188.386 c 228.801 192.804 232.383 196.386 236.801 196.386
 c 236.801 196.405 l 385.883 196.405 l 387.984 196.405 389.902 197.273 391.297
 198.667 c 392.691 200.058 393.555 201.98 393.555 204.077 c 393.555 237.882
 l 393.555 239.984 392.691 241.902 391.297 243.292 c 389.902 244.687 387.984
 245.554 385.883 245.554 c 23.715 245.554 l 21.613 245.554 19.695 244.687
 18.305 243.292 c 16.91 241.902 16.043 239.984 16.043 237.882 c 16.043 204.077
 l 16.043 201.98 16.91 200.062 18.305 198.667 c 19.695 197.273 21.613 196.405
 23.715 196.405 c 172.801 196.405 l 172.801 196.386 l 177.219 196.386 180.801
 192.804 180.801 188.386 c 180.801 183.964 177.219 180.386 172.801 180.386
 c 172.801 180.362 l 34.352 180.362 l 78.008 29.206 l 172.801 29.206 l 172.801
 29.183 l 177.219 29.183 180.801 25.605 180.801 21.183 c 180.801 16.765 
177.219 13.183 172.801 13.183 c 172.801 13.171 l 72.008 13.163 l 68.105 
13.163 64.855 15.945 64.133 19.628 c 17.473 181.202 l 13.441 182.308 9.836
 184.448 6.961 187.323 c 2.664 191.62 0 197.55 0 204.081 c 0 237.882 l 0
 244.413 2.664 250.343 6.961 254.636 c 11.254 258.933 17.184 261.597 23.715
 261.597 c h
204.801 196.386 m 200.383 196.386 196.801 192.804 196.801 188.386 c 196.801
 183.968 200.383 180.386 204.801 180.386 c 209.219 180.386 212.801 183.968
 212.801 188.386 c 212.801 192.804 209.219 196.386 204.801 196.386 c h
204.801 29.183 m 200.383 29.183 196.801 25.605 196.801 21.183 c 196.801
 16.765 200.383 13.183 204.801 13.183 c 209.219 13.183 212.801 16.765 212.801
 21.183 c 212.801 25.605 209.219 29.183 204.801 29.183 c h
303.969 290.823 m 303.969 261.597 l 348.688 261.597 l 348.688 290.823 l
 h
60.914 261.597 m 105.633 261.597 l 105.633 310.745 l 60.914 310.745 l h
121.676 261.597 m 166.398 261.597 l 166.398 351.792 l 121.676 351.792 l
 h
182.441 261.597 m 287.922 261.597 l 287.922 379.558 l 182.441 379.558 l
 h
105.633 156.394 m 105.633 53.179 l 105.633 48.745 109.227 45.155 113.652
 45.155 c 118.086 45.155 121.676 48.745 121.676 53.179 c 121.676 156.394
 l 121.676 160.823 118.086 164.417 113.652 164.417 c 109.227 164.417 105.633
 160.823 105.633 156.394 c h
287.922 156.394 m 287.922 53.179 l 287.922 48.745 291.516 45.155 295.945
 45.155 c 300.375 45.155 303.965 48.745 303.965 53.179 c 303.965 156.394
 l 303.965 160.823 300.375 164.417 295.945 164.417 c 291.516 164.417 287.922
 160.823 287.922 156.394 c h
227.16 156.394 m 227.16 53.179 l 227.16 48.745 230.75 45.155 235.18 45.155
 c 239.613 45.155 243.203 48.745 243.203 53.179 c 243.203 156.394 l 243.203
 160.823 239.613 164.417 235.18 164.417 c 230.754 164.417 227.16 160.823
 227.16 156.394 c h
166.398 156.394 m 166.398 53.179 l 166.398 48.745 169.988 45.155 174.418
 45.155 c 178.848 45.155 182.441 48.745 182.441 53.179 c 182.441 156.394
 l 182.441 160.823 178.848 164.417 174.418 164.417 c 169.988 164.417 166.398
 160.823 166.398 156.394 c h
166.398 156.394 m f*
Q Q
showpage
%%Trailer
end restore
%%EOF
